%!PS-Adobe-3.0 EPSF-3.0
%%Creator: cairo 1.12.2 (http://cairographics.org)
%%CreationDate: Wed Oct 10 10:42:32 2012
%%Pages: 1
%%DocumentData: Clean7Bit
%%LanguageLevel: 2
%%BoundingBox: 0 -1 52 52
%%EndComments
%%BeginProlog
save
50 dict begin
/q { gsave } bind def
/Q { grestore } bind def
/cm { 6 array astore concat } bind def
/w { setlinewidth } bind def
/J { setlinecap } bind def
/j { setlinejoin } bind def
/M { setmiterlimit } bind def
/d { setdash } bind def
/m { moveto } bind def
/l { lineto } bind def
/c { curveto } bind def
/h { closepath } bind def
/re { exch dup neg 3 1 roll 5 3 roll moveto 0 rlineto
      0 exch rlineto 0 rlineto closepath } bind def
/S { stroke } bind def
/f { fill } bind def
/f* { eofill } bind def
/n { newpath } bind def
/W { clip } bind def
/W* { eoclip } bind def
/BT { } bind def
/ET { } bind def
/pdfmark where { pop globaldict /?pdfmark /exec load put }
    { globaldict begin /?pdfmark /pop load def /pdfmark
    /cleartomark load def end } ifelse
/BDC { mark 3 1 roll /BDC pdfmark } bind def
/EMC { mark /EMC pdfmark } bind def
/cairo_store_point { /cairo_point_y exch def /cairo_point_x exch def } def
/Tj { show currentpoint cairo_store_point } bind def
/TJ {
  {
    dup
    type /stringtype eq
    { show } { -0.001 mul 0 cairo_font_matrix dtransform rmoveto } ifelse
  } forall
  currentpoint cairo_store_point
} bind def
/cairo_selectfont { cairo_font_matrix aload pop pop pop 0 0 6 array astore
    cairo_font exch selectfont cairo_point_x cairo_point_y moveto } bind def
/Tf { pop /cairo_font exch def /cairo_font_matrix where
      { pop cairo_selectfont } if } bind def
/Td { matrix translate cairo_font_matrix matrix concatmatrix dup
      /cairo_font_matrix exch def dup 4 get exch 5 get cairo_store_point
      /cairo_font where { pop cairo_selectfont } if } bind def
/Tm { 2 copy 8 2 roll 6 array astore /cairo_font_matrix exch def
      cairo_store_point /cairo_font where { pop cairo_selectfont } if } bind def
/g { setgray } bind def
/rg { setrgbcolor } bind def
/d1 { setcachedevice } bind def
%%EndProlog
%%Page: 1 1
%%BeginPageSetup
%%PageBoundingBox: 0 -1 52 52
%%EndPageSetup
q 0 -1 52 53 rectclip q
1 g
48.332 25.356 m 48.332 12.86 38.203 2.735 25.711 2.735 c 13.215 2.735 3.09
 12.86 3.09 25.356 c 3.09 37.848 13.215 47.977 25.711 47.977 c 38.203 47.977
 48.332 37.848 48.332 25.356 c h
f
0 g
25.555 51.2 m 32.746 51.2 38.809 48.731 43.746 43.794 c 48.715 38.825 51.199
 32.763 51.199 25.598 c 51.199 18.407 48.762 12.419 43.883 7.634 c 38.703
 2.544 32.594 0.001 25.555 0.001 c 18.637 0.001 12.633 2.516 7.543 7.544
 c 2.516 12.571 0 18.591 0 25.598 c 0 32.61 2.516 38.673 7.543 43.794 c 
12.48 48.731 18.484 51.2 25.555 51.2 c h
25.645 46.583 m 19.824 46.583 14.902 44.54 10.879 40.458 c 6.703 36.188
 4.617 31.235 4.617 25.598 c 4.617 19.93 6.688 15.024 10.832 10.88 c 14.977
 6.735 19.914 4.665 25.645 4.665 c 31.344 4.665 36.312 6.751 40.547 10.927
 c 44.57 14.798 46.582 19.688 46.582 25.602 c 46.582 31.423 44.539 36.372
 40.457 40.458 c 36.375 44.54 31.438 46.583 25.645 46.583 c h
32.504 31.954 m 32.504 21.485 l 29.578 21.485 l 29.578 9.052 l 21.625 9.052
 l 21.625 21.485 l 18.699 21.485 l 18.699 31.954 l 18.699 32.411 18.859 
32.802 19.176 33.122 c 19.5 33.438 19.887 33.598 20.344 33.598 c 30.859 
33.598 l 31.285 33.598 31.668 33.438 32 33.122 c 32.336 32.802 32.504 32.411
 32.504 31.954 c h
22.035 38.536 m 22.035 40.942 23.223 42.149 25.602 42.149 c 27.977 42.149
 29.164 40.946 29.164 38.536 c 29.164 36.161 27.977 34.97 25.602 34.97 c
 23.223 34.97 22.035 36.161 22.035 38.536 c h
f
Q Q
showpage
%%Trailer
end restore
%%EOF
