%!PS-Adobe-3.0 EPSF-3.0
%%Creator: cairo 1.12.2 (http://cairographics.org)
%%CreationDate: Wed Oct 10 10:39:51 2012
%%Pages: 1
%%DocumentData: Clean7Bit
%%LanguageLevel: 2
%%BoundingBox: 0 -1 52 52
%%EndComments
%%BeginProlog
save
50 dict begin
/q { gsave } bind def
/Q { grestore } bind def
/cm { 6 array astore concat } bind def
/w { setlinewidth } bind def
/J { setlinecap } bind def
/j { setlinejoin } bind def
/M { setmiterlimit } bind def
/d { setdash } bind def
/m { moveto } bind def
/l { lineto } bind def
/c { curveto } bind def
/h { closepath } bind def
/re { exch dup neg 3 1 roll 5 3 roll moveto 0 rlineto
      0 exch rlineto 0 rlineto closepath } bind def
/S { stroke } bind def
/f { fill } bind def
/f* { eofill } bind def
/n { newpath } bind def
/W { clip } bind def
/W* { eoclip } bind def
/BT { } bind def
/ET { } bind def
/pdfmark where { pop globaldict /?pdfmark /exec load put }
    { globaldict begin /?pdfmark /pop load def /pdfmark
    /cleartomark load def end } ifelse
/BDC { mark 3 1 roll /BDC pdfmark } bind def
/EMC { mark /EMC pdfmark } bind def
/cairo_store_point { /cairo_point_y exch def /cairo_point_x exch def } def
/Tj { show currentpoint cairo_store_point } bind def
/TJ {
  {
    dup
    type /stringtype eq
    { show } { -0.001 mul 0 cairo_font_matrix dtransform rmoveto } ifelse
  } forall
  currentpoint cairo_store_point
} bind def
/cairo_selectfont { cairo_font_matrix aload pop pop pop 0 0 6 array astore
    cairo_font exch selectfont cairo_point_x cairo_point_y moveto } bind def
/Tf { pop /cairo_font exch def /cairo_font_matrix where
      { pop cairo_selectfont } if } bind def
/Td { matrix translate cairo_font_matrix matrix concatmatrix dup
      /cairo_font_matrix exch def dup 4 get exch 5 get cairo_store_point
      /cairo_font where { pop cairo_selectfont } if } bind def
/Tm { 2 copy 8 2 roll 6 array astore /cairo_font_matrix exch def
      cairo_store_point /cairo_font where { pop cairo_selectfont } if } bind def
/g { setgray } bind def
/rg { setrgbcolor } bind def
/d1 { setcachedevice } bind def
%%EndProlog
%%Page: 1 1
%%BeginPageSetup
%%PageBoundingBox: 0 -1 52 52
%%EndPageSetup
q 0 -1 52 53 rectclip q
1 g
48.898 25.598 m 48.898 12.859 38.57 2.531 25.828 2.531 c 13.086 2.531 2.758
 12.859 2.758 25.598 c 2.758 38.34 13.086 48.668 25.828 48.668 c 38.57 48.668
 48.898 38.34 48.898 25.598 c h
f
0 g
25.555 51.199 m 32.715 51.199 38.809 48.699 43.84 43.703 c 46.246 41.293
 48.074 38.543 49.324 35.449 c 50.574 32.355 51.199 29.074 51.199 25.598
 c 51.199 22.094 50.582 18.809 49.348 15.75 c 48.113 12.687 46.293 9.98 
43.887 7.633 c 41.387 5.168 38.555 3.277 35.383 1.965 c 32.215 0.656 28.938
 -0 25.555 -0 c 22.172 -0 18.934 0.645 15.84 1.941 c 12.746 3.238 9.973 
5.113 7.52 7.566 c 5.066 10.02 3.199 12.785 1.922 15.863 c 0.641 18.941 
0 22.187 0 25.598 c 0 28.98 0.648 32.234 1.941 35.359 c 3.238 38.484 5.121
 41.277 7.59 43.746 c 12.465 48.715 18.453 51.199 25.555 51.199 c h
25.645 46.582 m 19.793 46.582 14.871 44.539 10.879 40.457 c 8.867 38.414
 7.32 36.121 6.238 33.574 c 5.156 31.031 4.617 28.371 4.617 25.598 c 4.617
 22.855 5.156 20.211 6.238 17.668 c 7.32 15.121 8.867 12.852 10.879 10.855
 c 12.891 8.859 15.16 7.336 17.691 6.285 c 20.219 5.23 22.871 4.707 25.645
 4.707 c 28.387 4.707 31.047 5.238 33.625 6.305 c 36.199 7.375 38.52 8.91
 40.594 10.922 c 44.586 14.824 46.582 19.715 46.582 25.598 c 46.582 28.434
 46.062 31.113 45.027 33.645 c 43.992 36.172 42.484 38.426 40.504 40.41 
c 36.387 44.523 31.438 46.582 25.645 46.582 c h
25.324 29.852 m 21.895 28.066 l 21.527 28.828 21.078 29.363 20.547 29.668
 c 20.012 29.969 19.52 30.125 19.062 30.125 c 16.777 30.125 15.633 28.613
 15.633 25.598 c 15.633 24.227 15.922 23.129 16.5 22.309 c 17.078 21.484
 17.934 21.07 19.062 21.07 c 20.555 21.07 21.605 21.805 22.215 23.266 c 
25.371 21.668 l 24.699 20.418 23.77 19.434 22.582 18.719 c 21.395 18 20.082
 17.645 18.648 17.645 c 16.363 17.645 14.52 18.344 13.117 19.746 c 11.715
 21.148 11.016 23.098 11.016 25.598 c 11.016 28.035 11.723 29.969 13.141
 31.402 c 14.559 32.836 16.348 33.551 18.512 33.551 c 21.684 33.555 23.953
 32.32 25.324 29.852 c h
40.09 29.852 m 36.707 28.066 l 36.34 28.828 35.891 29.363 35.359 29.668
 c 34.824 29.969 34.312 30.125 33.828 30.125 c 31.543 30.125 30.398 28.613
 30.398 25.598 c 30.398 24.227 30.688 23.129 31.266 22.309 c 31.844 21.484
 32.699 21.07 33.828 21.07 c 35.32 21.07 36.371 21.805 36.98 23.266 c 40.18
 21.668 l 39.48 20.418 38.535 19.434 37.348 18.719 c 36.16 18 34.863 17.645
 33.461 17.645 c 31.145 17.645 29.293 18.344 27.91 19.746 c 26.52 21.148
 25.828 23.098 25.828 25.598 c 25.828 28.035 26.535 29.969 27.953 31.402
 c 29.371 32.836 31.16 33.551 33.324 33.551 c 36.492 33.555 38.75 32.32 
40.09 29.852 c h
f
Q Q
showpage
%%Trailer
end restore
%%EOF
