<?xml version="1.0" encoding="UTF-8" standalone="no"?>
<svg
   xmlns:dc="http://purl.org/dc/elements/1.1/"
   xmlns:cc="http://creativecommons.org/ns#"
   xmlns:rdf="http://www.w3.org/1999/02/22-rdf-syntax-ns#"
   xmlns:svg="http://www.w3.org/2000/svg"
   xmlns="http://www.w3.org/2000/svg"
   xmlns:xlink="http://www.w3.org/1999/xlink"
   xmlns:sodipodi="http://sodipodi.sourceforge.net/DTD/sodipodi-0.dtd"
   xmlns:inkscape="http://www.inkscape.org/namespaces/inkscape"
   version="1.1"
   viewBox="0.0 0.0 960.0 720.0"
   fill="none"
   stroke="none"
   stroke-linecap="square"
   stroke-miterlimit="10"
   id="svg451"
   sodipodi:docname="fs-node-3.svg"
   inkscape:export-filename="/Users/phm/Downloads/fs-node-3.png"
   inkscape:export-xdpi="95"
   inkscape:export-ydpi="95"
   inkscape:version="0.92.2 5c3e80d, 2017-08-06">
  <metadata
     id="metadata457">
    <rdf:RDF>
      <cc:Work
         rdf:about="">
        <dc:format>image/svg+xml</dc:format>
        <dc:type
           rdf:resource="http://purl.org/dc/dcmitype/StillImage" />
      </cc:Work>
    </rdf:RDF>
  </metadata>
  <defs
     id="defs455" />
  <sodipodi:namedview
     pagecolor="#ffffff"
     bordercolor="#666666"
     borderopacity="1"
     objecttolerance="10"
     gridtolerance="10"
     guidetolerance="10"
     inkscape:pageopacity="0"
     inkscape:pageshadow="2"
     inkscape:window-width="1073"
     inkscape:window-height="720"
     id="namedview453"
     showgrid="false"
     inkscape:zoom="0.32777778"
     inkscape:cx="480"
     inkscape:cy="360"
     inkscape:window-x="0"
     inkscape:window-y="0"
     inkscape:window-maximized="0"
     inkscape:current-layer="svg451" />
  <clipPath
     id="p.0">
    <path
       d="m0 0l960.0 0l0 720.0l-960.0 0l0 -720.0z"
       clip-rule="nonzero"
       id="path2" />
  </clipPath>
  <g
     clip-path="url(#p.0)"
     id="g449">
    <path
       fill="#000000"
       fill-opacity="0.0"
       d="m0 0l960.0 0l0 720.0l-960.0 0z"
       fill-rule="evenodd"
       id="path5" />
    <g
       filter="url(#shadowFilter-p.1)"
       id="g9">
      <use
         xlink:href="#p.1"
         transform="matrix(1.0 0.0 0.0 1.0 6.560590448654856 7.547095431430446)"
         id="use7" />
    </g>
    <defs
       id="defs24">
      <filter
         id="shadowFilter-p.1"
         filterUnits="userSpaceOnUse">
        <feGaussianBlur
           in="SourceAlpha"
           stdDeviation="1.5"
           result="blur"
           id="feGaussianBlur11" />
        <feComponentTransfer
           in="blur"
           color-interpolation-filters="sRGB"
           id="feComponentTransfer21">
          <feFuncR
             type="linear"
             slope="0"
             intercept="0.0"
             id="feFuncR13" />
          <feFuncG
             type="linear"
             slope="0"
             intercept="0.0"
             id="feFuncG15" />
          <feFuncB
             type="linear"
             slope="0"
             intercept="0.0"
             id="feFuncB17" />
          <feFuncA
             type="linear"
             slope="0.29"
             intercept="0"
             id="feFuncA19" />
        </feComponentTransfer>
      </filter>
    </defs>
    <g
       id="p.1">
      <path
         fill="#c9daf8"
         d="m30.864544 676.8714l0 0c0 -18.142761 24.388142 -32.850403 54.47244 -32.850403l0 0c30.084305 0 54.47245 14.707642 54.47245 32.850403l0 0c0 18.142761 -24.388145 32.850403 -54.47245 32.850403l0 0c-30.084297 0 -54.47244 -14.707642 -54.47244 -32.850403z"
         fill-rule="evenodd"
         id="path26" />
      <path
         stroke="#0000ff"
         stroke-width="2.0"
         stroke-linejoin="round"
         stroke-linecap="butt"
         d="m30.864544 676.8714l0 0c0 -18.142761 24.388142 -32.850403 54.47244 -32.850403l0 0c30.084305 0 54.47245 14.707642 54.47245 32.850403l0 0c0 18.142761 -24.388145 32.850403 -54.47245 32.850403l0 0c-30.084297 0 -54.47244 -14.707642 -54.47244 -32.850403z"
         fill-rule="evenodd"
         id="path28" />
    </g>
    <g
       filter="url(#shadowFilter-p.2)"
       id="g33">
      <use
         xlink:href="#p.2"
         transform="matrix(1.0 0.0 0.0 1.0 6.560590448654856 7.547095431430446)"
         id="use31" />
    </g>
    <defs
       id="defs48">
      <filter
         id="shadowFilter-p.2"
         filterUnits="userSpaceOnUse">
        <feGaussianBlur
           in="SourceAlpha"
           stdDeviation="1.5"
           result="blur"
           id="feGaussianBlur35" />
        <feComponentTransfer
           in="blur"
           color-interpolation-filters="sRGB"
           id="feComponentTransfer45">
          <feFuncR
             type="linear"
             slope="0"
             intercept="0.0"
             id="feFuncR37" />
          <feFuncG
             type="linear"
             slope="0"
             intercept="0.0"
             id="feFuncG39" />
          <feFuncB
             type="linear"
             slope="0"
             intercept="0.0"
             id="feFuncB41" />
          <feFuncA
             type="linear"
             slope="0.29"
             intercept="0"
             id="feFuncA43" />
        </feComponentTransfer>
      </filter>
    </defs>
    <g
       id="p.2">
      <path
         fill="#c9daf8"
         d="m441.8278 158.9029l0 0c0 -18.142776 23.408112 -32.850403 52.283478 -32.850403l0 0c28.875366 0 52.283447 14.707626 52.283447 32.850403l0 0c0 18.142761 -23.408081 32.850388 -52.283447 32.850388l0 0c-28.875366 0 -52.283478 -14.707626 -52.283478 -32.850388z"
         fill-rule="evenodd"
         id="path50" />
      <path
         stroke="#0000ff"
         stroke-width="2.0"
         stroke-linejoin="round"
         stroke-linecap="butt"
         d="m441.8278 158.9029l0 0c0 -18.142776 23.408112 -32.850403 52.283478 -32.850403l0 0c28.875366 0 52.283447 14.707626 52.283447 32.850403l0 0c0 18.142761 -23.408081 32.850388 -52.283447 32.850388l0 0c-28.875366 0 -52.283478 -14.707626 -52.283478 -32.850388z"
         fill-rule="evenodd"
         id="path52" />
    </g>
    <g
       filter="url(#shadowFilter-p.3)"
       id="g57">
      <use
         xlink:href="#p.3"
         transform="matrix(1.0 0.0 0.0 1.0 6.560590448654856 7.547095431430446)"
         id="use55" />
    </g>
    <defs
       id="defs72">
      <filter
         id="shadowFilter-p.3"
         filterUnits="userSpaceOnUse">
        <feGaussianBlur
           in="SourceAlpha"
           stdDeviation="1.5"
           result="blur"
           id="feGaussianBlur59" />
        <feComponentTransfer
           in="blur"
           color-interpolation-filters="sRGB"
           id="feComponentTransfer69">
          <feFuncR
             type="linear"
             slope="0"
             intercept="0.0"
             id="feFuncR61" />
          <feFuncG
             type="linear"
             slope="0"
             intercept="0.0"
             id="feFuncG63" />
          <feFuncB
             type="linear"
             slope="0"
             intercept="0.0"
             id="feFuncB65" />
          <feFuncA
             type="linear"
             slope="0.29"
             intercept="0"
             id="feFuncA67" />
        </feComponentTransfer>
      </filter>
    </defs>
    <g
       id="p.3">
      <path
         fill="#c9daf8"
         d="m319.95642 305.4357l0 0c0 -18.142761 23.408081 -32.850403 52.283447 -32.850403l0 0c28.875366 0 52.283478 14.707642 52.283478 32.850403l0 0c0 18.142761 -23.408112 32.850403 -52.283478 32.850403l0 0c-28.875366 0 -52.283447 -14.707642 -52.283447 -32.850403z"
         fill-rule="evenodd"
         id="path74" />
      <path
         stroke="#0000ff"
         stroke-width="2.0"
         stroke-linejoin="round"
         stroke-linecap="butt"
         d="m319.95642 305.4357l0 0c0 -18.142761 23.408081 -32.850403 52.283447 -32.850403l0 0c28.875366 0 52.283478 14.707642 52.283478 32.850403l0 0c0 18.142761 -23.408112 32.850403 -52.283478 32.850403l0 0c-28.875366 0 -52.283447 -14.707642 -52.283447 -32.850403z"
         fill-rule="evenodd"
         id="path76" />
    </g>
    <g
       filter="url(#shadowFilter-p.4)"
       id="g81">
      <use
         xlink:href="#p.4"
         transform="matrix(1.0 0.0 0.0 1.0 6.560590448654856 7.547095431430446)"
         id="use79" />
    </g>
    <defs
       id="defs96">
      <filter
         id="shadowFilter-p.4"
         filterUnits="userSpaceOnUse">
        <feGaussianBlur
           in="SourceAlpha"
           stdDeviation="1.5"
           result="blur"
           id="feGaussianBlur83" />
        <feComponentTransfer
           in="blur"
           color-interpolation-filters="sRGB"
           id="feComponentTransfer93">
          <feFuncR
             type="linear"
             slope="0"
             intercept="0.0"
             id="feFuncR85" />
          <feFuncG
             type="linear"
             slope="0"
             intercept="0.0"
             id="feFuncG87" />
          <feFuncB
             type="linear"
             slope="0"
             intercept="0.0"
             id="feFuncB89" />
          <feFuncA
             type="linear"
             slope="0.29"
             intercept="0"
             id="feFuncA91" />
        </feComponentTransfer>
      </filter>
    </defs>
    <g
       id="p.4">
      <path
         fill="#c9daf8"
         d="m413.32648 511.64566l0 0c0 -18.142761 23.408112 -32.850372 52.283478 -32.850372l0 0c28.875366 0 52.283478 14.707611 52.283478 32.850372l0 0c0 18.142792 -23.408112 32.850372 -52.283478 32.850372l0 0c-28.875366 0 -52.283478 -14.707581 -52.283478 -32.850372z"
         fill-rule="evenodd"
         id="path98" />
      <path
         stroke="#0000ff"
         stroke-width="2.0"
         stroke-linejoin="round"
         stroke-linecap="butt"
         d="m413.32648 511.64566l0 0c0 -18.142761 23.408112 -32.850372 52.283478 -32.850372l0 0c28.875366 0 52.283478 14.707611 52.283478 32.850372l0 0c0 18.142792 -23.408112 32.850372 -52.283478 32.850372l0 0c-28.875366 0 -52.283478 -14.707581 -52.283478 -32.850372z"
         fill-rule="evenodd"
         id="path100" />
    </g>
    <g
       filter="url(#shadowFilter-p.5)"
       id="g105">
      <use
         xlink:href="#p.5"
         transform="matrix(1.0 0.0 0.0 1.0 6.560590448654856 7.547095431430446)"
         id="use103" />
    </g>
    <defs
       id="defs120">
      <filter
         id="shadowFilter-p.5"
         filterUnits="userSpaceOnUse">
        <feGaussianBlur
           in="SourceAlpha"
           stdDeviation="1.5"
           result="blur"
           id="feGaussianBlur107" />
        <feComponentTransfer
           in="blur"
           color-interpolation-filters="sRGB"
           id="feComponentTransfer117">
          <feFuncR
             type="linear"
             slope="0"
             intercept="0.0"
             id="feFuncR109" />
          <feFuncG
             type="linear"
             slope="0"
             intercept="0.0"
             id="feFuncG111" />
          <feFuncB
             type="linear"
             slope="0"
             intercept="0.0"
             id="feFuncB113" />
          <feFuncA
             type="linear"
             slope="0.29"
             intercept="0"
             id="feFuncA115" />
        </feComponentTransfer>
      </filter>
    </defs>
    <g
       id="p.5">
      <path
         fill="#c9daf8"
         d="m627.23987 414.3727l0 0c0 -18.142792 23.408081 -32.850403 52.283447 -32.850403l0 0c28.875366 0 52.28351 14.707611 52.28351 32.850403l0 0c0 18.142761 -23.408142 32.850372 -52.28351 32.850372l0 0c-28.875366 0 -52.283447 -14.707611 -52.283447 -32.850372z"
         fill-rule="evenodd"
         id="path122" />
      <path
         stroke="#0000ff"
         stroke-width="2.0"
         stroke-linejoin="round"
         stroke-linecap="butt"
         d="m627.23987 414.3727l0 0c0 -18.142792 23.408081 -32.850403 52.283447 -32.850403l0 0c28.875366 0 52.28351 14.707611 52.28351 32.850403l0 0c0 18.142761 -23.408142 32.850372 -52.28351 32.850372l0 0c-28.875366 0 -52.283447 -14.707611 -52.283447 -32.850372z"
         fill-rule="evenodd"
         id="path124" />
    </g>
    <g
       filter="url(#shadowFilter-p.6)"
       id="g129">
      <use
         xlink:href="#p.6"
         transform="matrix(1.0 0.0 0.0 1.0 6.560590448654856 7.547095431430446)"
         id="use127" />
    </g>
    <defs
       id="defs144">
      <filter
         id="shadowFilter-p.6"
         filterUnits="userSpaceOnUse">
        <feGaussianBlur
           in="SourceAlpha"
           stdDeviation="1.5"
           result="blur"
           id="feGaussianBlur131" />
        <feComponentTransfer
           in="blur"
           color-interpolation-filters="sRGB"
           id="feComponentTransfer141">
          <feFuncR
             type="linear"
             slope="0"
             intercept="0.0"
             id="feFuncR133" />
          <feFuncG
             type="linear"
             slope="0"
             intercept="0.0"
             id="feFuncG135" />
          <feFuncB
             type="linear"
             slope="0"
             intercept="0.0"
             id="feFuncB137" />
          <feFuncA
             type="linear"
             slope="0.29"
             intercept="0"
             id="feFuncA139" />
        </feComponentTransfer>
      </filter>
    </defs>
    <g
       id="p.6">
      <path
         fill="#c9daf8"
         d="m143.22937 521.2913l0 0c0 -18.142761 23.408112 -32.850372 52.283463 -32.850372l0 0c28.875366 0 52.283478 14.707611 52.283478 32.850372l0 0c0 18.142761 -23.408112 32.850403 -52.283478 32.850403l0 0c-28.87535 0 -52.283463 -14.707642 -52.283463 -32.850403z"
         fill-rule="evenodd"
         id="path146" />
      <path
         stroke="#0000ff"
         stroke-width="2.0"
         stroke-linejoin="round"
         stroke-linecap="butt"
         d="m143.22937 521.2913l0 0c0 -18.142761 23.408112 -32.850372 52.283463 -32.850372l0 0c28.875366 0 52.283478 14.707611 52.283478 32.850372l0 0c0 18.142761 -23.408112 32.850403 -52.283478 32.850403l0 0c-28.87535 0 -52.283463 -14.707642 -52.283463 -32.850403z"
         fill-rule="evenodd"
         id="path148" />
    </g>
    <g
       filter="url(#shadowFilter-p.7)"
       id="g153">
      <use
         xlink:href="#p.7"
         transform="matrix(1.0 0.0 0.0 1.0 6.560590448654856 7.547095431430446)"
         id="use151" />
    </g>
    <defs
       id="defs168">
      <filter
         id="shadowFilter-p.7"
         filterUnits="userSpaceOnUse">
        <feGaussianBlur
           in="SourceAlpha"
           stdDeviation="1.5"
           result="blur"
           id="feGaussianBlur155" />
        <feComponentTransfer
           in="blur"
           color-interpolation-filters="sRGB"
           id="feComponentTransfer165">
          <feFuncR
             type="linear"
             slope="0"
             intercept="0.0"
             id="feFuncR157" />
          <feFuncG
             type="linear"
             slope="0"
             intercept="0.0"
             id="feFuncG159" />
          <feFuncB
             type="linear"
             slope="0"
             intercept="0.0"
             id="feFuncB161" />
          <feFuncA
             type="linear"
             slope="0.29"
             intercept="0"
             id="feFuncA163" />
        </feComponentTransfer>
      </filter>
    </defs>
    <g
       id="p.7">
      <path
         fill="#c9daf8"
         d="m179.97478 676.8714l0 0c0 -18.142761 24.388153 -32.850403 54.472443 -32.850403l0 0c30.084305 0 54.472458 14.707642 54.472458 32.850403l0 0c0 18.142761 -24.388153 32.850403 -54.472458 32.850403l0 0c-30.08429 0 -54.472443 -14.707642 -54.472443 -32.850403z"
         fill-rule="evenodd"
         id="path170" />
      <path
         stroke="#0000ff"
         stroke-width="2.0"
         stroke-linejoin="round"
         stroke-linecap="butt"
         d="m179.97478 676.8714l0 0c0 -18.142761 24.388153 -32.850403 54.472443 -32.850403l0 0c30.084305 0 54.472458 14.707642 54.472458 32.850403l0 0c0 18.142761 -24.388153 32.850403 -54.472458 32.850403l0 0c-30.08429 0 -54.472443 -14.707642 -54.472443 -32.850403z"
         fill-rule="evenodd"
         id="path172" />
    </g>
    <g
       filter="url(#shadowFilter-p.8)"
       id="g177">
      <use
         xlink:href="#p.8"
         transform="matrix(1.0 0.0 0.0 1.0 6.560590448654856 7.547095431430446)"
         id="use175" />
    </g>
    <defs
       id="defs192">
      <filter
         id="shadowFilter-p.8"
         filterUnits="userSpaceOnUse">
        <feGaussianBlur
           in="SourceAlpha"
           stdDeviation="1.5"
           result="blur"
           id="feGaussianBlur179" />
        <feComponentTransfer
           in="blur"
           color-interpolation-filters="sRGB"
           id="feComponentTransfer189">
          <feFuncR
             type="linear"
             slope="0"
             intercept="0.0"
             id="feFuncR181" />
          <feFuncG
             type="linear"
             slope="0"
             intercept="0.0"
             id="feFuncG183" />
          <feFuncB
             type="linear"
             slope="0"
             intercept="0.0"
             id="feFuncB185" />
          <feFuncA
             type="linear"
             slope="0.29"
             intercept="0"
             id="feFuncA187" />
        </feComponentTransfer>
      </filter>
    </defs>
    <g
       id="p.8">
      <path
         fill="#c9daf8"
         d="m364.07977 667.2257l0 0c0 -18.142761 24.388123 -32.850403 54.472443 -32.850403l0 0c30.08429 0 54.472443 14.707642 54.472443 32.850403l0 0c0 18.142761 -24.388153 32.850403 -54.472443 32.850403l0 0c-30.08432 0 -54.472443 -14.707642 -54.472443 -32.850403z"
         fill-rule="evenodd"
         id="path194" />
      <path
         stroke="#0000ff"
         stroke-width="2.0"
         stroke-linejoin="round"
         stroke-linecap="butt"
         d="m364.07977 667.2257l0 0c0 -18.142761 24.388123 -32.850403 54.472443 -32.850403l0 0c30.08429 0 54.472443 14.707642 54.472443 32.850403l0 0c0 18.142761 -24.388153 32.850403 -54.472443 32.850403l0 0c-30.08432 0 -54.472443 -14.707642 -54.472443 -32.850403z"
         fill-rule="evenodd"
         id="path196" />
    </g>
    <g
       filter="url(#shadowFilter-p.9)"
       id="g201">
      <use
         xlink:href="#p.9"
         transform="matrix(1.0 0.0 0.0 1.0 6.560590448654856 7.547095431430446)"
         id="use199" />
    </g>
    <defs
       id="defs216">
      <filter
         id="shadowFilter-p.9"
         filterUnits="userSpaceOnUse">
        <feGaussianBlur
           in="SourceAlpha"
           stdDeviation="1.5"
           result="blur"
           id="feGaussianBlur203" />
        <feComponentTransfer
           in="blur"
           color-interpolation-filters="sRGB"
           id="feComponentTransfer213">
          <feFuncR
             type="linear"
             slope="0"
             intercept="0.0"
             id="feFuncR205" />
          <feFuncG
             type="linear"
             slope="0"
             intercept="0.0"
             id="feFuncG207" />
          <feFuncB
             type="linear"
             slope="0"
             intercept="0.0"
             id="feFuncB209" />
          <feFuncA
             type="linear"
             slope="0.29"
             intercept="0"
             id="feFuncA211" />
        </feComponentTransfer>
      </filter>
    </defs>
    <g
       id="p.9">
      <path
         fill="#c9daf8"
         d="m513.19 667.2257l0 0c0 -18.142761 24.388123 -32.850403 54.472412 -32.850403l0 0c30.08435 0 54.472473 14.707642 54.472473 32.850403l0 0c0 18.142761 -24.388123 32.850403 -54.472473 32.850403l0 0c-30.08429 0 -54.472412 -14.707642 -54.472412 -32.850403z"
         fill-rule="evenodd"
         id="path218" />
      <path
         stroke="#0000ff"
         stroke-width="2.0"
         stroke-linejoin="round"
         stroke-linecap="butt"
         d="m513.19 667.2257l0 0c0 -18.142761 24.388123 -32.850403 54.472412 -32.850403l0 0c30.08435 0 54.472473 14.707642 54.472473 32.850403l0 0c0 18.142761 -24.388123 32.850403 -54.472473 32.850403l0 0c-30.08429 0 -54.472412 -14.707642 -54.472412 -32.850403z"
         fill-rule="evenodd"
         id="path220" />
    </g>
    <g
       filter="url(#shadowFilter-p.10)"
       id="g225">
      <use
         xlink:href="#p.10"
         transform="matrix(1.0 0.0 0.0 1.0 6.560590448654856 7.547095431430446)"
         id="use223" />
    </g>
    <defs
       id="defs240">
      <filter
         id="shadowFilter-p.10"
         filterUnits="userSpaceOnUse">
        <feGaussianBlur
           in="SourceAlpha"
           stdDeviation="1.5"
           result="blur"
           id="feGaussianBlur227" />
        <feComponentTransfer
           in="blur"
           color-interpolation-filters="sRGB"
           id="feComponentTransfer237">
          <feFuncR
             type="linear"
             slope="0"
             intercept="0.0"
             id="feFuncR229" />
          <feFuncG
             type="linear"
             slope="0"
             intercept="0.0"
             id="feFuncG231" />
          <feFuncB
             type="linear"
             slope="0"
             intercept="0.0"
             id="feFuncB233" />
          <feFuncA
             type="linear"
             slope="0.29"
             intercept="0"
             id="feFuncA235" />
        </feComponentTransfer>
      </filter>
    </defs>
    <g
       id="p.10">
      <path
         fill="#c9daf8"
         d="m664.8882 535.82153l0 0c0 -18.142761 24.388123 -32.850403 54.472412 -32.850403l0 0c30.08429 0 54.472473 14.707642 54.472473 32.850403l0 0c0 18.142761 -24.388184 32.850403 -54.472473 32.850403l0 0c-30.08429 0 -54.472412 -14.707642 -54.472412 -32.850403z"
         fill-rule="evenodd"
         id="path242" />
      <path
         stroke="#0000ff"
         stroke-width="2.0"
         stroke-linejoin="round"
         stroke-linecap="butt"
         d="m664.8882 535.82153l0 0c0 -18.142761 24.388123 -32.850403 54.472412 -32.850403l0 0c30.08429 0 54.472473 14.707642 54.472473 32.850403l0 0c0 18.142761 -24.388184 32.850403 -54.472473 32.850403l0 0c-30.08429 0 -54.472412 -14.707642 -54.472412 -32.850403z"
         fill-rule="evenodd"
         id="path244" />
    </g>
    <g
       filter="url(#shadowFilter-p.11)"
       id="g249">
      <use
         xlink:href="#p.11"
         transform="matrix(1.0 0.0 0.0 1.0 6.560590448654856 7.547095431430446)"
         id="use247" />
    </g>
    <defs
       id="defs264">
      <filter
         id="shadowFilter-p.11"
         filterUnits="userSpaceOnUse">
        <feGaussianBlur
           in="SourceAlpha"
           stdDeviation="1.5"
           result="blur"
           id="feGaussianBlur251" />
        <feComponentTransfer
           in="blur"
           color-interpolation-filters="sRGB"
           id="feComponentTransfer261">
          <feFuncR
             type="linear"
             slope="0"
             intercept="0.0"
             id="feFuncR253" />
          <feFuncG
             type="linear"
             slope="0"
             intercept="0.0"
             id="feFuncG255" />
          <feFuncB
             type="linear"
             slope="0"
             intercept="0.0"
             id="feFuncB257" />
          <feFuncA
             type="linear"
             slope="0.29"
             intercept="0"
             id="feFuncA259" />
        </feComponentTransfer>
      </filter>
    </defs>
    <g
       id="p.11">
      <path
         fill="#c9daf8"
         d="m800.1664 521.2913l0 0c0 -18.142761 23.408081 -32.850372 52.283447 -32.850372l0 0c28.875366 0 52.28351 14.707611 52.28351 32.850372l0 0c0 18.142761 -23.408142 32.850403 -52.28351 32.850403l0 0c-28.875366 0 -52.283447 -14.707642 -52.283447 -32.850403z"
         fill-rule="evenodd"
         id="path266" />
      <path
         stroke="#0000ff"
         stroke-width="2.0"
         stroke-linejoin="round"
         stroke-linecap="butt"
         d="m800.1664 521.2913l0 0c0 -18.142761 23.408081 -32.850372 52.283447 -32.850372l0 0c28.875366 0 52.28351 14.707611 52.28351 32.850372l0 0c0 18.142761 -23.408142 32.850403 -52.28351 32.850403l0 0c-28.875366 0 -52.283447 -14.707642 -52.283447 -32.850403z"
         fill-rule="evenodd"
         id="path268" />
    </g>
    <path
       fill="#000000"
       fill-opacity="0.0"
       d="m494.11127 191.75328c0 20.207962 -30.46457 30.313553 -60.92914 40.41591c-30.46457 10.102371 -60.92914 20.201492 -60.92914 40.402985"
       fill-rule="evenodd"
       id="path271" />
    <path
       stroke="#0000ff"
       stroke-width="2.0"
       stroke-linejoin="round"
       stroke-linecap="butt"
       d="m494.11127 191.75328c0 20.207962 -30.46457 30.313553 -60.92914 40.41591c-15.2323 5.051178 -30.46457 10.1015625 -41.888794 16.414322c-5.712097 3.156372 -10.472168 6.628372 -13.80423 10.573837c-0.4165039 0.49319458 -0.81069946 0.9937744 -1.1816406 1.5020447c-0.09277344 0.1270752 -0.18405151 0.25463867 -0.27386475 0.38269043l-0.079193115 0.11520386"
       fill-rule="evenodd"
       id="path273" />
    <path
       stroke="#0000ff"
       stroke-width="2.0"
       stroke-linecap="butt"
       d="m372.812 260.13834l0.34283447 9.652588l5.9419556 -7.614685z"
       fill-rule="evenodd"
       id="path275" />
    <path
       fill="#000000"
       fill-opacity="0.0"
       d="m372.23987 338.2861c0 37.53842 -44.18109 56.309143 -88.36221 75.07687c-44.18109 18.7677 -88.3622 37.53241 -88.3622 75.06485"
       fill-rule="evenodd"
       id="path277" />
    <path
       stroke="#0000ff"
       stroke-width="2.0"
       stroke-linejoin="round"
       stroke-linecap="butt"
       d="m372.23987 338.2861c0 37.53842 -44.18109 56.309113 -88.36221 75.07684c-22.090546 9.38385 -44.18109 18.766968 -60.74901 30.495636c-8.283951 5.86438 -15.187256 12.3151245 -20.019562 19.645569c-2.416153 3.6652222 -4.3145447 7.550354 -5.608917 11.692078c-0.0809021 0.25888062 -0.15945435 0.5187073 -0.23561096 0.77957153l-0.15719604 0.55807495"
       fill-rule="evenodd"
       id="path279" />
    <path
       stroke="#0000ff"
       stroke-width="2.0"
       stroke-linecap="butt"
       d="m193.8331 476.09564l2.0702362 9.434204l4.478302 -8.557739z"
       fill-rule="evenodd"
       id="path281" />
    <path
       fill="#000000"
       fill-opacity="0.0"
       d="m372.23987 338.2861c0 61.09601 23.346466 104.62906 46.692932 122.19205c23.346436 17.562988 46.6929 9.155945 46.6929 18.31189"
       fill-rule="evenodd"
       id="path283" />
    <path
       stroke="#0000ff"
       stroke-width="2.0"
       stroke-linejoin="round"
       stroke-linecap="butt"
       d="m372.23987 338.2861c0 61.09604 23.346466 104.62906 46.6929 122.19205c11.673248 8.781494 23.346466 11.070496 32.10138 12.308594c1.0943909 0.15478516 2.1431274 0.29309082 3.1405945 0.42565918l0.77215576 0.103759766"
       fill-rule="evenodd"
       id="path285" />
    <path
       stroke="#0000ff"
       stroke-width="2.0"
       stroke-linecap="butt"
       d="m453.44 476.25592l9.583801 1.2004089l-6.5700073 -7.0799255z"
       fill-rule="evenodd"
       id="path287" />
    <path
       fill="#000000"
       fill-opacity="0.0"
       d="m372.24774 339.56955c63.748047 0 95.62204 18.700806 127.49606 37.40158c31.873993 18.700775 63.748016 37.40158 127.49606 37.40158"
       fill-rule="evenodd"
       id="path289" />
    <path
       stroke="#0000ff"
       stroke-width="2.0"
       stroke-linejoin="round"
       stroke-linecap="butt"
       d="m372.24774 339.56955c63.748047 0 95.62204 18.700806 127.49606 37.40158c15.936981 9.350403 31.873993 18.700775 51.795258 25.713593c9.960632 3.5063782 20.917358 6.4283752 33.368103 8.473785c6.225403 1.0226746 12.824341 1.8262329 19.859009 2.3741455c1.758667 0.13693237 3.5446167 0.25793457 5.3587646 0.36236572c0.9069824 0.052246094 1.821106 0.10031128 2.7424316 0.14419556c0.46063232 0.021942139 0.9230957 0.042816162 1.3873291 0.06262207l0.9873657 0.039733887"
       fill-rule="evenodd"
       id="path291" />
    <path
       stroke="#0000ff"
       stroke-width="2.0"
       stroke-linecap="butt"
       d="m615.17847 417.44443l9.138123 -3.1280212l-9.010864 -3.4776611z"
       fill-rule="evenodd"
       id="path293" />
    <path
       fill="#000000"
       fill-opacity="0.0"
       d="m195.51283 554.1417c0 22.469727 -27.543304 33.703247 -55.08661 44.939514c-27.543304 11.236206 -55.086617 22.475098 -55.086617 44.950256"
       fill-rule="evenodd"
       id="path295" />
    <path
       stroke="#0000ff"
       stroke-width="2.0"
       stroke-linejoin="round"
       stroke-linecap="butt"
       d="m195.51283 554.1417c0 22.469727 -27.543304 33.703247 -55.08661 44.939453c-13.771652 5.618164 -27.543312 11.236877 -37.872047 18.26056c-5.1643753 3.5118408 -9.46801 7.374878 -12.48056 11.764709c-0.37657166 0.54870605 -0.73296356 1.1055908 -1.0683441 1.6711426c-0.16769409 0.28277588 -0.33013916 0.567688 -0.4872055 0.85479736c-0.07854462 0.14355469 -0.15574646 0.28759766 -0.23159027 0.43225098l-0.15225983 0.29681396"
       fill-rule="evenodd"
       id="path297" />
    <path
       stroke="#0000ff"
       stroke-width="2.0"
       stroke-linecap="butt"
       d="m84.92158 631.5921l1.098938 9.596008l5.326332 -8.057373z"
       fill-rule="evenodd"
       id="path299" />
    <path
       fill="#000000"
       fill-opacity="0.0"
       d="m195.51283 554.1417c0 22.469727 9.732285 33.703247 19.46457 44.939514c9.732285 11.236206 19.46457 22.475098 19.46457 44.950256"
       fill-rule="evenodd"
       id="path301" />
    <path
       stroke="#0000ff"
       stroke-width="2.0"
       stroke-linejoin="round"
       stroke-linecap="butt"
       d="m195.51283 554.1417c0 22.469727 9.732285 33.703247 19.46457 44.939453c4.86615 5.618164 9.732285 11.236877 13.381897 18.26056c1.8247986 3.5118408 3.3454742 7.374878 4.4099426 11.764709c0.13305664 0.54870605 0.25897217 1.1055908 0.37748718 1.6711426c0.059249878 0.28277588 0.11663818 0.567688 0.17214966 0.85479736l0.08232117 0.44433594"
       fill-rule="evenodd"
       id="path303" />
    <path
       stroke="#0000ff"
       stroke-width="2.0"
       stroke-linecap="butt"
       d="m230.11018 632.3632l4.0782013 8.755493l2.50383 -9.328491z"
       fill-rule="evenodd"
       id="path305" />
    <path
       fill="#000000"
       fill-opacity="0.0"
       d="m465.60995 544.49603c0 22.469788 -11.763794 33.70331 -23.527557 44.939514c-11.763794 11.236206 -23.527557 22.475159 -23.527557 44.950256"
       fill-rule="evenodd"
       id="path307" />
    <path
       stroke="#0000ff"
       stroke-width="2.0"
       stroke-linejoin="round"
       stroke-linecap="butt"
       d="m465.60995 544.49603c0 22.469788 -11.763794 33.70331 -23.527557 44.939514c-5.881897 5.618103 -11.763794 11.236877 -16.175201 18.260498c-2.205719 3.5119019 -4.0437927 7.374878 -5.330475 11.764709c-0.16082764 0.54870605 -0.3130188 1.1056519 -0.4562683 1.6712036c-0.07165527 0.28271484 -0.14099121 0.56762695 -0.20809937 0.8547363c-0.03353882 0.14355469 -0.0664978 0.28759766 -0.09890747 0.43225098l-0.0071105957 0.032348633"
       fill-rule="evenodd"
       id="path309" />
    <path
       stroke="#0000ff"
       stroke-width="2.0"
       stroke-linecap="butt"
       d="m416.5209 622.10675l2.3388672 9.371216l4.2320557 -8.68219z"
       fill-rule="evenodd"
       id="path311" />
    <path
       fill="#000000"
       fill-opacity="0.0"
       d="m465.60995 544.49603c0 22.469788 25.51181 33.70331 51.02359 44.939514c25.51184 11.236206 51.02362 22.475159 51.02362 44.950256"
       fill-rule="evenodd"
       id="path313" />
    <path
       stroke="#0000ff"
       stroke-width="2.0"
       stroke-linejoin="round"
       stroke-linecap="butt"
       d="m465.60995 544.49603c0 22.469788 25.51181 33.70331 51.02359 44.939514c12.75592 5.618103 25.51184 11.236877 35.078796 18.260498c4.7834473 3.5119019 8.769653 7.374878 11.559998 11.764709c0.34881592 0.54870605 0.67889404 1.1056519 0.989563 1.6712036c0.15533447 0.28271484 0.30578613 0.56762695 0.45129395 0.8547363c0.072753906 0.14355469 0.14422607 0.28759766 0.21447754 0.43225098l0.120666504 0.25390625"
       fill-rule="evenodd"
       id="path315" />
    <path
       stroke="#0000ff"
       stroke-width="2.0"
       stroke-linecap="butt"
       d="m561.82385 623.39105l5.197693 8.14093l1.2512207 -9.577332z"
       fill-rule="evenodd"
       id="path317" />
    <path
       fill="#000000"
       fill-opacity="0.0"
       d="m679.5233 447.22308c0 13.937012 9.960632 20.905518 19.921265 27.874023c9.960632 6.968506 19.921265 13.937012 19.921265 27.874023"
       fill-rule="evenodd"
       id="path319" />
    <path
       stroke="#0000ff"
       stroke-width="2.0"
       stroke-linejoin="round"
       stroke-linecap="butt"
       d="m679.5233 447.22308c0 13.937012 9.960693 20.905518 19.921326 27.874023c4.9802856 3.484253 9.960632 6.968506 13.695862 11.323822c0.9338379 1.0888367 1.7897949 2.2321167 2.548584 3.4434204c0.1895752 0.30285645 0.37322998 0.6099243 0.55041504 0.92144775c0.08868408 0.15579224 0.17559814 0.3126831 0.26098633 0.47073364l0.028808594 0.0546875"
       fill-rule="evenodd"
       id="path321" />
    <path
       stroke="#0000ff"
       stroke-width="2.0"
       stroke-linecap="butt"
       d="m713.31946 492.0921l5.3552856 8.038086l1.0643921 -9.5998535z"
       fill-rule="evenodd"
       id="path323" />
    <path
       fill="#000000"
       fill-opacity="0.0"
       d="m679.5233 447.22308c0 10.304413 43.228394 15.455292 86.456726 20.608826c43.228333 5.153534 86.456665 10.309753 86.456665 20.619537"
       fill-rule="evenodd"
       id="path325" />
    <path
       stroke="#0000ff"
       stroke-width="2.0"
       stroke-linejoin="round"
       stroke-linecap="butt"
       d="m679.5233 447.22308c0 10.304443 43.228394 15.455261 86.456726 20.608826c21.614197 2.5767517 43.228394 5.154236 59.439026 8.37619c4.0526123 0.80548096 7.767639 1.6512756 11.060364 2.5473938c1.6463623 0.44802856 3.1872559 0.9087219 4.6119995 1.3831482c0.71240234 0.23727417 1.395752 0.47799683 2.048767 0.72229004l0.0017089844 6.713867E-4"
       fill-rule="evenodd"
       id="path327" />
    <path
       stroke="#0000ff"
       stroke-width="2.0"
       stroke-linecap="butt"
       d="m841.0525 483.42038l9.119568 3.1817932l-4.940735 -8.299347z"
       fill-rule="evenodd"
       id="path329" />
    <g
       filter="url(#shadowFilter-p.12)"
       id="g333">
      <use
         xlink:href="#p.12"
         transform="matrix(1.0 0.0 0.0 1.0 6.560590448654856 7.547095431430446)"
         id="use331" />
    </g>
    <defs
       id="defs348">
      <filter
         id="shadowFilter-p.12"
         filterUnits="userSpaceOnUse">
        <feGaussianBlur
           in="SourceAlpha"
           stdDeviation="1.5"
           result="blur"
           id="feGaussianBlur335" />
        <feComponentTransfer
           in="blur"
           color-interpolation-filters="sRGB"
           id="feComponentTransfer345">
          <feFuncR
             type="linear"
             slope="0"
             intercept="0.0"
             id="feFuncR337" />
          <feFuncG
             type="linear"
             slope="0"
             intercept="0.0"
             id="feFuncG339" />
          <feFuncB
             type="linear"
             slope="0"
             intercept="0.0"
             id="feFuncB341" />
          <feFuncA
             type="linear"
             slope="0.29"
             intercept="0"
             id="feFuncA343" />
        </feComponentTransfer>
      </filter>
    </defs>
    <g
       id="p.12">
      <path
         fill="#c9daf8"
         d="m4.510214 415.2546l0 0c0 -18.142792 24.388142 -32.850403 54.472443 -32.850403l0 0c30.084301 0 54.47244 14.707611 54.47244 32.850403l0 0c0 18.142761 -24.388138 32.850372 -54.47244 32.850372l0 0c-30.0843 0 -54.472443 -14.707611 -54.472443 -32.850372z"
         fill-rule="evenodd"
         id="path350" />
      <path
         stroke="#0000ff"
         stroke-width="2.0"
         stroke-linejoin="round"
         stroke-linecap="butt"
         d="m4.510214 415.2546l0 0c0 -18.142792 24.388142 -32.850403 54.472443 -32.850403l0 0c30.084301 0 54.47244 14.707611 54.47244 32.850403l0 0c0 18.142761 -24.388138 32.850372 -54.47244 32.850372l0 0c-30.0843 0 -54.472443 -14.707611 -54.472443 -32.850372z"
         fill-rule="evenodd"
         id="path352" />
    </g>
    <path
       fill="#000000"
       fill-opacity="0.0"
       d="m372.23987 338.2861c0 11.029602 -68.68503 15.342712 -137.37007 22.059235c-68.68504 6.7165527 -137.37009 15.836517 -137.37009 31.673035"
       fill-rule="evenodd"
       id="path355" />
    <path
       stroke="#0000ff"
       stroke-width="2.0"
       stroke-linejoin="round"
       stroke-linecap="butt"
       d="m372.23987 338.2861c0 11.029602 -68.68503 15.342712 -137.37007 22.059235c-34.34253 3.3582764 -68.68504 7.317383 -94.44194 12.416504c-12.878441 2.549591 -23.610474 5.3841553 -31.122902 8.571075c-0.9390564 0.39837646 -1.8277969 0.8022461 -2.6641464 1.211792c-0.20908356 0.10235596 -0.4148941 0.20507812 -0.6174011 0.30819702l-0.48788452 0.25335693"
       fill-rule="evenodd"
       id="path357" />
    <path
       stroke="#0000ff"
       stroke-width="2.0"
       stroke-linecap="butt"
       d="m103.082115 380.8941l-3.6244736 8.95282l8.531288 -4.5285034z"
       fill-rule="evenodd"
       id="path359" />
    <path
       fill="#000000"
       fill-opacity="0.0"
       d="m397.82516 227.55511l102.04724 0l0 41.228363l-102.04724 0z"
       fill-rule="evenodd"
       id="path361" />
    <path
       fill="#000000"
       d="m421.09048 254.47511l0 -1.21875q-0.90625 1.4375 -2.703125 1.4375q-1.15625 0 -2.125 -0.640625q-0.96875 -0.640625 -1.5 -1.78125q-0.53125 -1.140625 -0.53125 -2.625q0 -1.453125 0.484375 -2.625q0.484375 -1.1875 1.4375 -1.8125q0.96875 -0.625 2.171875 -0.625q0.875 0 1.546875 0.375q0.6875 0.359375 1.109375 0.953125l0 -4.796875l1.640625 0l0 13.359375l-1.53125 0zm-5.171875 -4.828125q0 1.859375 0.78125 2.78125q0.78125 0.921875 1.84375 0.921875q1.078125 0 1.828125 -0.875q0.75 -0.890625 0.75 -2.6875q0 -1.984375 -0.765625 -2.90625q-0.765625 -0.9375 -1.890625 -0.9375q-1.078125 0 -1.8125 0.890625q-0.734375 0.890625 -0.734375 2.8125zm15.610107 4.828125l0 -1.421875q-1.125 1.640625 -3.0625 1.640625q-0.859375 0 -1.609375 -0.328125q-0.734375 -0.328125 -1.09375 -0.828125q-0.359375 -0.5 -0.5 -1.21875q-0.109375 -0.46875 -0.109375 -1.53125l0 -5.984375l1.640625 0l0 5.359375q0 1.28125 0.109375 1.734375q0.15625 0.640625 0.65625 1.015625q0.5 0.375 1.234375 0.375q0.734375 0 1.375 -0.375q0.65625 -0.390625 0.921875 -1.03125q0.265625 -0.65625 0.265625 -1.890625l0 -5.1875l1.640625 0l0 9.671875l-1.46875 0zm10.360077 -3.546875l1.609375 0.21875q-0.265625 1.65625 -1.359375 2.609375q-1.078125 0.9375 -2.671875 0.9375q-1.984375 0 -3.1875 -1.296875q-1.203125 -1.296875 -1.203125 -3.71875q0 -1.578125 0.515625 -2.75q0.515625 -1.171875 1.578125 -1.75q1.0625 -0.59375 2.3125 -0.59375q1.578125 0 2.578125 0.796875q1.0 0.796875 1.28125 2.265625l-1.59375 0.234375q-0.234375 -0.96875 -0.8125 -1.453125q-0.578125 -0.5 -1.390625 -0.5q-1.234375 0 -2.015625 0.890625q-0.78125 0.890625 -0.78125 2.8125q0 1.953125 0.75 2.84375q0.75 0.875 1.953125 0.875q0.96875 0 1.609375 -0.59375q0.65625 -0.59375 0.828125 -1.828125zm3.015625 3.546875l0 -13.359375l1.640625 0l0 4.796875q1.140625 -1.328125 2.890625 -1.328125q1.078125 0 1.859375 0.421875q0.796875 0.421875 1.140625 1.171875q0.34375 0.75 0.34375 2.171875l0 6.125l-1.640625 0l0 -6.125q0 -1.234375 -0.53125 -1.796875q-0.53125 -0.5625 -1.515625 -0.5625q-0.71875 0 -1.359375 0.390625q-0.640625 0.375 -0.921875 1.015625q-0.265625 0.640625 -0.265625 1.78125l0 5.296875l-1.640625 0zm10.375732 0l0 -9.671875l1.46875 0l0 1.359375q0.453125 -0.71875 1.203125 -1.140625q0.765625 -0.4375 1.71875 -0.4375q1.078125 0 1.765625 0.453125q0.6875 0.4375 0.96875 1.234375q1.15625 -1.6875 2.984375 -1.6875q1.453125 0 2.21875 0.796875q0.78125 0.796875 0.78125 2.453125l0 6.640625l-1.640625 0l0 -6.09375q0 -0.984375 -0.15625 -1.40625q-0.15625 -0.4375 -0.578125 -0.703125q-0.421875 -0.265625 -0.984375 -0.265625q-1.015625 0 -1.6875 0.6875q-0.671875 0.671875 -0.671875 2.15625l0 5.625l-1.640625 0l0 -6.28125q0 -1.09375 -0.40625 -1.640625q-0.40625 -0.546875 -1.3125 -0.546875q-0.6875 0 -1.28125 0.359375q-0.59375 0.359375 -0.859375 1.0625q-0.25 0.703125 -0.25 2.03125l0 5.015625l-1.640625 0zm14.931427 -4.84375q0 -2.6875 1.484375 -3.96875q1.25 -1.078125 3.046875 -1.078125q2.0 0 3.265625 1.3125q1.265625 1.296875 1.265625 3.609375q0 1.859375 -0.5625 2.9375q-0.5625 1.0625 -1.640625 1.65625q-1.0625 0.59375 -2.328125 0.59375q-2.03125 0 -3.28125 -1.296875q-1.25 -1.3125 -1.25 -3.765625zm1.6875 0q0 1.859375 0.796875 2.796875q0.8125 0.921875 2.046875 0.921875q1.21875 0 2.03125 -0.921875q0.8125 -0.9375 0.8125 -2.84375q0 -1.796875 -0.8125 -2.71875q-0.8125 -0.921875 -2.03125 -0.921875q-1.234375 0 -2.046875 0.921875q-0.796875 0.90625 -0.796875 2.765625zm9.250702 4.84375l0 -13.359375l1.640625 0l0 13.359375l-1.640625 0z"
       fill-rule="nonzero"
       id="path363" />
    <path
       fill="#000000"
       fill-opacity="0.0"
       d="m165.56697 327.44095l121.85826 0l0 37.165344l-121.85826 0z"
       fill-rule="evenodd"
       id="path365" />
    <path
       fill="#000000"
       d="m180.53676 352.94363l0 -9.671875l1.46875 0l0 1.46875q0.5625 -1.03125 1.03125 -1.359375q0.484375 -0.328125 1.0625 -0.328125q0.828125 0 1.6875 0.53125l-0.5625 1.515625q-0.609375 -0.359375 -1.203125 -0.359375q-0.546875 0 -0.96875 0.328125q-0.421875 0.328125 -0.609375 0.890625q-0.28125 0.875 -0.28125 1.921875l0 5.0625l-1.625 0zm12.853302 -3.109375l1.6875 0.203125q-0.40625 1.484375 -1.484375 2.3125q-1.078125 0.8125 -2.765625 0.8125q-2.125 0 -3.375 -1.296875q-1.234375 -1.3125 -1.234375 -3.671875q0 -2.453125 1.25 -3.796875q1.265625 -1.34375 3.265625 -1.34375q1.9375 0 3.15625 1.328125q1.234375 1.3125 1.234375 3.703125q0 0.15625 0 0.4375l-7.21875 0q0.09375 1.59375 0.90625 2.453125q0.8125 0.84375 2.015625 0.84375q0.90625 0 1.546875 -0.46875q0.640625 -0.484375 1.015625 -1.515625zm-5.390625 -2.65625l5.40625 0q-0.109375 -1.21875 -0.625 -1.828125q-0.78125 -0.953125 -2.03125 -0.953125q-1.125 0 -1.90625 0.765625q-0.765625 0.75 -0.84375 2.015625zm15.453842 4.578125q-0.921875 0.765625 -1.765625 1.09375q-0.828125 0.3125 -1.796875 0.3125q-1.59375 0 -2.453125 -0.78125q-0.859375 -0.78125 -0.859375 -1.984375q0 -0.71875 0.328125 -1.296875q0.328125 -0.59375 0.84375 -0.9375q0.53125 -0.359375 1.1875 -0.546875q0.46875 -0.125 1.453125 -0.25q1.984375 -0.234375 2.921875 -0.5625q0.015625 -0.34375 0.015625 -0.421875q0 -1.0 -0.46875 -1.421875q-0.625 -0.546875 -1.875 -0.546875q-1.15625 0 -1.703125 0.40625q-0.546875 0.40625 -0.8125 1.421875l-1.609375 -0.21875q0.21875 -1.015625 0.71875 -1.640625q0.5 -0.640625 1.453125 -0.984375q0.953125 -0.34375 2.1875 -0.34375q1.25 0 2.015625 0.296875q0.78125 0.28125 1.140625 0.734375q0.375 0.4375 0.515625 1.109375q0.078125 0.421875 0.078125 1.515625l0 2.1875q0 2.28125 0.109375 2.890625q0.109375 0.59375 0.40625 1.15625l-1.703125 0q-0.265625 -0.515625 -0.328125 -1.1875zm-0.140625 -3.671875q-0.890625 0.375 -2.671875 0.625q-1.015625 0.140625 -1.4375 0.328125q-0.421875 0.1875 -0.65625 0.53125q-0.21875 0.34375 -0.21875 0.78125q0 0.65625 0.5 1.09375q0.5 0.4375 1.453125 0.4375q0.9375 0 1.671875 -0.40625q0.75 -0.421875 1.09375 -1.140625q0.265625 -0.5625 0.265625 -1.640625l0 -0.609375zm10.469467 4.859375l0 -1.21875q-0.90625 1.4375 -2.703125 1.4375q-1.15625 0 -2.125 -0.640625q-0.96875 -0.640625 -1.5 -1.78125q-0.53125 -1.140625 -0.53125 -2.625q0 -1.453125 0.484375 -2.625q0.484375 -1.1875 1.4375 -1.8125q0.96875 -0.625 2.171875 -0.625q0.875 0 1.546875 0.375q0.6875 0.359375 1.109375 0.953125l0 -4.796875l1.640625 0l0 13.359375l-1.53125 0zm-5.171875 -4.828125q0 1.859375 0.78125 2.78125q0.78125 0.921875 1.84375 0.921875q1.078125 0 1.828125 -0.875q0.75 -0.890625 0.75 -2.6875q0 -1.984375 -0.765625 -2.90625q-0.765625 -0.9375 -1.890625 -0.9375q-1.078125 0 -1.8125 0.890625q-0.734375 0.890625 -0.734375 2.8125zm9.281967 4.828125l0 -9.671875l1.46875 0l0 1.359375q0.453125 -0.71875 1.203125 -1.140625q0.765625 -0.4375 1.71875 -0.4375q1.078125 0 1.765625 0.453125q0.6875 0.4375 0.96875 1.234375q1.15625 -1.6875 2.984375 -1.6875q1.453125 0 2.2187653 0.796875q0.78125 0.796875 0.78125 2.453125l0 6.640625l-1.6406403 0l0 -6.09375q0 -0.984375 -0.15625 -1.40625q-0.15625 -0.4375 -0.578125 -0.703125q-0.421875 -0.265625 -0.984375 -0.265625q-1.015625 0 -1.6875 0.6875q-0.671875 0.671875 -0.671875 2.15625l0 5.625l-1.640625 0l0 -6.28125q0 -1.09375 -0.40625 -1.640625q-0.40625 -0.546875 -1.3125 -0.546875q-0.6875 0 -1.28125 0.359375q-0.59375 0.359375 -0.859375 1.0625q-0.25 0.703125 -0.25 2.03125l0 5.015625l-1.640625 0zm22.165817 -3.109375l1.6875 0.203125q-0.40625 1.484375 -1.484375 2.3125q-1.078125 0.8125 -2.765625 0.8125q-2.125 0 -3.375 -1.296875q-1.234375 -1.3125 -1.234375 -3.671875q0 -2.453125 1.25 -3.796875q1.265625 -1.34375 3.265625 -1.34375q1.9375 0 3.15625 1.328125q1.234375 1.3125 1.234375 3.703125q0 0.15625 0 0.4375l-7.21875 0q0.09375 1.59375 0.90625 2.453125q0.8125 0.84375 2.015625 0.84375q0.90625 0 1.546875 -0.46875q0.640625 -0.484375 1.015625 -1.515625zm-5.390625 -2.65625l5.40625 0q-0.109375 -1.21875 -0.625 -1.828125q-0.78125 -0.953125 -2.03125 -0.953125q-1.125 0 -1.90625 0.765625q-0.765625 0.75 -0.84375 2.015625zm9.594467 5.765625l0 -1.875l1.875 0l0 1.875l-1.875 0zm4.730179 0l0 -9.671875l1.46875 0l0 1.359375q0.453125 -0.71875 1.203125 -1.140625q0.765625 -0.4375 1.71875 -0.4375q1.078125 0 1.765625 0.453125q0.6875 0.4375 0.96873474 1.234375q1.15625 -1.6875 2.984375 -1.6875q1.453125 0 2.21875 0.796875q0.78125 0.796875 0.78125 2.453125l0 6.640625l-1.640625 0l0 -6.09375q0 -0.984375 -0.15625 -1.40625q-0.15625 -0.4375 -0.578125 -0.703125q-0.421875 -0.265625 -0.984375 -0.265625q-1.015625 0 -1.6875 0.6875q-0.671875 0.671875 -0.671875 2.15625l0 5.625l-1.6406097 0l0 -6.28125q0 -1.09375 -0.40625 -1.640625q-0.40625 -0.546875 -1.3125 -0.546875q-0.6875 0 -1.28125 0.359375q-0.59375 0.359375 -0.859375 1.0625q-0.25 0.703125 -0.25 2.03125l0 5.015625l-1.640625 0zm21.806412 0l0 -1.21875q-0.90625 1.4375 -2.703125 1.4375q-1.15625 0 -2.125 -0.640625q-0.96875 -0.640625 -1.5 -1.78125q-0.53125 -1.140625 -0.53125 -2.625q0 -1.453125 0.484375 -2.625q0.484375 -1.1875 1.4375 -1.8125q0.96875 -0.625 2.171875 -0.625q0.875 0 1.546875 0.375q0.6875 0.359375 1.109375 0.953125l0 -4.796875l1.640625 0l0 13.359375l-1.53125 0zm-5.171875 -4.828125q0 1.859375 0.78125 2.78125q0.78125 0.921875 1.84375 0.921875q1.078125 0 1.828125 -0.875q0.75 -0.890625 0.75 -2.6875q0 -1.984375 -0.765625 -2.90625q-0.765625 -0.9375 -1.890625 -0.9375q-1.078125 0 -1.8125 0.890625q-0.734375 0.890625 -0.734375 2.8125z"
       fill-rule="nonzero"
       id="path367" />
    <path
       fill="#000000"
       fill-opacity="0.0"
       d="m646.043 462.9239l82.96063 0l0 41.228333l-82.96063 0z"
       fill-rule="evenodd"
       id="path369" />
    <path
       fill="#000000"
       d="m676.18097 489.84387l0 -8.40625l-1.453125 0l0 -1.265625l1.453125 0l0 -1.03125q0 -0.96875 0.171875 -1.453125q0.234375 -0.640625 0.828125 -1.03125q0.59375 -0.390625 1.671875 -0.390625q0.6875 0 1.53125 0.15625l-0.25 1.4375q-0.5 -0.09375 -0.953125 -0.09375q-0.75 0 -1.0625 0.328125q-0.3125 0.3125 -0.3125 1.1875l0 0.890625l1.890625 0l0 1.265625l-1.890625 0l0 8.40625l-1.625 0zm4.1832886 -4.84375q0 -2.6875 1.484375 -3.96875q1.25 -1.078125 3.046875 -1.078125q2.0 0 3.265625 1.3125q1.265625 1.296875 1.265625 3.609375q0 1.859375 -0.5625 2.9375q-0.5625 1.0625 -1.640625 1.65625q-1.0625 0.59375 -2.328125 0.59375q-2.03125 0 -3.28125 -1.296875q-1.25 -1.3125 -1.25 -3.765625zm1.6875 0q0 1.859375 0.796875 2.796875q0.8125 0.921875 2.046875 0.921875q1.21875 0 2.03125 -0.921875q0.8125 -0.9375 0.8125 -2.84375q0 -1.796875 -0.8125 -2.71875q-0.8125 -0.921875 -2.03125 -0.921875q-1.234375 0 -2.046875 0.921875q-0.796875 0.90625 -0.796875 2.765625zm8.688232 0q0 -2.6875 1.484375 -3.96875q1.25 -1.078125 3.046875 -1.078125q2.0 0 3.265625 1.3125q1.265625 1.296875 1.265625 3.609375q0 1.859375 -0.5625 2.9375q-0.5625 1.0625 -1.640625 1.65625q-1.0625 0.59375 -2.328125 0.59375q-2.03125 0 -3.28125 -1.296875q-1.25 -1.3125 -1.25 -3.765625zm1.6875 0q0 1.859375 0.796875 2.796875q0.8125 0.921875 2.046875 0.921875q1.21875 0 2.03125 -0.921875q0.8125 -0.9375 0.8125 -2.84375q0 -1.796875 -0.8125 -2.71875q-0.8125 -0.921875 -2.03125 -0.921875q-1.234375 0 -2.046875 0.921875q-0.796875 0.90625 -0.796875 2.765625z"
       fill-rule="nonzero"
       id="path371" />
    <path
       fill="#000000"
       fill-opacity="0.0"
       d="m736.4262 437.2152l97.22833 0l0 31.118134l-97.22833 0z"
       fill-rule="evenodd"
       id="path373" />
    <path
       fill="#000000"
       d="m774.2927 464.13522l-1.515625 0l0 -13.359375l1.640625 0l0 4.765625q1.046875 -1.296875 2.65625 -1.296875q0.890625 0 1.6875 0.359375q0.796875 0.359375 1.3125 1.015625q0.515625 0.640625 0.796875 1.5625q0.296875 0.921875 0.296875 1.96875q0 2.484375 -1.234375 3.84375q-1.21875 1.359375 -2.953125 1.359375q-1.703125 0 -2.6875 -1.4375l0 1.21875zm-0.015625 -4.90625q0 1.734375 0.484375 2.515625q0.765625 1.265625 2.09375 1.265625q1.078125 0 1.859375 -0.9375q0.78125 -0.9375 0.78125 -2.78125q0 -1.890625 -0.75 -2.796875q-0.75 -0.90625 -1.828125 -0.90625q-1.0625 0 -1.859375 0.9375q-0.78125 0.9375 -0.78125 2.703125zm15.203857 3.71875q-0.921875 0.765625 -1.765625 1.09375q-0.828125 0.3125 -1.796875 0.3125q-1.59375 0 -2.453125 -0.78125q-0.859375 -0.78125 -0.859375 -1.984375q0 -0.71875 0.328125 -1.296875q0.328125 -0.59375 0.84375 -0.9375q0.53125 -0.359375 1.1875 -0.546875q0.46875 -0.125 1.453125 -0.25q1.984375 -0.234375 2.921875 -0.5625q0.015625 -0.34375 0.015625 -0.421875q0 -1.0 -0.46875 -1.421875q-0.625 -0.546875 -1.875 -0.546875q-1.15625 0 -1.703125 0.40625q-0.546875 0.40625 -0.8125 1.421875l-1.609375 -0.21875q0.21875 -1.015625 0.71875 -1.640625q0.5 -0.640625 1.453125 -0.984375q0.953125 -0.34375 2.1875 -0.34375q1.25 0 2.015625 0.296875q0.78125 0.28125 1.140625 0.734375q0.375 0.4375 0.515625 1.109375q0.078125 0.421875 0.078125 1.515625l0 2.1875q0 2.28125 0.109375 2.890625q0.109375 0.59375 0.40625 1.15625l-1.703125 0q-0.265625 -0.515625 -0.328125 -1.1875zm-0.140625 -3.671875q-0.890625 0.375 -2.671875 0.625q-1.015625 0.140625 -1.4375 0.328125q-0.421875 0.1875 -0.65625 0.53125q-0.21875 0.34375 -0.21875 0.78125q0 0.65625 0.5 1.09375q0.5 0.4375 1.453125 0.4375q0.9375 0 1.671875 -0.40625q0.75 -0.421875 1.09375 -1.140625q0.265625 -0.5625 0.265625 -1.640625l0 -0.609375zm4.1881714 4.859375l0 -9.671875l1.46875 0l0 1.46875q0.5625 -1.03125 1.03125 -1.359375q0.484375 -0.328125 1.0625 -0.328125q0.828125 0 1.6875 0.53125l-0.5625 1.515625q-0.609375 -0.359375 -1.203125 -0.359375q-0.546875 0 -0.96875 0.328125q-0.421875 0.328125 -0.609375 0.890625q-0.28125 0.875 -0.28125 1.921875l0 5.0625l-1.625 0z"
       fill-rule="nonzero"
       id="path375" />
    <path
       fill="#000000"
       fill-opacity="0.0"
       d="m326.78635 392.979l77.79529 0l0 31.118103l-77.79529 0z"
       fill-rule="evenodd"
       id="path377" />
    <path
       fill="#000000"
       d="m357.6673 418.7115q-0.921875 0.765625 -1.765625 1.09375q-0.828125 0.3125 -1.796875 0.3125q-1.59375 0 -2.453125 -0.78125q-0.859375 -0.78125 -0.859375 -1.984375q0 -0.71875 0.328125 -1.296875q0.328125 -0.59375 0.84375 -0.9375q0.53125 -0.359375 1.1875 -0.546875q0.46875 -0.125 1.453125 -0.25q1.984375 -0.234375 2.921875 -0.5625q0.015625 -0.34375 0.015625 -0.421875q0 -1.0 -0.46875 -1.421875q-0.625 -0.546875 -1.875 -0.546875q-1.15625 0 -1.703125 0.40625q-0.546875 0.40625 -0.8125 1.421875l-1.609375 -0.21875q0.21875 -1.015625 0.71875 -1.640625q0.5 -0.640625 1.453125 -0.984375q0.953125 -0.34375 2.1875 -0.34375q1.25 0 2.015625 0.296875q0.78125 0.28125 1.140625 0.734375q0.375 0.4375 0.515625 1.109375q0.078125 0.421875 0.078125 1.515625l0 2.1875q0 2.28125 0.109375 2.890625q0.109375 0.59375 0.40625 1.15625l-1.703125 0q-0.265625 -0.515625 -0.328125 -1.1875zm-0.140625 -3.671875q-0.890625 0.375 -2.671875 0.625q-1.015625 0.140625 -1.4375 0.328125q-0.421875 0.1875 -0.65625 0.53125q-0.21875 0.34375 -0.21875 0.78125q0 0.65625 0.5 1.09375q0.5 0.4375 1.453125 0.4375q0.9375 0 1.671875 -0.40625q0.75 -0.421875 1.09375 -1.140625q0.265625 -0.5625 0.265625 -1.640625l0 -0.609375zm10.469452 4.859375l0 -1.21875q-0.90625 1.4375 -2.703125 1.4375q-1.15625 0 -2.125 -0.640625q-0.96875 -0.640625 -1.5 -1.78125q-0.53125 -1.140625 -0.53125 -2.625q0 -1.453125 0.484375 -2.625q0.484375 -1.1875 1.4375 -1.8125q0.96875 -0.625 2.171875 -0.625q0.875 0 1.546875 0.375q0.6875 0.359375 1.109375 0.953125l0 -4.796875l1.640625 0l0 13.359375l-1.53125 0zm-5.171875 -4.828125q0 1.859375 0.78125 2.78125q0.78125 0.921875 1.84375 0.921875q1.078125 0 1.828125 -0.875q0.75 -0.890625 0.75 -2.6875q0 -1.984375 -0.765625 -2.90625q-0.765625 -0.9375 -1.890625 -0.9375q-1.078125 0 -1.8125 0.890625q-0.734375 0.890625 -0.734375 2.8125zm9.281982 4.828125l0 -9.671875l1.46875 0l0 1.375q1.0625 -1.59375 3.078125 -1.59375q0.875 0 1.609375 0.3125q0.734375 0.3125 1.09375 0.828125q0.375 0.5 0.515625 1.203125q0.09375 0.453125 0.09375 1.59375l0 5.953125l-1.640625 0l0 -5.890625q0 -1.0 -0.203125 -1.484375q-0.1875 -0.5 -0.671875 -0.796875q-0.484375 -0.296875 -1.140625 -0.296875q-1.046875 0 -1.8125 0.671875q-0.75 0.65625 -0.75 2.515625l0 5.28125l-1.640625 0z"
       fill-rule="nonzero"
       id="path379" />
    <path
       fill="#000000"
       fill-opacity="0.0"
       d="m364.07977 560.67194l93.35434 0l0 31.118103l-93.35434 0z"
       fill-rule="evenodd"
       id="path381" />
    <path
       fill="#000000"
       d="m392.37817 586.4044q-0.921875 0.765625 -1.765625 1.09375q-0.828125 0.3125 -1.796875 0.3125q-1.59375 0 -2.453125 -0.78125q-0.859375 -0.78125 -0.859375 -1.984375q0 -0.71875 0.328125 -1.296875q0.328125 -0.59375 0.84375 -0.9375q0.53125 -0.359375 1.1875 -0.546875q0.46875 -0.125 1.453125 -0.25q1.984375 -0.234375 2.921875 -0.5625q0.015625 -0.34375 0.015625 -0.421875q0 -1.0 -0.46875 -1.421875q-0.625 -0.546875 -1.875 -0.546875q-1.15625 0 -1.703125 0.40625q-0.546875 0.40625 -0.8125 1.421875l-1.609375 -0.21875q0.21875 -1.015625 0.71875 -1.640625q0.5 -0.640625 1.453125 -0.984375q0.953125 -0.34375 2.1875 -0.34375q1.25 0 2.015625 0.296875q0.78125 0.28125 1.140625 0.734375q0.375 0.4375 0.515625 1.109375q0.078125 0.421875 0.078125 1.515625l0 2.1875q0 2.28125 0.109375 2.890625q0.109375 0.59375 0.40625 1.15625l-1.703125 0q-0.265625 -0.515625 -0.328125 -1.1875zm-0.140625 -3.671875q-0.890625 0.375 -2.671875 0.625q-1.015625 0.140625 -1.4375 0.328125q-0.421875 0.1875 -0.65625 0.53125q-0.21875 0.34375 -0.21875 0.78125q0 0.65625 0.5 1.09375q0.5 0.4375 1.453125 0.4375q0.9375 0 1.671875 -0.40625q0.75 -0.421875 1.09375 -1.140625q0.265625 -0.5625 0.265625 -1.640625l0 -0.609375zm4.1882324 4.859375l0 -9.671875l1.46875 0l0 1.46875q0.5625 -1.03125 1.03125 -1.359375q0.484375 -0.328125 1.0625 -0.328125q0.828125 0 1.6875 0.53125l-0.5625 1.515625q-0.609375 -0.359375 -1.203125 -0.359375q-0.546875 0 -0.96875 0.328125q-0.421875 0.328125 -0.609375 0.890625q-0.28125 0.875 -0.28125 1.921875l0 5.0625l-1.625 0zm6.228302 0l0 -9.671875l1.46875 0l0 1.375q1.0625 -1.59375 3.078125 -1.59375q0.875 0 1.609375 0.3125q0.734375 0.3125 1.09375 0.828125q0.375 0.5 0.515625 1.203125q0.09375 0.453125 0.09375 1.59375l0 5.953125l-1.640625 0l0 -5.890625q0 -1.0 -0.203125 -1.484375q-0.1875 -0.5 -0.671875 -0.796875q-0.484375 -0.296875 -1.140625 -0.296875q-1.046875 0 -1.8125 0.671875q-0.75 0.65625 -0.75 2.515625l0 5.28125l-1.640625 0zm10.828827 0l0 -1.875l1.875 0l0 1.875l-1.875 0zm4.730194 3.703125l0 -13.375l1.484375 0l0 1.25q0.53125 -0.734375 1.1875 -1.09375q0.671875 -0.375 1.625 -0.375q1.234375 0 2.171875 0.640625q0.953125 0.625 1.4375 1.796875q0.484375 1.15625 0.484375 2.546875q0 1.484375 -0.53125 2.671875q-0.53125 1.1875 -1.546875 1.828125q-1.015625 0.625 -2.140625 0.625q-0.8125 0 -1.46875 -0.34375q-0.65625 -0.34375 -1.0625 -0.875l0 4.703125l-1.640625 0zm1.484375 -8.484375q0 1.859375 0.75 2.765625q0.765625 0.890625 1.828125 0.890625q1.09375 0 1.875 -0.921875q0.78125 -0.9375 0.78125 -2.875q0 -1.84375 -0.765625 -2.765625q-0.75 -0.921875 -1.8125 -0.921875q-1.046875 0 -1.859375 0.984375q-0.796875 0.96875 -0.796875 2.84375zm8.813202 8.5l-0.1875 -1.53125q0.546875 0.140625 0.9375 0.140625q0.546875 0 0.875 -0.1875q0.328125 -0.171875 0.546875 -0.5q0.15625 -0.25 0.5 -1.21875q0.046875 -0.140625 0.140625 -0.40625l-3.671875 -9.6875l1.765625 0l2.015625 5.59375q0.390625 1.078125 0.703125 2.25q0.28125 -1.125 0.671875 -2.203125l2.078125 -5.640625l1.640625 0l-3.6875 9.828125q-0.59375 1.609375 -0.921875 2.203125q-0.4375 0.8125 -1.0 1.1875q-0.5625 0.375 -1.34375 0.375q-0.484375 0 -1.0625 -0.203125z"
       fill-rule="nonzero"
       id="path383" />
    <path
       fill="#000000"
       fill-opacity="0.0"
       d="m454.95035 581.4162l104.566925 0l0 27.653564l-104.566925 0z"
       fill-rule="evenodd"
       id="path385" />
    <path
       fill="#000000"
       d="m486.77353 607.1487q-0.921875 0.765625 -1.765625 1.09375q-0.828125 0.3125 -1.796875 0.3125q-1.59375 0 -2.453125 -0.78125q-0.859375 -0.78125 -0.859375 -1.984375q0 -0.71875 0.328125 -1.296875q0.328125 -0.59375 0.84375 -0.9375q0.53125 -0.359375 1.1875 -0.546875q0.46875 -0.125 1.453125 -0.25q1.984375 -0.234375 2.921875 -0.5625q0.015625 -0.34375 0.015625 -0.421875q0 -1.0 -0.46875 -1.421875q-0.625 -0.546875 -1.875 -0.546875q-1.15625 0 -1.703125 0.40625q-0.546875 0.40625 -0.8125 1.421875l-1.609375 -0.21875q0.21875 -1.015625 0.71875 -1.640625q0.5 -0.640625 1.453125 -0.984375q0.953125 -0.34375 2.1875 -0.34375q1.25 0 2.015625 0.296875q0.78125 0.28125 1.140625 0.734375q0.375 0.4375 0.515625 1.109375q0.078125 0.421875 0.078125 1.515625l0 2.1875q0 2.28125 0.109375 2.890625q0.109375 0.59375 0.40625 1.15625l-1.703125 0q-0.265625 -0.515625 -0.328125 -1.1875zm-0.140625 -3.671875q-0.890625 0.375 -2.671875 0.625q-1.015625 0.140625 -1.4375 0.328125q-0.421875 0.1875 -0.65625 0.53125q-0.21875 0.34375 -0.21875 0.78125q0 0.65625 0.5 1.09375q0.5 0.4375 1.453125 0.4375q0.9375 0 1.671875 -0.40625q0.75 -0.421875 1.09375 -1.140625q0.265625 -0.5625 0.265625 -1.640625l0 -0.609375zm10.469482 4.859375l0 -1.21875q-0.90625 1.4375 -2.703125 1.4375q-1.15625 0 -2.125 -0.640625q-0.96875 -0.640625 -1.5 -1.78125q-0.53125 -1.140625 -0.53125 -2.625q0 -1.453125 0.484375 -2.625q0.484375 -1.1875 1.4375 -1.8125q0.96875 -0.625 2.171875 -0.625q0.875 0 1.546875 0.375q0.6875 0.359375 1.109375 0.953125l0 -4.796875l1.640625 0l0 13.359375l-1.53125 0zm-5.171875 -4.828125q0 1.859375 0.78125 2.78125q0.78125 0.921875 1.84375 0.921875q1.078125 0 1.828125 -0.875q0.75 -0.890625 0.75 -2.6875q0 -1.984375 -0.765625 -2.90625q-0.765625 -0.9375 -1.890625 -0.9375q-1.078125 0 -1.8125 0.890625q-0.734375 0.890625 -0.734375 2.8125zm9.281952 4.828125l0 -9.671875l1.46875 0l0 1.375q1.0625 -1.59375 3.078125 -1.59375q0.875 0 1.609375 0.3125q0.734375 0.3125 1.09375 0.828125q0.375 0.5 0.515625 1.203125q0.09375 0.453125 0.09375 1.59375l0 5.953125l-1.640625 0l0 -5.890625q0 -1.0 -0.203125 -1.484375q-0.1875 -0.5 -0.671875 -0.796875q-0.484375 -0.296875 -1.140625 -0.296875q-1.046875 0 -1.8125 0.671875q-0.75 0.65625 -0.75 2.515625l0 5.28125l-1.640625 0zm10.828857 0l0 -1.875l1.875 0l0 1.875l-1.875 0zm4.7301636 3.703125l0 -13.375l1.484375 0l0 1.25q0.53125 -0.734375 1.1875 -1.09375q0.671875 -0.375 1.625 -0.375q1.234375 0 2.171875 0.640625q0.953125 0.625 1.4375 1.796875q0.484375 1.15625 0.484375 2.546875q0 1.484375 -0.53125 2.671875q-0.53125 1.1875 -1.546875 1.828125q-1.015625 0.625 -2.140625 0.625q-0.8125 0 -1.46875 -0.34375q-0.65625 -0.34375 -1.0625 -0.875l0 4.703125l-1.640625 0zm1.484375 -8.484375q0 1.859375 0.75 2.765625q0.765625 0.890625 1.828125 0.890625q1.09375 0 1.875 -0.921875q0.78125 -0.9375 0.78125 -2.875q0 -1.84375 -0.765625 -2.765625q-0.75 -0.921875 -1.8125 -0.921875q-1.046875 0 -1.859375 0.984375q-0.796875 0.96875 -0.796875 2.84375zm8.813232 8.5l-0.1875 -1.53125q0.546875 0.140625 0.9375 0.140625q0.546875 0 0.875 -0.1875q0.328125 -0.171875 0.546875 -0.5q0.15625 -0.25 0.5 -1.21875q0.046875 -0.140625 0.140625 -0.40625l-3.671875 -9.6875l1.765625 0l2.015625 5.59375q0.390625 1.078125 0.703125 2.25q0.28125 -1.125 0.671875 -2.203125l2.078125 -5.640625l1.640625 0l-3.6875 9.828125q-0.59375 1.609375 -0.921875 2.203125q-0.4375 0.8125 -1.0 1.1875q-0.5625 0.375 -1.34375 0.375q-0.484375 0 -1.0625 -0.203125z"
       fill-rule="nonzero"
       id="path387" />
    <path
       fill="#000000"
       fill-opacity="0.0"
       d="m145.61865 591.52234l138.07874 0l0 31.118103l-138.07874 0z"
       fill-rule="evenodd"
       id="path389" />
    <path
       fill="#000000"
       d="m172.33078 606.9736l0 -1.890625l1.640625 0l0 1.890625l-1.640625 0zm0 11.46875l0 -9.671875l1.640625 0l0 9.671875l-1.640625 0zm10.410446 0l0 -1.21875q-0.90625 1.4375 -2.703125 1.4375q-1.15625 0 -2.125 -0.640625q-0.96875 -0.640625 -1.5 -1.78125q-0.53125 -1.140625 -0.53125 -2.625q0 -1.453125 0.484375 -2.625q0.484375 -1.1875 1.4375 -1.8125q0.96875 -0.625 2.171875 -0.625q0.875 0 1.546875 0.375q0.6875 0.359375 1.109375 0.953125l0 -4.796875l1.640625 0l0 13.359375l-1.53125 0zm-5.171875 -4.828125q0 1.859375 0.78125 2.78125q0.78125 0.921875 1.84375 0.921875q1.078125 0 1.828125 -0.875q0.75 -0.890625 0.75 -2.6875q0 -1.984375 -0.765625 -2.90625q-0.765625 -0.9375 -1.890625 -0.9375q-1.078125 0 -1.8125 0.890625q-0.734375 0.890625 -0.734375 2.8125zm7.766342 8.53125l0 -1.1875l10.859375 0l0 1.1875l-10.859375 0zm11.875717 -3.703125l0 -9.671875l1.46875 0l0 1.46875q0.5625 -1.03125 1.03125 -1.359375q0.484375 -0.328125 1.0625 -0.328125q0.828125 0 1.6875 0.53125l-0.5625 1.515625q-0.609375 -0.359375 -1.203125 -0.359375q-0.546875 0 -0.96875 0.328125q-0.421875 0.328125 -0.609375 0.890625q-0.28125 0.875 -0.28125 1.921875l0 5.0625l-1.625 0zm5.572052 -2.890625l1.625 -0.25q0.125 0.96875 0.75 1.5q0.625 0.515625 1.75 0.515625q1.125 0 1.671875 -0.453125q0.546875 -0.46875 0.546875 -1.09375q0 -0.546875 -0.484375 -0.875q-0.328125 -0.21875 -1.671875 -0.546875q-1.8125 -0.46875 -2.515625 -0.796875q-0.6875 -0.328125 -1.046875 -0.90625q-0.359375 -0.59375 -0.359375 -1.3125q0 -0.640625 0.296875 -1.1875q0.296875 -0.5625 0.8125 -0.921875q0.375 -0.28125 1.03125 -0.46875q0.671875 -0.203125 1.421875 -0.203125q1.140625 0 2.0 0.328125q0.859375 0.328125 1.265625 0.890625q0.421875 0.5625 0.578125 1.5l-1.609375 0.21875q-0.109375 -0.75 -0.640625 -1.171875q-0.515625 -0.421875 -1.46875 -0.421875q-1.140625 0 -1.625 0.375q-0.46875 0.375 -0.46875 0.875q0 0.3125 0.1875 0.578125q0.203125 0.265625 0.640625 0.4375q0.234375 0.09375 1.4375 0.421875q1.75 0.453125 2.4375 0.75q0.6875 0.296875 1.078125 0.859375q0.390625 0.5625 0.390625 1.40625q0 0.828125 -0.484375 1.546875q-0.46875 0.71875 -1.375 1.125q-0.90625 0.390625 -2.046875 0.390625q-1.875 0 -2.875 -0.78125q-0.984375 -0.78125 -1.25 -2.328125zm16.296875 1.703125q-0.921875 0.765625 -1.765625 1.09375q-0.828125 0.3125 -1.796875 0.3125q-1.59375 0 -2.453125 -0.78125q-0.859375 -0.78125 -0.859375 -1.984375q0 -0.71875 0.328125 -1.296875q0.328125 -0.59375 0.84375 -0.9375q0.53125 -0.359375 1.1875 -0.546875q0.46875 -0.125 1.453125 -0.25q1.984375 -0.234375 2.921875 -0.5625q0.015625 -0.34375 0.015625 -0.421875q0 -1.0 -0.46875 -1.421875q-0.625 -0.546875 -1.875 -0.546875q-1.15625 0 -1.703125 0.40625q-0.546875 0.40625 -0.8125 1.421875l-1.609375 -0.21875q0.21875 -1.015625 0.71875 -1.640625q0.5 -0.640625 1.453125 -0.984375q0.953125 -0.34375 2.1875 -0.34375q1.25 0 2.015625 0.296875q0.78125 0.28125 1.140625 0.734375q0.375 0.4375 0.515625 1.109375q0.078125 0.421875 0.078125 1.515625l0 2.1875q0 2.28125 0.109375 2.890625q0.109375 0.59375 0.40625 1.15625l-1.703125 0q-0.265625 -0.515625 -0.328125 -1.1875zm-0.140625 -3.671875q-0.890625 0.375 -2.671875 0.625q-1.015625 0.140625 -1.4375 0.328125q-0.421875 0.1875 -0.65625 0.53125q-0.21875 0.34375 -0.21875 0.78125q0 0.65625 0.5 1.09375q0.5 0.4375 1.453125 0.4375q0.9375 0 1.671875 -0.40625q0.75 -0.421875 1.09375 -1.140625q0.265625 -0.5625 0.265625 -1.640625l0 -0.609375zm4.656967 4.859375l0 -1.875l1.875 0l0 1.875l-1.875 0zm4.730179 3.703125l0 -13.375l1.484375 0l0 1.25q0.53125 -0.734375 1.1875 -1.09375q0.671875 -0.375 1.625 -0.375q1.234375 0 2.171875 0.640625q0.953125 0.625 1.4375 1.796875q0.484375 1.15625 0.484375 2.546875q0 1.484375 -0.53125 2.671875q-0.53125 1.1875 -1.546875 1.828125q-1.015625 0.625 -2.140625 0.625q-0.8125 0 -1.46875 -0.34375q-0.65625 -0.34375 -1.0625 -0.875l0 4.703125l-1.640625 0zm1.484375 -8.484375q0 1.859375 0.75 2.765625q0.765625 0.890625 1.828125 0.890625q1.09375 0 1.875 -0.921875q0.78125 -0.9375 0.78125 -2.875q0 -1.84375 -0.765625 -2.765625q-0.75 -0.921875 -1.8125 -0.921875q-1.046875 0 -1.859375 0.984375q-0.796875 0.96875 -0.796875 2.84375zm15.219467 4.78125l0 -1.421875q-1.125 1.640625 -3.0625 1.640625q-0.859375 0 -1.609375 -0.328125q-0.734375 -0.328125 -1.09375 -0.828125q-0.359375 -0.5 -0.5 -1.21875q-0.109375 -0.46875 -0.109375 -1.53125l0 -5.984375l1.640625 0l0 5.359375q0 1.28125 0.109375 1.734375q0.15625 0.640625 0.65625 1.015625q0.5 0.375 1.234375 0.375q0.734375 0 1.375 -0.375q0.65625 -0.390625 0.921875 -1.03125q0.265625 -0.65625 0.265625 -1.890625l0 -5.1875l1.640625 0l0 9.671875l-1.46875 0zm5.547592 0l-1.515625 0l0 -13.359375l1.640625 0l0 4.765625q1.046875 -1.296875 2.65625 -1.296875q0.890625 0 1.6875 0.359375q0.796875 0.359375 1.3125153 1.015625q0.515625 0.640625 0.796875 1.5625q0.296875 0.921875 0.296875 1.96875q0 2.484375 -1.234375 3.84375q-1.2187653 1.359375 -2.9531403 1.359375q-1.703125 0 -2.6875 -1.4375l0 1.21875zm-0.015625 -4.90625q0 1.734375 0.484375 2.515625q0.765625 1.265625 2.09375 1.265625q1.078125 0 1.859375 -0.9375q0.78125 -0.9375 0.78125 -2.78125q0 -1.890625 -0.75 -2.796875q-0.75 -0.90625 -1.828125 -0.90625q-1.0625 0 -1.859375 0.9375q-0.78125 0.9375 -0.78125 2.703125z"
       fill-rule="nonzero"
       id="path391" />
    <path
       fill="#000000"
       fill-opacity="0.0"
       d="m58.98003 594.38306l102.04724 0l0 31.118103l-102.04724 0z"
       fill-rule="evenodd"
       id="path393" />
    <path
       fill="#000000"
       d="m85.83164 609.8343l0 -1.890625l1.640625 0l0 1.890625l-1.640625 0zm0 11.46875l0 -9.671875l1.640625 0l0 9.671875l-1.640625 0zm10.410446 0l0 -1.21875q-0.90625 1.4375 -2.703125 1.4375q-1.15625 0 -2.125 -0.640625q-0.96875 -0.640625 -1.5 -1.78125q-0.53125 -1.140625 -0.53125 -2.625q0 -1.453125 0.484375 -2.625q0.484375 -1.1875 1.4375 -1.8125q0.96875 -0.625 2.171875 -0.625q0.875 0 1.546875 0.375q0.6875 0.359375 1.109375 0.953125l0 -4.796875l1.640625 0l0 13.359375l-1.53125 0zm-5.171875 -4.828125q0 1.859375 0.78125 2.78125q0.78125 0.921875 1.84375 0.921875q1.078125 0 1.828125 -0.875q0.75 -0.890625 0.75 -2.6875q0 -1.984375 -0.765625 -2.90625q-0.765625 -0.9375 -1.890625 -0.9375q-1.078125 0 -1.8125 0.890625q-0.734375 0.890625 -0.734375 2.8125zm7.766342 8.53125l0 -1.1875l10.859375 0l0 1.1875l-10.859375 0zm11.875717 -3.703125l0 -9.671875l1.46875 0l0 1.46875q0.5625 -1.03125 1.03125 -1.359375q0.484375 -0.328125 1.0625 -0.328125q0.828125 0 1.6875 0.53125l-0.5625 1.515625q-0.609375 -0.359375 -1.203125 -0.359375q-0.546875 0 -0.96875 0.328125q-0.421875 0.328125 -0.609375 0.890625q-0.28125 0.875 -0.28125 1.921875l0 5.0625l-1.625 0zm5.572052 -2.890625l1.625 -0.25q0.125 0.96875 0.75 1.5q0.625 0.515625 1.75 0.515625q1.125 0 1.671875 -0.453125q0.546875 -0.46875 0.546875 -1.09375q0 -0.546875 -0.484375 -0.875q-0.328125 -0.21875 -1.671875 -0.546875q-1.8125 -0.46875 -2.515625 -0.796875q-0.6875 -0.328125 -1.046875 -0.90625q-0.359375 -0.59375 -0.359375 -1.3125q0 -0.640625 0.296875 -1.1875q0.296875 -0.5625 0.8125 -0.921875q0.375 -0.28125 1.03125 -0.46875q0.671875 -0.203125 1.421875 -0.203125q1.140625 0 2.0 0.328125q0.859375 0.328125 1.265625 0.890625q0.421875 0.5625 0.578125 1.5l-1.609375 0.21875q-0.109375 -0.75 -0.640625 -1.171875q-0.515625 -0.421875 -1.46875 -0.421875q-1.140625 0 -1.625 0.375q-0.46875 0.375 -0.46875 0.875q0 0.3125 0.1875 0.578125q0.203125 0.265625 0.640625 0.4375q0.234375 0.09375 1.4375 0.421875q1.75 0.453125 2.4375 0.75q0.6875 0.296875 1.078125 0.859375q0.390625 0.5625 0.390625 1.40625q0 0.828125 -0.484375 1.546875q-0.46875 0.71875 -1.375 1.125q-0.90625 0.390625 -2.046875 0.390625q-1.875 0 -2.875 -0.78125q-0.984375 -0.78125 -1.25 -2.328125zm16.296867 1.703125q-0.921875 0.765625 -1.765625 1.09375q-0.828125 0.3125 -1.796875 0.3125q-1.5937424 0 -2.4531174 -0.78125q-0.859375 -0.78125 -0.859375 -1.984375q0 -0.71875 0.328125 -1.296875q0.328125 -0.59375 0.84375 -0.9375q0.53125 -0.359375 1.1874924 -0.546875q0.46875 -0.125 1.453125 -0.25q1.984375 -0.234375 2.921875 -0.5625q0.015625 -0.34375 0.015625 -0.421875q0 -1.0 -0.46875 -1.421875q-0.625 -0.546875 -1.875 -0.546875q-1.15625 0 -1.703125 0.40625q-0.5468674 0.40625 -0.8124924 1.421875l-1.609375 -0.21875q0.21875 -1.015625 0.71875 -1.640625q0.5 -0.640625 1.4531174 -0.984375q0.953125 -0.34375 2.1875 -0.34375q1.25 0 2.015625 0.296875q0.78125 0.28125 1.140625 0.734375q0.375 0.4375 0.515625 1.109375q0.078125 0.421875 0.078125 1.515625l0 2.1875q0 2.28125 0.109375 2.890625q0.109375 0.59375 0.40625 1.15625l-1.703125 0q-0.265625 -0.515625 -0.328125 -1.1875zm-0.140625 -3.671875q-0.890625 0.375 -2.671875 0.625q-1.015625 0.140625 -1.4375 0.328125q-0.42186737 0.1875 -0.6562424 0.53125q-0.21875 0.34375 -0.21875 0.78125q0 0.65625 0.5 1.09375q0.49999237 0.4375 1.4531174 0.4375q0.9375 0 1.671875 -0.40625q0.75 -0.421875 1.09375 -1.140625q0.265625 -0.5625 0.265625 -1.640625l0 -0.609375z"
       fill-rule="nonzero"
       id="path395" />
    <path
       fill="#000000"
       fill-opacity="0.0"
       d="m208.53316 425.979l70.866135 0l0 27.653534l-70.866135 0z"
       fill-rule="evenodd"
       id="path397" />
    <path
       fill="#000000"
       d="m228.54608 452.899l0 -1.875l1.875 0l0 1.875l-1.875 0zm4.073929 -2.890625l1.625 -0.25q0.125 0.96875 0.75 1.5q0.625 0.515625 1.75 0.515625q1.125 0 1.671875 -0.453125q0.546875 -0.46875 0.546875 -1.09375q0 -0.546875 -0.484375 -0.875q-0.328125 -0.21875 -1.671875 -0.546875q-1.8125 -0.46875 -2.515625 -0.796875q-0.6875 -0.328125 -1.046875 -0.90625q-0.359375 -0.59375 -0.359375 -1.3125q0 -0.640625 0.296875 -1.1875q0.296875 -0.5625 0.8125 -0.921875q0.375 -0.28125 1.03125 -0.46875q0.671875 -0.203125 1.421875 -0.203125q1.140625 0 2.0 0.328125q0.859375 0.328125 1.265625 0.890625q0.421875 0.5625 0.578125 1.5l-1.609375 0.21875q-0.109375 -0.75 -0.640625 -1.171875q-0.515625 -0.421875 -1.46875 -0.421875q-1.140625 0 -1.625 0.375q-0.46875 0.375 -0.46875 0.875q0 0.3125 0.1875 0.578125q0.203125 0.265625 0.640625 0.4375q0.234375 0.09375 1.4375 0.421875q1.75 0.453125 2.4375 0.75q0.6875 0.296875 1.078125 0.859375q0.390625 0.5625 0.390625 1.40625q0 0.828125 -0.484375 1.546875q-0.46875 0.71875 -1.375 1.125q-0.90625 0.390625 -2.046875 0.390625q-1.875 0 -2.875 -0.78125q-0.984375 -0.78125 -1.25 -2.328125zm9.328125 0l1.625 -0.25q0.125 0.96875 0.75 1.5q0.625 0.515625 1.75 0.515625q1.125 0 1.671875 -0.453125q0.546875 -0.46875 0.546875 -1.09375q0 -0.546875 -0.484375 -0.875q-0.328125 -0.21875 -1.671875 -0.546875q-1.8125 -0.46875 -2.515625 -0.796875q-0.6875 -0.328125 -1.046875 -0.90625q-0.359375 -0.59375 -0.359375 -1.3125q0 -0.640625 0.296875 -1.1875q0.296875 -0.5625 0.8125 -0.921875q0.375 -0.28125 1.03125 -0.46875q0.671875 -0.203125 1.421875 -0.203125q1.140625 0 2.0 0.328125q0.859375 0.328125 1.265625 0.890625q0.421875 0.5625 0.578125 1.5l-1.609375 0.21875q-0.109375 -0.75 -0.640625 -1.171875q-0.515625 -0.421875 -1.46875 -0.421875q-1.140625 0 -1.625 0.375q-0.46875 0.375 -0.46875 0.875q0 0.3125 0.1875 0.578125q0.203125 0.265625 0.640625 0.4375q0.234375 0.09375 1.4375 0.421875q1.75 0.453125 2.4375 0.75q0.6875 0.296875 1.078125 0.859375q0.390625 0.5625 0.390625 1.40625q0 0.828125 -0.484375 1.546875q-0.46875 0.71875 -1.375 1.125q-0.90625 0.390625 -2.046875 0.390625q-1.875 0 -2.875 -0.78125q-0.984375 -0.78125 -1.25 -2.328125zm9.984375 2.890625l0 -13.359375l1.640625 0l0 4.796875q1.140625 -1.328125 2.8906403 -1.328125q1.078125 0 1.859375 0.421875q0.796875 0.421875 1.140625 1.171875q0.34375 0.75 0.34375 2.171875l0 6.125l-1.640625 0l0 -6.125q0 -1.234375 -0.53125 -1.796875q-0.53125 -0.5625 -1.515625 -0.5625q-0.71876526 0 -1.3593903 0.390625q-0.640625 0.375 -0.921875 1.015625q-0.265625 0.640625 -0.265625 1.78125l0 5.296875l-1.640625 0z"
       fill-rule="nonzero"
       id="path399" />
    <path
       fill="#000000"
       fill-opacity="0.0"
       d="m434.52072 399.76117l87.3071 0l0 53.700775l-87.3071 0z"
       fill-rule="evenodd"
       id="path401" />
    <path
       fill="#000000"
       d="m469.1977 443.69156l0 -4.8125l4.8125 0l0 4.8125l-4.8125 0zm13.3359375 0l0 -4.8125l4.8125 0l0 4.8125l-4.8125 0z"
       fill-rule="nonzero"
       id="path403" />
    <path
       fill="#000000"
       fill-opacity="0.0"
       d="m303.7963 421.88977l87.3071 0l0 53.700775l-87.3071 0z"
       fill-rule="evenodd"
       id="path405" />
    <path
       fill="#000000"
       d="m345.14127 465.82016l0 -4.8125l4.8125 0l0 4.8125l-4.8125 0z"
       fill-rule="nonzero"
       id="path407" />
    <path
       fill="#000000"
       fill-opacity="0.0"
       d="m428.63995 488.41693c0 -17.389587 -18.99466 -34.010193 -39.609467 -34.779205c-20.614807 -0.76901245 -42.849762 14.313568 -39.609436 29.011658c3.2402954 14.698059 31.955902 29.011658 63.911835 29.011658"
       fill-rule="evenodd"
       id="path409" />
    <path
       stroke="#0000ff"
       stroke-width="2.0"
       stroke-linejoin="round"
       stroke-linecap="butt"
       d="m428.63995 488.4169c0 -17.389587 -18.99466 -34.010162 -39.609436 -34.779175c-20.614838 -0.76901245 -42.849792 14.313568 -39.609467 29.011627c1.6201782 7.34906 9.609131 14.601959 21.187592 20.017609c5.789215 2.7078247 12.475769 4.95636 19.71231 6.527893c1.809082 0.39291382 3.652588 0.74346924 5.525055 1.0483398c0.93621826 0.1524353 1.8796692 0.2934265 2.8296814 0.42260742c0.47503662 0.06454468 0.95166016 0.12619019 1.4298706 0.18475342c0.23910522 0.029327393 0.47860718 0.057861328 0.71847534 0.085632324l0.52731323 0.05935669"
       fill-rule="evenodd"
       id="path411" />
    <path
       stroke="#0000ff"
       stroke-width="2.0"
       stroke-linecap="butt"
       d="m401.16815 514.2939l9.245422 -2.7950134l-8.879028 -3.8017273z"
       fill-rule="evenodd"
       id="path413" />
    <path
       fill="#000000"
       fill-opacity="0.0"
       d="m465.5942 478.79004c0 -59.803406 -23.338593 -102.04379 -46.677155 -119.60681c-23.338593 -17.562988 -46.677185 -10.448578 -46.677185 -20.897125"
       fill-rule="evenodd"
       id="path415" />
    <path
       stroke="#0000ff"
       stroke-width="2.0"
       stroke-linejoin="round"
       stroke-linecap="butt"
       d="m465.5942 478.79004c0 -59.803406 -23.338593 -102.04382 -46.677185 -119.60681c-11.669281 -8.781494 -23.338562 -11.393616 -32.090546 -13.116455c-1.0939941 -0.21536255 -2.1424255 -0.4168396 -3.139557 -0.6147156c-0.49856567 -0.09890747 -0.98428345 -0.19696045 -1.4564819 -0.29541016l-0.13253784 -0.02810669"
       fill-rule="evenodd"
       id="path417" />
    <path
       stroke="#0000ff"
       stroke-width="2.0"
       stroke-linecap="butt"
       d="m383.98157 342.41473l-9.339783 -2.4614868l5.5724792 7.889099z"
       fill-rule="evenodd"
       id="path419" />
    <g
       filter="url(#shadowFilter-p.13)"
       id="g423">
      <use
         xlink:href="#p.13"
         transform="matrix(1.0 0.0 0.0 1.0 6.560590448654856 7.547095431430446)"
         id="use421" />
    </g>
    <defs
       id="defs438">
      <filter
         id="shadowFilter-p.13"
         filterUnits="userSpaceOnUse">
        <feGaussianBlur
           in="SourceAlpha"
           stdDeviation="1.5"
           result="blur"
           id="feGaussianBlur425" />
        <feComponentTransfer
           in="blur"
           color-interpolation-filters="sRGB"
           id="feComponentTransfer435">
          <feFuncR
             type="linear"
             slope="0"
             intercept="0.0"
             id="feFuncR427" />
          <feFuncG
             type="linear"
             slope="0"
             intercept="0.0"
             id="feFuncG429" />
          <feFuncB
             type="linear"
             slope="0"
             intercept="0.0"
             id="feFuncB431" />
          <feFuncA
             type="linear"
             slope="0.29"
             intercept="0"
             id="feFuncA433" />
        </feComponentTransfer>
      </filter>
    </defs>
    <g
       id="p.13">
      <path
         fill="#c9daf8"
         d="m422.47556 511.4564l0 0c0 -15.150879 19.544373 -27.433075 43.653564 -27.433075l0 0c24.109192 0 43.653534 12.282196 43.653534 27.433075l0 0c0 15.150848 -19.544342 27.433075 -43.653534 27.433075l0 0c-24.109192 0 -43.653564 -12.282227 -43.653564 -27.433075z"
         fill-rule="evenodd"
         id="path440" />
      <path
         stroke="#0000ff"
         stroke-width="2.0"
         stroke-linejoin="round"
         stroke-linecap="butt"
         d="m422.47556 511.4564l0 0c0 -15.150879 19.544373 -27.433075 43.653564 -27.433075l0 0c24.109192 0 43.653534 12.282196 43.653534 27.433075l0 0c0 15.150848 -19.544342 27.433075 -43.653534 27.433075l0 0c-24.109192 0 -43.653564 -12.282227 -43.653564 -27.433075z"
         fill-rule="evenodd"
         id="path442" />
    </g>
    <path
       fill="#000000"
       fill-opacity="0.0"
       d="m497.80286 360.84515l97.22833 0l0 31.118103l-97.22833 0z"
       fill-rule="evenodd"
       id="path445" />
    <path
       fill="#000000"
       d="m531.7753 388.562l1.59375 0.234375q0.109375 0.75 0.5625 1.078125q0.609375 0.453125 1.671875 0.453125q1.140625 0 1.75 -0.453125q0.625 -0.453125 0.84375 -1.265625q0.125 -0.5 0.109375 -2.109375q-1.0625 1.265625 -2.671875 1.265625q-2.0 0 -3.09375 -1.4375q-1.09375 -1.4375 -1.09375 -3.453125q0 -1.390625 0.5 -2.5625q0.515625 -1.171875 1.453125 -1.796875q0.953125 -0.640625 2.25 -0.640625q1.703125 0 2.8125 1.375l0 -1.15625l1.515625 0l0 8.359375q0 2.265625 -0.46875 3.203125q-0.453125 0.9375 -1.453125 1.484375q-0.984375 0.546875 -2.453125 0.546875q-1.71875 0 -2.796875 -0.78125q-1.0625 -0.765625 -1.03125 -2.34375zm1.359375 -5.8125q0 1.90625 0.75 2.78125q0.765625 0.875 1.90625 0.875q1.125 0 1.890625 -0.859375q0.765625 -0.875 0.765625 -2.734375q0 -1.78125 -0.796875 -2.671875q-0.78125 -0.90625 -1.890625 -0.90625q-1.09375 0 -1.859375 0.890625q-0.765625 0.875 -0.765625 2.625zm15.953857 1.90625l1.6875 0.203125q-0.40625 1.484375 -1.484375 2.3125q-1.078125 0.8125 -2.765625 0.8125q-2.125 0 -3.375 -1.296875q-1.234375 -1.3125 -1.234375 -3.671875q0 -2.453125 1.25 -3.796875q1.265625 -1.34375 3.265625 -1.34375q1.9375 0 3.15625 1.328125q1.234375 1.3125 1.234375 3.703125q0 0.15625 0 0.4375l-7.21875 0q0.09375 1.59375 0.90625 2.453125q0.8125 0.84375 2.015625 0.84375q0.90625 0 1.546875 -0.46875q0.640625 -0.484375 1.015625 -1.515625zm-5.390625 -2.65625l5.40625 0q-0.109375 -1.21875 -0.625 -1.828125q-0.78125 -0.953125 -2.03125 -0.953125q-1.125 0 -1.90625 0.765625q-0.765625 0.75 -0.84375 2.015625zm15.766357 2.65625l1.6875 0.203125q-0.40625 1.484375 -1.484375 2.3125q-1.078125 0.8125 -2.765625 0.8125q-2.125 0 -3.375 -1.296875q-1.234375 -1.3125 -1.234375 -3.671875q0 -2.453125 1.25 -3.796875q1.265625 -1.34375 3.265625 -1.34375q1.9375 0 3.15625 1.328125q1.234375 1.3125 1.234375 3.703125q0 0.15625 0 0.4375l-7.21875 0q0.09375 1.59375 0.90625 2.453125q0.8125 0.84375 2.015625 0.84375q0.90625 0 1.546875 -0.46875q0.640625 -0.484375 1.015625 -1.515625zm-5.390625 -2.65625l5.40625 0q-0.109375 -1.21875 -0.625 -1.828125q-0.78125 -0.953125 -2.03125 -0.953125q-1.125 0 -1.90625 0.765625q-0.765625 0.75 -0.84375 2.015625z"
       fill-rule="nonzero"
       id="path447" />
  </g>
</svg>
