<?xml version="1.0" encoding="UTF-8" standalone="no"?>
<svg
   xmlns:dc="http://purl.org/dc/elements/1.1/"
   xmlns:cc="http://creativecommons.org/ns#"
   xmlns:rdf="http://www.w3.org/1999/02/22-rdf-syntax-ns#"
   xmlns:svg="http://www.w3.org/2000/svg"
   xmlns="http://www.w3.org/2000/svg"
   xmlns:xlink="http://www.w3.org/1999/xlink"
   xmlns:sodipodi="http://sodipodi.sourceforge.net/DTD/sodipodi-0.dtd"
   xmlns:inkscape="http://www.inkscape.org/namespaces/inkscape"
   version="1.1"
   viewBox="0.0 0.0 960.0 720.0"
   fill="none"
   stroke="none"
   stroke-linecap="square"
   stroke-miterlimit="10"
   id="svg449"
   sodipodi:docname="fs-tree-2.svg"
   inkscape:export-filename="/Users/phm/Downloads/fs-tree-2.png"
   inkscape:export-xdpi="95"
   inkscape:export-ydpi="95"
   inkscape:version="0.92.2 5c3e80d, 2017-08-06">
  <metadata
     id="metadata455">
    <rdf:RDF>
      <cc:Work
         rdf:about="">
        <dc:format>image/svg+xml</dc:format>
        <dc:type
           rdf:resource="http://purl.org/dc/dcmitype/StillImage" />
      </cc:Work>
    </rdf:RDF>
  </metadata>
  <defs
     id="defs453" />
  <sodipodi:namedview
     pagecolor="#ffffff"
     bordercolor="#666666"
     borderopacity="1"
     objecttolerance="10"
     gridtolerance="10"
     guidetolerance="10"
     inkscape:pageopacity="0"
     inkscape:pageshadow="2"
     inkscape:window-width="1108"
     inkscape:window-height="691"
     id="namedview451"
     showgrid="false"
     inkscape:zoom="0.32777778"
     inkscape:cx="480"
     inkscape:cy="360"
     inkscape:window-x="0"
     inkscape:window-y="0"
     inkscape:window-maximized="0"
     inkscape:current-layer="svg449" />
  <clipPath
     id="p.0">
    <path
       d="m0 0l960.0 0l0 720.0l-960.0 0l0 -720.0z"
       clip-rule="nonzero"
       id="path2" />
  </clipPath>
  <g
     clip-path="url(#p.0)"
     id="g447">
    <path
       fill="#000000"
       fill-opacity="0.0"
       d="m0 0l960.0 0l0 720.0l-960.0 0z"
       fill-rule="evenodd"
       id="path5" />
    <g
       filter="url(#shadowFilter-p.1)"
       id="g9">
      <use
         xlink:href="#p.1"
         transform="matrix(1.0 0.0 0.0 1.0 0.0 6.0)"
         id="use7" />
    </g>
    <defs
       id="defs24">
      <filter
         id="shadowFilter-p.1"
         filterUnits="userSpaceOnUse">
        <feGaussianBlur
           in="SourceAlpha"
           stdDeviation="2.0"
           result="blur"
           id="feGaussianBlur11" />
        <feComponentTransfer
           in="blur"
           color-interpolation-filters="sRGB"
           id="feComponentTransfer21">
          <feFuncR
             type="linear"
             slope="0"
             intercept="0.0"
             id="feFuncR13" />
          <feFuncG
             type="linear"
             slope="0"
             intercept="0.0"
             id="feFuncG15" />
          <feFuncB
             type="linear"
             slope="0"
             intercept="0.0"
             id="feFuncB17" />
          <feFuncA
             type="linear"
             slope="0.5"
             intercept="0"
             id="feFuncA19" />
        </feComponentTransfer>
      </filter>
    </defs>
    <g
       id="p.1">
      <path
         fill="#efefef"
         d="m101.71463 547.31964l108.72441 -7.559021l3.7795105 54.645447l-10.173157 11.689209l-97.795334 6.7991943z"
         fill-rule="evenodd"
         id="path26" />
      <path
         fill="#bfbfbf"
         d="m204.0454 606.0953l1.58107 -8.895447l8.592087 -2.7937622z"
         fill-rule="evenodd"
         id="path28" />
      <path
         fill="#000000"
         fill-opacity="0.0"
         d="m204.0454 606.0953l1.58107 -8.895447l8.592087 -2.7937622l-10.173157 11.689209l-97.795334 6.7991943l-4.535431 -65.57483l108.72441 -7.559021l3.7795105 54.645447"
         fill-rule="evenodd"
         id="path30" />
      <path
         stroke="#0000ff"
         stroke-width="2.0"
         stroke-linejoin="round"
         stroke-linecap="butt"
         d="m204.0454 606.0953l1.58107 -8.895447l8.592087 -2.7937622l-10.173157 11.689209l-97.795334 6.7991943l-4.535431 -65.57483l108.72441 -7.559021l3.7795105 54.645447"
         fill-rule="evenodd"
         id="path32" />
      <path
         fill="#000000"
         d="m133.53893 568.00146l-0.13044739 -1.8861084l1.636673 -0.11383057l0.13044739 1.8861694l-1.636673 0.11376953zm0.79133606 11.441406l-0.6673584 -9.648804l1.636673 -0.11383057l0.6673584 9.648865l-1.636673 0.11376953zm10.385376 -0.7220459l-0.08409119 -1.2158203q-0.80488586 1.4968872 -2.5974274 1.621521q-1.1534729 0.080200195 -2.164093 -0.49169922q-1.0106201 -0.5718994 -1.6192932 -1.6729736q-0.6086731 -1.1010742 -0.7110901 -2.5819092q-0.1002655 -1.449646 0.30207825 -2.6523438q0.40127563 -1.2182617 1.3089905 -1.9078369q0.9232788 -0.69073486 2.12352 -0.7741699q0.872879 -0.060668945 1.5690155 0.2668457q0.7106476 0.31079102 1.1724701 0.87390137l-0.3309784 -4.7854614l1.636673 -0.11376953l0.92178345 13.327515l-1.5275574 0.10620117zm-5.4925537 -4.4578857q0.1282959 1.8549194 0.9712677 2.720398q0.8429718 0.86553955 1.9029236 0.7918091q1.075531 -0.07476807 1.7633514 -0.9996948q0.68673706 -0.9404907 0.56274414 -2.7330933q-0.13691711 -1.9796753 -0.9643097 -2.8462524q-0.8284607 -0.8821411 -1.9507599 -0.8041382q-1.0755157 0.07476807 -1.7466736 1.0142212q-0.67115784 0.9394531 -0.5385437 2.8567505zm8.336288 7.972229l-0.0819397 -1.1846313l10.833221 -0.7531738l0.0819397 1.1846313l-10.833221 0.7531738zm11.5915985 -4.5179443l-0.66734314 -9.648804l1.46521 -0.101867676l0.10133362 1.46521q0.48999023 -1.06781 0.9349823 -1.4276733q0.46055603 -0.36090088 1.0372925 -0.40100098q0.82614136 -0.057434082 1.7200928 0.41296387l-0.45655823 1.5510254q-0.6327057 -0.31628418 -1.2250366 -0.27508545q-0.5455475 0.037902832 -0.94377136 0.39453125q-0.39822388 0.35656738 -0.546463 0.93078613q-0.22018433 0.892395 -0.14796448 1.9367676l0.34931946 5.050415l-1.6210938 0.11273193zm5.359192 -3.2702026l1.603836 -0.36212158q0.19154358 0.9577637 0.8516846 1.444397q0.6590729 0.47106934 1.7813721 0.3930664q1.1222839 -0.078063965 1.6365814 -0.5680542q0.5132141 -0.5055542 0.47009277 -1.1290283q-0.037734985 -0.54559326 -0.54359436 -0.83935547q-0.3424225 -0.19543457 -1.7055817 -0.42956543q-1.8404694 -0.34197998 -2.5645447 -0.62054443q-0.70848083 -0.2796631 -1.1068878 -0.83148193q-0.3994751 -0.5673828 -0.44906616 -1.2844238q-0.044204712 -0.6390991 0.21421814 -1.2052612q0.25735474 -0.5817261 0.746933 -0.9760132q0.35469055 -0.30664062 0.99642944 -0.5391846q0.65623474 -0.24920654 1.4044342 -0.30126953q1.1378784 -0.07910156 2.0178223 0.18865967q0.87994385 0.2677002 1.3240356 0.8007202q0.45967102 0.53186035 0.68022156 1.4562988l-1.5904083 0.32989502q-0.16085815 -0.7406616 -0.7199402 -1.1246948q-0.54348755 -0.3850708 -1.4943085 -0.31896973q-1.1378784 0.07910156 -1.5952148 0.4868164q-0.4417572 0.4066162 -0.40725708 0.9053955q0.021575928 0.31176758 0.22694397 0.56378174q0.22096252 0.2508545 0.66926575 0.39196777q0.24028015 0.07727051 1.46315 0.321167q1.7770538 0.33068848 2.4833832 0.5791626q0.70632935 0.24853516 1.1348267 0.7825928q0.4284973 0.5340576 0.4867096 1.3757935q0.057144165 0.8261719 -0.3764801 1.5767822q-0.41801453 0.7495117 -1.2940521 1.2176514q-0.877121 0.45257568 -2.0149994 0.53167725q-1.8704834 0.13006592 -2.9219818 -0.57995605q-1.0359039 -0.7111206 -1.4076233 -2.2359009zm16.375137 0.5687866q-0.8668213 0.82769775 -1.6858978 1.213562q-0.8045807 0.36920166 -1.7709961 0.43640137q-1.5899048 0.11053467 -2.501114 -0.6092529q-0.9112091 -0.7197876 -0.9942322 -1.920044q-0.049591064 -0.717041 0.237854 -1.3165283q0.2863617 -0.6151123 0.7770233 -0.9937744q0.505188 -0.39538574 1.1469116 -0.6279297q0.45899963 -0.15722656 1.432373 -0.35021973q1.9634247 -0.37145996 2.8760376 -0.76379395q-0.008132935 -0.34405518 -0.013534546 -0.42199707q-0.069000244 -0.9976196 -0.5657196 -1.3859253q-0.6612396 -0.5022583 -1.9082184 -0.41552734q-1.1534729 0.080200195 -1.67099 0.52337646q-0.51753235 0.4432373 -0.7124481 1.4748535l-1.6205902 -0.10662842q0.14814758 -1.0283813 0.6038208 -1.6865234q0.45458984 -0.6738281 1.3816986 -1.0828247q0.927124 -0.40905762 2.1585236 -0.49468994q1.2469788 -0.08666992 2.03125 0.15637207q0.79878235 0.22644043 1.1885529 0.65356445q0.40428162 0.4104004 0.5909271 1.0709229q0.107040405 0.4154663 0.18251038 1.5065918l0.15093994 2.182312q0.15740967 2.2758179 0.30856323 2.8761597q0.15008545 0.5847168 0.4850464 1.1253052l-1.6990204 0.11810303q-0.30056763 -0.49597168 -0.40927124 -1.1618652zm-0.39364624 -3.6533813q-0.8625946 0.43585205 -2.6223145 0.80877686q-1.003479 0.2107544 -1.4113922 0.427063q-0.40792847 0.2163086 -0.6180115 0.5755005q-0.19450378 0.35809326 -0.1643219 0.79455566q0.045288086 0.6547241 0.5742645 1.0564575q0.52897644 0.40179443 1.4798126 0.33569336q0.9352417 -0.06500244 1.6398163 -0.52124023q0.7190857 -0.4729004 1.0124207 -1.2137451q0.22616577 -0.57958984 0.15177917 -1.6551514l-0.042053223 -0.60791016z"
         fill-rule="nonzero"
         id="path34" />
    </g>
    <g
       filter="url(#shadowFilter-p.2)"
       id="g39">
      <use
         xlink:href="#p.2"
         transform="matrix(1.0 0.0 0.0 1.0 -0.20939684289646898 5.996344939304461)"
         id="use37" />
    </g>
    <defs
       id="defs54">
      <filter
         id="shadowFilter-p.2"
         filterUnits="userSpaceOnUse">
        <feGaussianBlur
           in="SourceAlpha"
           stdDeviation="2.0"
           result="blur"
           id="feGaussianBlur41" />
        <feComponentTransfer
           in="blur"
           color-interpolation-filters="sRGB"
           id="feComponentTransfer51">
          <feFuncR
             type="linear"
             slope="0"
             intercept="0.0"
             id="feFuncR43" />
          <feFuncG
             type="linear"
             slope="0"
             intercept="0.0"
             id="feFuncG45" />
          <feFuncB
             type="linear"
             slope="0"
             intercept="0.0"
             id="feFuncB47" />
          <feFuncA
             type="linear"
             slope="0.5"
             intercept="0"
             id="feFuncA49" />
        </feComponentTransfer>
      </filter>
    </defs>
    <g
       id="p.2">
      <path
         fill="#f3f3f3"
         d="m376.65375 54.052494l82.66623 0c2.9042358 0 5.6894836 1.1536942 7.7430725 3.207283c2.0535889 2.0535889 3.207306 4.838852 3.207306 7.7430687l0 54.750435c0 4.8065186E-4 -3.9672852E-4 8.69751E-4 -8.8500977E-4 8.69751E-4l-104.56607 -8.69751E-4l0 0c-4.5776367E-4 0 -8.544922E-4 -3.8909912E-4 -8.544922E-4 -8.69751E-4l8.544922E-4 -54.749565l0 0c0 -6.047714 4.902649 -10.950352 10.950348 -10.950352z"
         fill-rule="evenodd"
         id="path56" />
      <path
         stroke="#0000ff"
         stroke-width="2.0"
         stroke-linejoin="round"
         stroke-linecap="butt"
         d="m376.65375 54.052494l82.66623 0c2.9042358 0 5.6894836 1.1536942 7.7430725 3.207283c2.0535889 2.0535889 3.207306 4.838852 3.207306 7.7430687l0 54.750435c0 4.8065186E-4 -3.9672852E-4 8.69751E-4 -8.8500977E-4 8.69751E-4l-104.56607 -8.69751E-4l0 0c-4.5776367E-4 0 -8.544922E-4 -3.8909912E-4 -8.544922E-4 -8.69751E-4l8.544922E-4 -54.749565l0 0c0 -6.047714 4.902649 -10.950352 10.950348 -10.950352z"
         fill-rule="evenodd"
         id="path58" />
      <path
         fill="#000000"
         d="m403.7061 95.426506l0 -1.21875q-0.90625 1.4375 -2.703125 1.4375q-1.15625 0 -2.125 -0.640625q-0.96875 -0.640625 -1.5 -1.78125q-0.53125 -1.140625 -0.53125 -2.625q0 -1.453125 0.484375 -2.625q0.484375 -1.1875 1.4375 -1.8125q0.96875 -0.625 2.171875 -0.625q0.875 0 1.546875 0.375q0.6875 0.359375 1.109375 0.953125l0 -4.796875l1.640625 0l0 13.359375l-1.53125 0zm-5.171875 -4.828125q0 1.859375 0.78125 2.78125q0.78125 0.921875 1.84375 0.921875q1.078125 0 1.828125 -0.875q0.75 -0.890625 0.75 -2.6875q0 -1.984375 -0.765625 -2.90625q-0.765625 -0.9375 -1.890625 -0.9375q-1.078125 0 -1.8125 0.890625q-0.734375 0.890625 -0.734375 2.8125zm9.281952 -6.640625l0 -1.890625l1.640625 0l0 1.890625l-1.640625 0zm0 11.46875l0 -9.671875l1.640625 0l0 9.671875l-1.640625 0zm10.472961 0l0 -1.421875q-1.125 1.640625 -3.0625 1.640625q-0.859375 0 -1.609375 -0.328125q-0.734375 -0.328125 -1.09375 -0.828125q-0.359375 -0.5 -0.5 -1.21875q-0.109375 -0.46875 -0.109375 -1.53125l0 -5.984375l1.640625 0l0 5.359375q0 1.28125 0.109375 1.734375q0.15625 0.640625 0.65625 1.015625q0.5 0.375 1.234375 0.375q0.734375 0 1.375 -0.375q0.65625 -0.390625 0.921875 -1.03125q0.265625 -0.65625 0.265625 -1.890625l0 -5.1875l1.640625 0l0 9.671875l-1.46875 0zm10.672577 -3.109375l1.6875 0.203125q-0.40625 1.484375 -1.484375 2.3125q-1.078125 0.8125 -2.765625 0.8125q-2.125 0 -3.375 -1.296875q-1.234375 -1.3125 -1.234375 -3.671875q0 -2.453125 1.25 -3.796875q1.265625 -1.34375 3.265625 -1.34375q1.9375 0 3.15625 1.328125q1.234375 1.3125 1.234375 3.703125q0 0.15625 0 0.4375l-7.21875 0q0.09375 1.59375 0.90625 2.453125q0.8125 0.84375 2.015625 0.84375q0.90625 0 1.546875 -0.46875q0.640625 -0.484375 1.015625 -1.515625zm-5.390625 -2.65625l5.40625 0q-0.109375 -1.21875 -0.625 -1.828125q-0.78125 -0.953125 -2.03125 -0.953125q-1.125 0 -1.90625 0.765625q-0.765625 0.75 -0.84375 2.015625zm9.141357 -5.703125l0 -1.890625l1.640625 0l0 1.890625l-1.640625 0zm0 11.46875l0 -9.671875l1.640625 0l0 9.671875l-1.640625 0zm4.097931 0l0 -13.359375l1.640625 0l0 13.359375l-1.640625 0z"
         fill-rule="nonzero"
         id="path60" />
    </g>
    <g
       filter="url(#shadowFilter-p.3)"
       id="g65">
      <use
         xlink:href="#p.3"
         transform="matrix(1.0 0.0 0.0 1.0 -0.20939684289646898 5.996344939304461)"
         id="use63" />
    </g>
    <defs
       id="defs80">
      <filter
         id="shadowFilter-p.3"
         filterUnits="userSpaceOnUse">
        <feGaussianBlur
           in="SourceAlpha"
           stdDeviation="2.0"
           result="blur"
           id="feGaussianBlur67" />
        <feComponentTransfer
           in="blur"
           color-interpolation-filters="sRGB"
           id="feComponentTransfer77">
          <feFuncR
             type="linear"
             slope="0"
             intercept="0.0"
             id="feFuncR69" />
          <feFuncG
             type="linear"
             slope="0"
             intercept="0.0"
             id="feFuncG71" />
          <feFuncB
             type="linear"
             slope="0"
             intercept="0.0"
             id="feFuncB73" />
          <feFuncA
             type="linear"
             slope="0.5"
             intercept="0"
             id="feFuncA75" />
        </feComponentTransfer>
      </filter>
    </defs>
    <g
       id="p.3">
      <path
         fill="#f3f3f3"
         d="m254.78236 200.5853l82.666245 0c2.9042053 0 5.6894836 1.1537018 7.7430725 3.2072906c2.0535889 2.0535889 3.2072754 4.838852 3.2072754 7.7430573l0 54.750458c0 4.5776367E-4 -3.9672852E-4 8.544922E-4 -8.8500977E-4 8.544922E-4l-104.566055 -8.544922E-4l0 0c-4.7302246E-4 0 -8.69751E-4 -3.9672852E-4 -8.69751E-4 -8.8500977E-4l8.69751E-4 -54.749573l0 0c0 -6.047699 4.902649 -10.950348 10.950348 -10.950348z"
         fill-rule="evenodd"
         id="path82" />
      <path
         stroke="#0000ff"
         stroke-width="2.0"
         stroke-linejoin="round"
         stroke-linecap="butt"
         d="m254.78236 200.5853l82.666245 0c2.9042053 0 5.6894836 1.1537018 7.7430725 3.2072906c2.0535889 2.0535889 3.2072754 4.838852 3.2072754 7.7430573l0 54.750458c0 4.5776367E-4 -3.9672852E-4 8.544922E-4 -8.8500977E-4 8.544922E-4l-104.566055 -8.544922E-4l0 0c-4.7302246E-4 0 -8.69751E-4 -3.9672852E-4 -8.69751E-4 -8.8500977E-4l8.69751E-4 -54.749573l0 0c0 -6.047699 4.902649 -10.950348 10.950348 -10.950348z"
         fill-rule="evenodd"
         id="path84" />
      <path
         fill="#000000"
         d="m268.35718 241.95932l0 -1.21875q-0.90625 1.4375 -2.703125 1.4375q-1.15625 0 -2.125 -0.640625q-0.96875 -0.640625 -1.5 -1.78125q-0.53125 -1.140625 -0.53125 -2.625q0 -1.453125 0.484375 -2.625q0.484375 -1.1875 1.4375 -1.8125q0.96875 -0.625 2.171875 -0.625q0.875 0 1.546875 0.375q0.6875 0.359375 1.109375 0.953125l0 -4.796875l1.640625 0l0 13.359375l-1.53125 0zm-5.171875 -4.828125q0 1.859375 0.78125 2.78125q0.78125 0.921875 1.84375 0.921875q1.078125 0 1.828125 -0.875q0.75 -0.890625 0.75 -2.6875q0 -1.984375 -0.765625 -2.90625q-0.765625 -0.9375 -1.890625 -0.9375q-1.078125 0 -1.8125 0.890625q-0.734375 0.890625 -0.734375 2.8125zm15.610107 4.828125l0 -1.421875q-1.125 1.640625 -3.0625 1.640625q-0.859375 0 -1.609375 -0.328125q-0.734375 -0.328125 -1.09375 -0.828125q-0.359375 -0.5 -0.5 -1.21875q-0.109375 -0.46875 -0.109375 -1.53125l0 -5.984375l1.640625 0l0 5.359375q0 1.28125 0.109375 1.734375q0.15625 0.640625 0.65625 1.015625q0.5 0.375 1.234375 0.375q0.734375 0 1.375 -0.375q0.65625 -0.390625 0.921875 -1.03125q0.265625 -0.65625 0.265625 -1.890625l0 -5.1875l1.640625 0l0 9.671875l-1.46875 0zm10.360077 -3.546875l1.609375 0.21875q-0.265625 1.65625 -1.359375 2.609375q-1.078125 0.9375 -2.671875 0.9375q-1.984375 0 -3.1875 -1.296875q-1.203125 -1.296875 -1.203125 -3.71875q0 -1.578125 0.515625 -2.75q0.515625 -1.171875 1.578125 -1.75q1.0625 -0.59375 2.3125 -0.59375q1.578125 0 2.578125 0.796875q1.0 0.796875 1.28125 2.265625l-1.59375 0.234375q-0.234375 -0.96875 -0.8125 -1.453125q-0.578125 -0.5 -1.390625 -0.5q-1.234375 0 -2.015625 0.890625q-0.78125 0.890625 -0.78125 2.8125q0 1.953125 0.75 2.84375q0.75 0.875 1.953125 0.875q0.96875 0 1.609375 -0.59375q0.65625 -0.59375 0.828125 -1.828125zm3.015625 3.546875l0 -13.359375l1.640625 0l0 4.796875q1.140625 -1.328125 2.890625 -1.328125q1.078125 0 1.859375 0.421875q0.796875 0.421875 1.140625 1.171875q0.34375 0.75 0.34375 2.171875l0 6.125l-1.640625 0l0 -6.125q0 -1.234375 -0.53125 -1.796875q-0.53125 -0.5625 -1.515625 -0.5625q-0.71875 0 -1.359375 0.390625q-0.640625 0.375 -0.921875 1.015625q-0.265625 0.640625 -0.265625 1.78125l0 5.296875l-1.640625 0zm10.375732 0l0 -9.671875l1.46875 0l0 1.359375q0.453125 -0.71875 1.203125 -1.140625q0.765625 -0.4375 1.71875 -0.4375q1.078125 0 1.765625 0.453125q0.6875 0.4375 0.96875 1.234375q1.15625 -1.6875 2.984375 -1.6875q1.453125 0 2.21875 0.796875q0.78125 0.796875 0.78125 2.453125l0 6.640625l-1.640625 0l0 -6.09375q0 -0.984375 -0.15625 -1.40625q-0.15625 -0.4375 -0.578125 -0.703125q-0.421875 -0.265625 -0.984375 -0.265625q-1.015625 0 -1.6875 0.6875q-0.671875 0.671875 -0.671875 2.15625l0 5.625l-1.640625 0l0 -6.28125q0 -1.09375 -0.40625 -1.640625q-0.40625 -0.546875 -1.3125 -0.546875q-0.6875 0 -1.28125 0.359375q-0.59375 0.359375 -0.859375 1.0625q-0.25 0.703125 -0.25 2.03125l0 5.015625l-1.640625 0zm14.931427 -4.84375q0 -2.6875 1.484375 -3.96875q1.25 -1.078125 3.046875 -1.078125q2.0 0 3.265625 1.3125q1.265625 1.296875 1.265625 3.609375q0 1.859375 -0.5625 2.9375q-0.5625 1.0625 -1.640625 1.65625q-1.0625 0.59375 -2.328125 0.59375q-2.03125 0 -3.28125 -1.296875q-1.25 -1.3125 -1.25 -3.765625zm1.6875 0q0 1.859375 0.796875 2.796875q0.8125 0.921875 2.046875 0.921875q1.21875 0 2.03125 -0.921875q0.8125 -0.9375 0.8125 -2.84375q0 -1.796875 -0.8125 -2.71875q-0.8125 -0.921875 -2.03125 -0.921875q-1.234375 0 -2.046875 0.921875q-0.796875 0.90625 -0.796875 2.765625zm9.250702 4.84375l0 -13.359375l1.640625 0l0 13.359375l-1.640625 0z"
         fill-rule="nonzero"
         id="path86" />
    </g>
    <g
       filter="url(#shadowFilter-p.4)"
       id="g91">
      <use
         xlink:href="#p.4"
         transform="matrix(1.0 0.0 0.0 1.0 -0.20939684289646898 5.996344939304461)"
         id="use89" />
    </g>
    <defs
       id="defs106">
      <filter
         id="shadowFilter-p.4"
         filterUnits="userSpaceOnUse">
        <feGaussianBlur
           in="SourceAlpha"
           stdDeviation="2.0"
           result="blur"
           id="feGaussianBlur93" />
        <feComponentTransfer
           in="blur"
           color-interpolation-filters="sRGB"
           id="feComponentTransfer103">
          <feFuncR
             type="linear"
             slope="0"
             intercept="0.0"
             id="feFuncR95" />
          <feFuncG
             type="linear"
             slope="0"
             intercept="0.0"
             id="feFuncG97" />
          <feFuncB
             type="linear"
             slope="0"
             intercept="0.0"
             id="feFuncB99" />
          <feFuncA
             type="linear"
             slope="0.5"
             intercept="0"
             id="feFuncA101" />
        </feComponentTransfer>
      </filter>
    </defs>
    <g
       id="p.4">
      <path
         fill="#f3f3f3"
         d="m340.15244 374.7953l82.66623 0c2.9042358 0 5.6894836 1.1536865 7.7430725 3.2072754c2.0535889 2.0535889 3.207306 4.8388367 3.207306 7.7430725l0 54.750427c0 4.8828125E-4 -3.9672852E-4 8.8500977E-4 -8.8500977E-4 8.8500977E-4l-104.56607 -8.8500977E-4l0 0c-4.5776367E-4 0 -8.544922E-4 -3.9672852E-4 -8.544922E-4 -8.8500977E-4l8.544922E-4 -54.749542l0 0c0 -6.0477295 4.902649 -10.950348 10.950348 -10.950348z"
         fill-rule="evenodd"
         id="path108" />
      <path
         stroke="#0000ff"
         stroke-width="2.0"
         stroke-linejoin="round"
         stroke-linecap="butt"
         d="m340.15244 374.7953l82.66623 0c2.9042358 0 5.6894836 1.1536865 7.7430725 3.2072754c2.0535889 2.0535889 3.207306 4.8388367 3.207306 7.7430725l0 54.750427c0 4.8828125E-4 -3.9672852E-4 8.8500977E-4 -8.8500977E-4 8.8500977E-4l-104.56607 -8.8500977E-4l0 0c-4.5776367E-4 0 -8.544922E-4 -3.9672852E-4 -8.544922E-4 -8.8500977E-4l8.544922E-4 -54.749542l0 0c0 -6.0477295 4.902649 -10.950348 10.950348 -10.950348z"
         fill-rule="evenodd"
         id="path110" />
      <path
         fill="#000000"
         d="m373.46887 414.98178q-0.921875 0.765625 -1.765625 1.09375q-0.828125 0.3125 -1.796875 0.3125q-1.59375 0 -2.453125 -0.78125q-0.859375 -0.78125 -0.859375 -1.984375q0 -0.71875 0.328125 -1.296875q0.328125 -0.59375 0.84375 -0.9375q0.53125 -0.359375 1.1875 -0.546875q0.46875 -0.125 1.453125 -0.25q1.984375 -0.234375 2.921875 -0.5625q0.015625 -0.34375 0.015625 -0.421875q0 -1.0 -0.46875 -1.421875q-0.625 -0.546875 -1.875 -0.546875q-1.15625 0 -1.703125 0.40625q-0.546875 0.40625 -0.8125 1.421875l-1.609375 -0.21875q0.21875 -1.015625 0.71875 -1.640625q0.5 -0.640625 1.453125 -0.984375q0.953125 -0.34375 2.1875 -0.34375q1.25 0 2.015625 0.296875q0.78125 0.28125 1.140625 0.734375q0.375 0.4375 0.515625 1.109375q0.078125 0.421875 0.078125 1.515625l0 2.1875q0 2.28125 0.109375 2.890625q0.109375 0.59375 0.40625 1.15625l-1.703125 0q-0.265625 -0.515625 -0.328125 -1.1875zm-0.140625 -3.671875q-0.890625 0.375 -2.671875 0.625q-1.015625 0.140625 -1.4375 0.328125q-0.421875 0.1875 -0.65625 0.53125q-0.21875 0.34375 -0.21875 0.78125q0 0.65625 0.5 1.09375q0.5 0.4375 1.453125 0.4375q0.9375 0 1.671875 -0.40625q0.75 -0.421875 1.09375 -1.140625q0.265625 -0.5625 0.265625 -1.640625l0 -0.609375zm10.469452 4.859375l0 -1.21875q-0.90625 1.4375 -2.703125 1.4375q-1.15625 0 -2.125 -0.640625q-0.96875 -0.640625 -1.5 -1.78125q-0.53125 -1.140625 -0.53125 -2.625q0 -1.453125 0.484375 -2.625q0.484375 -1.1875 1.4375 -1.8125q0.96875 -0.625 2.171875 -0.625q0.875 0 1.546875 0.375q0.6875 0.359375 1.109375 0.953125l0 -4.796875l1.640625 0l0 13.359375l-1.53125 0zm-5.171875 -4.828125q0 1.859375 0.78125 2.78125q0.78125 0.921875 1.84375 0.921875q1.078125 0 1.828125 -0.875q0.75 -0.890625 0.75 -2.6875q0 -1.984375 -0.765625 -2.90625q-0.765625 -0.9375 -1.890625 -0.9375q-1.078125 0 -1.8125 0.890625q-0.734375 0.890625 -0.734375 2.8125zm9.281982 4.828125l0 -9.671875l1.46875 0l0 1.375q1.0625 -1.59375 3.078125 -1.59375q0.875 0 1.609375 0.3125q0.734375 0.3125 1.09375 0.828125q0.375 0.5 0.515625 1.203125q0.09375 0.453125 0.09375 1.59375l0 5.953125l-1.640625 0l0 -5.890625q0 -1.0 -0.203125 -1.484375q-0.1875 -0.5 -0.671875 -0.796875q-0.484375 -0.296875 -1.140625 -0.296875q-1.046875 0 -1.8125 0.671875q-0.75 0.65625 -0.75 2.515625l0 5.28125l-1.640625 0z"
         fill-rule="nonzero"
         id="path112" />
    </g>
    <g
       filter="url(#shadowFilter-p.5)"
       id="g117">
      <use
         xlink:href="#p.5"
         transform="matrix(1.0 0.0 0.0 1.0 -0.20939684289646898 5.996344939304461)"
         id="use115" />
    </g>
    <defs
       id="defs132">
      <filter
         id="shadowFilter-p.5"
         filterUnits="userSpaceOnUse">
        <feGaussianBlur
           in="SourceAlpha"
           stdDeviation="2.0"
           result="blur"
           id="feGaussianBlur119" />
        <feComponentTransfer
           in="blur"
           color-interpolation-filters="sRGB"
           id="feComponentTransfer129">
          <feFuncR
             type="linear"
             slope="0"
             intercept="0.0"
             id="feFuncR121" />
          <feFuncG
             type="linear"
             slope="0"
             intercept="0.0"
             id="feFuncG123" />
          <feFuncB
             type="linear"
             slope="0"
             intercept="0.0"
             id="feFuncB125" />
          <feFuncA
             type="linear"
             slope="0.5"
             intercept="0"
             id="feFuncA127" />
        </feComponentTransfer>
      </filter>
    </defs>
    <g
       id="p.5">
      <path
         fill="#f3f3f3"
         d="m78.055336 416.44095l82.66624 0c2.9042053 0 5.6894684 1.1536865 7.7430573 3.2072754c2.0535889 2.0535889 3.2072906 4.838867 3.2072906 7.7430725l0 54.750427c0 4.8828125E-4 -3.9672852E-4 8.8500977E-4 -8.69751E-4 8.8500977E-4l-104.56606 -8.8500977E-4l0 0c-4.8065186E-4 0 -8.69751E-4 -3.9672852E-4 -8.69751E-4 -8.544922E-4l8.69751E-4 -54.749573l0 0c0 -6.047699 4.9026413 -10.950348 10.950348 -10.950348z"
         fill-rule="evenodd"
         id="path134" />
      <path
         stroke="#0000ff"
         stroke-width="2.0"
         stroke-linejoin="round"
         stroke-linecap="butt"
         d="m78.055336 416.44095l82.66624 0c2.9042053 0 5.6894684 1.1536865 7.7430573 3.2072754c2.0535889 2.0535889 3.2072906 4.838867 3.2072906 7.7430725l0 54.750427c0 4.8828125E-4 -3.9672852E-4 8.8500977E-4 -8.69751E-4 8.8500977E-4l-104.56606 -8.8500977E-4l0 0c-4.8065186E-4 0 -8.69751E-4 -3.9672852E-4 -8.69751E-4 -8.544922E-4l8.69751E-4 -54.749573l0 0c0 -6.047699 4.9026413 -10.950348 10.950348 -10.950348z"
         fill-rule="evenodd"
         id="path136" />
      <path
         fill="#000000"
         d="m103.968315 457.81497l0 -1.875l1.875 0l0 1.875l-1.875 0zm4.073929 -2.890625l1.625 -0.25q0.125 0.96875 0.75 1.5q0.625 0.515625 1.75 0.515625q1.125 0 1.671875 -0.453125q0.546875 -0.46875 0.546875 -1.09375q0 -0.546875 -0.484375 -0.875q-0.328125 -0.21875 -1.671875 -0.546875q-1.8125 -0.46875 -2.515625 -0.796875q-0.6875 -0.328125 -1.046875 -0.90625q-0.359375 -0.59375 -0.359375 -1.3125q0 -0.640625 0.296875 -1.1875q0.296875 -0.5625 0.8125 -0.921875q0.375 -0.28125 1.03125 -0.46875q0.671875 -0.203125 1.421875 -0.203125q1.140625 0 2.0 0.328125q0.859375 0.328125 1.265625 0.890625q0.421875 0.5625 0.578125 1.5l-1.609375 0.21875q-0.109375 -0.75 -0.640625 -1.171875q-0.515625 -0.421875 -1.46875 -0.421875q-1.140625 0 -1.625 0.375q-0.46875 0.375 -0.46875 0.875q0 0.3125 0.1875 0.578125q0.203125 0.265625 0.640625 0.4375q0.234375 0.09375 1.4375 0.421875q1.75 0.453125 2.4375 0.75q0.6875 0.296875 1.078125 0.859375q0.390625 0.5625 0.390625 1.40625q0 0.828125 -0.484375 1.546875q-0.46875 0.71875 -1.375 1.125q-0.90625 0.390625 -2.046875 0.390625q-1.875 0 -2.875 -0.78125q-0.984375 -0.78125 -1.25 -2.328125zm9.328125 0l1.625 -0.25q0.125 0.96875 0.75 1.5q0.625 0.515625 1.75 0.515625q1.125 0 1.671875 -0.453125q0.546875 -0.46875 0.546875 -1.09375q0 -0.546875 -0.484375 -0.875q-0.328125 -0.21875 -1.671875 -0.546875q-1.8125 -0.46875 -2.515625 -0.796875q-0.6875 -0.328125 -1.046875 -0.90625q-0.359375 -0.59375 -0.359375 -1.3125q0 -0.640625 0.296875 -1.1875q0.296875 -0.5625 0.8125 -0.921875q0.375 -0.28125 1.03125 -0.46875q0.671875 -0.203125 1.421875 -0.203125q1.140625 0 2.0 0.328125q0.859375 0.328125 1.265625 0.890625q0.421875 0.5625 0.578125 1.5l-1.609375 0.21875q-0.109375 -0.75 -0.640625 -1.171875q-0.515625 -0.421875 -1.46875 -0.421875q-1.140625 0 -1.625 0.375q-0.46875 0.375 -0.46875 0.875q0 0.3125 0.1875 0.578125q0.203125 0.265625 0.640625 0.4375q0.234375 0.09375 1.4375 0.421875q1.75 0.453125 2.4375 0.75q0.6875 0.296875 1.078125 0.859375q0.390625 0.5625 0.390625 1.40625q0 0.828125 -0.484375 1.546875q-0.46875 0.71875 -1.375 1.125q-0.90625 0.390625 -2.046875 0.390625q-1.875 0 -2.875 -0.78125q-0.984375 -0.78125 -1.25 -2.328125zm9.984375 2.890625l0 -13.359375l1.6406326 0l0 4.796875q1.140625 -1.328125 2.890625 -1.328125q1.078125 0 1.859375 0.421875q0.796875 0.421875 1.140625 1.171875q0.34375 0.75 0.34375 2.171875l0 6.125l-1.640625 0l0 -6.125q0 -1.234375 -0.53125 -1.796875q-0.53125 -0.5625 -1.515625 -0.5625q-0.71875 0 -1.359375 0.390625q-0.640625 0.375 -0.921875 1.015625q-0.265625 0.640625 -0.265625 1.78125l0 5.296875l-1.6406326 0z"
         fill-rule="nonzero"
         id="path138" />
    </g>
    <g
       filter="url(#shadowFilter-p.6)"
       id="g143">
      <use
         xlink:href="#p.6"
         transform="matrix(1.0 0.0 0.0 1.0 -0.20939684289646898 5.996344939304461)"
         id="use141" />
    </g>
    <defs
       id="defs158">
      <filter
         id="shadowFilter-p.6"
         filterUnits="userSpaceOnUse">
        <feGaussianBlur
           in="SourceAlpha"
           stdDeviation="2.0"
           result="blur"
           id="feGaussianBlur145" />
        <feComponentTransfer
           in="blur"
           color-interpolation-filters="sRGB"
           id="feComponentTransfer155">
          <feFuncR
             type="linear"
             slope="0"
             intercept="0.0"
             id="feFuncR147" />
          <feFuncG
             type="linear"
             slope="0"
             intercept="0.0"
             id="feFuncG149" />
          <feFuncB
             type="linear"
             slope="0"
             intercept="0.0"
             id="feFuncB151" />
          <feFuncA
             type="linear"
             slope="0.5"
             intercept="0"
             id="feFuncA153" />
        </feComponentTransfer>
      </filter>
    </defs>
    <g
       id="p.6">
      <path
         fill="#f3f3f3"
         d="m530.06586 309.5223l82.6662 0c2.9042358 0 5.689514 1.1536865 7.743103 3.2072754c2.0535889 2.0535889 3.2072754 4.838867 3.2072754 7.7430725l0 54.750427c0 4.8828125E-4 -4.272461E-4 8.8500977E-4 -9.1552734E-4 8.8500977E-4l-104.56604 -8.8500977E-4l0 0c-4.8828125E-4 0 -8.544922E-4 -3.6621094E-4 -8.544922E-4 -8.544922E-4l8.544922E-4 -54.749573l0 0c0 -6.047699 4.902649 -10.950348 10.950378 -10.950348z"
         fill-rule="evenodd"
         id="path160" />
      <path
         stroke="#0000ff"
         stroke-width="2.0"
         stroke-linejoin="round"
         stroke-linecap="butt"
         d="m530.06586 309.5223l82.6662 0c2.9042358 0 5.689514 1.1536865 7.743103 3.2072754c2.0535889 2.0535889 3.2072754 4.838867 3.2072754 7.7430725l0 54.750427c0 4.8828125E-4 -4.272461E-4 8.8500977E-4 -9.1552734E-4 8.8500977E-4l-104.56604 -8.8500977E-4l0 0c-4.8828125E-4 0 -8.544922E-4 -3.6621094E-4 -8.544922E-4 -8.544922E-4l8.544922E-4 -54.749573l0 0c0 -6.047699 4.902649 -10.950348 10.950378 -10.950348z"
         fill-rule="evenodd"
         id="path162" />
      <path
         fill="#000000"
         d="m556.75726 351.6932l1.59375 0.234375q0.109375 0.75 0.5625 1.078125q0.609375 0.453125 1.671875 0.453125q1.140625 0 1.75 -0.453125q0.625 -0.453125 0.84375 -1.265625q0.125 -0.5 0.109375 -2.109375q-1.0625 1.265625 -2.671875 1.265625q-2.0 0 -3.09375 -1.4375q-1.09375 -1.4375 -1.09375 -3.453125q0 -1.390625 0.5 -2.5625q0.515625 -1.171875 1.453125 -1.796875q0.953125 -0.640625 2.25 -0.640625q1.703125 0 2.8125 1.375l0 -1.15625l1.515625 0l0 8.359375q0 2.265625 -0.46875 3.203125q-0.453125 0.9375 -1.453125 1.484375q-0.984375 0.546875 -2.453125 0.546875q-1.71875 0 -2.796875 -0.78125q-1.0625 -0.765625 -1.03125 -2.34375zm1.359375 -5.8125q0 1.90625 0.75 2.78125q0.765625 0.875 1.90625 0.875q1.125 0 1.890625 -0.859375q0.765625 -0.875 0.765625 -2.734375q0 -1.78125 -0.796875 -2.671875q-0.78125 -0.90625 -1.890625 -0.90625q-1.09375 0 -1.859375 0.890625q-0.765625 0.875 -0.765625 2.625zm15.953857 1.90625l1.6875 0.203125q-0.40625 1.484375 -1.484375 2.3125q-1.078125 0.8125 -2.765625 0.8125q-2.125 0 -3.375 -1.296875q-1.234375 -1.3125 -1.234375 -3.671875q0 -2.453125 1.25 -3.796875q1.265625 -1.34375 3.265625 -1.34375q1.9375 0 3.15625 1.328125q1.234375 1.3125 1.234375 3.703125q0 0.15625 0 0.4375l-7.21875 0q0.09375 1.59375 0.90625 2.453125q0.8125 0.84375 2.015625 0.84375q0.90625 0 1.546875 -0.46875q0.640625 -0.484375 1.015625 -1.515625zm-5.390625 -2.65625l5.40625 0q-0.109375 -1.21875 -0.625 -1.828125q-0.78125 -0.953125 -2.03125 -0.953125q-1.125 0 -1.90625 0.765625q-0.765625 0.75 -0.84375 2.015625zm15.766296 2.65625l1.6875 0.203125q-0.40625 1.484375 -1.484375 2.3125q-1.078125 0.8125 -2.765625 0.8125q-2.125 0 -3.375 -1.296875q-1.234375 -1.3125 -1.234375 -3.671875q0 -2.453125 1.25 -3.796875q1.265625 -1.34375 3.265625 -1.34375q1.9375 0 3.15625 1.328125q1.234375 1.3125 1.234375 3.703125q0 0.15625 0 0.4375l-7.21875 0q0.09375 1.59375 0.90625 2.453125q0.8125 0.84375 2.015625 0.84375q0.90625 0 1.546875 -0.46875q0.640625 -0.484375 1.015625 -1.515625zm-5.390625 -2.65625l5.40625 0q-0.109375 -1.21875 -0.625 -1.828125q-0.78125 -0.953125 -2.03125 -0.953125q-1.125 0 -1.90625 0.765625q-0.765625 0.75 -0.84375 2.015625z"
         fill-rule="nonzero"
         id="path164" />
    </g>
    <g
       filter="url(#shadowFilter-p.7)"
       id="g169">
      <use
         xlink:href="#p.7"
         transform="matrix(1.0 0.0 0.0 1.0 0.0 6.0)"
         id="use167" />
    </g>
    <defs
       id="defs184">
      <filter
         id="shadowFilter-p.7"
         filterUnits="userSpaceOnUse">
        <feGaussianBlur
           in="SourceAlpha"
           stdDeviation="2.0"
           result="blur"
           id="feGaussianBlur171" />
        <feComponentTransfer
           in="blur"
           color-interpolation-filters="sRGB"
           id="feComponentTransfer181">
          <feFuncR
             type="linear"
             slope="0"
             intercept="0.0"
             id="feFuncR173" />
          <feFuncG
             type="linear"
             slope="0"
             intercept="0.0"
             id="feFuncG175" />
          <feFuncB
             type="linear"
             slope="0"
             intercept="0.0"
             id="feFuncB177" />
          <feFuncA
             type="linear"
             slope="0.5"
             intercept="0"
             id="feFuncA179" />
        </feComponentTransfer>
      </filter>
    </defs>
    <g
       id="p.7">
      <path
         fill="#efefef"
         d="m250.46164 536.9183l108.724396 -7.559082l3.7795105 54.645447l-10.173157 11.689209l-97.79532 6.7991943z"
         fill-rule="evenodd"
         id="path186" />
      <path
         fill="#bfbfbf"
         d="m352.7924 595.69385l1.5810852 -8.895447l8.592072 -2.7937622z"
         fill-rule="evenodd"
         id="path188" />
      <path
         fill="#000000"
         fill-opacity="0.0"
         d="m352.7924 595.69385l1.5810852 -8.895447l8.592072 -2.7937622l-10.173157 11.689209l-97.79532 6.7991943l-4.535431 -65.57477l108.724396 -7.559082l3.7795105 54.645447"
         fill-rule="evenodd"
         id="path190" />
      <path
         stroke="#0000ff"
         stroke-width="2.0"
         stroke-linejoin="round"
         stroke-linecap="butt"
         d="m352.7924 595.69385l1.5810852 -8.895447l8.592072 -2.7937622l-10.173157 11.689209l-97.79532 6.7991943l-4.535431 -65.57477l108.724396 -7.559082l3.7795105 54.645447"
         fill-rule="evenodd"
         id="path192" />
      <path
         fill="#000000"
         d="m264.17444 558.85925l-0.13046265 -1.8861084l1.6366882 -0.11376953l0.13043213 1.8861084l-1.6366577 0.11376953zm0.7913208 11.441406l-0.6673584 -9.648804l1.6366882 -0.11376953l0.6673584 9.648804l-1.6366882 0.11376953zm10.385376 -0.7220459l-0.08407593 -1.2158203q-0.8049011 1.4969482 -2.5974426 1.621582q-1.1534729 0.08013916 -2.164093 -0.49176025q-1.0106201 -0.5718994 -1.6192932 -1.6729736q-0.6086731 -1.1010132 -0.7110901 -2.5818481q-0.100250244 -1.449707 0.3020935 -2.6523438q0.40127563 -1.2182617 1.30896 -1.907898q0.9233093 -0.69073486 2.1235352 -0.7741699q0.8728943 -0.060668945 1.5690308 0.2668457q0.7106323 0.31085205 1.1724548 0.87390137l-0.33096313 -4.7854614l1.6366577 -0.11376953l0.92178345 13.327515l-1.5275574 0.10620117zm-5.4925537 -4.4578857q0.1282959 1.8549194 0.97128296 2.720459q0.84295654 0.8654785 1.9029236 0.79174805q1.0755005 -0.07476807 1.7633362 -0.9996948q0.68673706 -0.9404907 0.56274414 -2.7330933q-0.13690186 -1.9796753 -0.96429443 -2.8462524q-0.8284607 -0.8821411 -1.9507751 -0.8041382q-1.075531 0.0748291 -1.7466736 1.0142212q-0.6711426 0.9394531 -0.5385437 2.8567505zm8.336304 7.97229l-0.0819397 -1.1846924l10.833221 -0.7531738l0.0819397 1.1846313l-10.833221 0.75323486zm11.591583 -4.5180054l-0.6673584 -9.648804l1.4652405 -0.101867676l0.10131836 1.46521q0.48999023 -1.06781 0.93499756 -1.4276123q0.46054077 -0.3609619 1.0372925 -0.401062q0.82611084 -0.057434082 1.7200928 0.41296387l-0.4565735 1.5510254q-0.63272095 -0.31628418 -1.2250366 -0.27508545q-0.54556274 0.037902832 -0.9437561 0.39453125q-0.39822388 0.35662842 -0.5464783 0.93078613q-0.22018433 0.892395 -0.14794922 1.9367676l0.3493042 5.050476l-1.6210938 0.1126709zm5.359192 -3.2702026l1.6038513 -0.36212158q0.19152832 0.9577637 0.8516846 1.444458q0.6590576 0.4710083 1.7813721 0.39300537q1.1222839 -0.078063965 1.6365662 -0.56799316q0.5132141 -0.50561523 0.47009277 -1.1290894q-0.037719727 -0.54559326 -0.5435791 -0.83935547q-0.34243774 -0.19543457 -1.7055969 -0.42956543q-1.8404541 -0.34191895 -2.5645447 -0.62054443q-0.7084656 -0.2796631 -1.1068726 -0.83148193q-0.3994751 -0.5673828 -0.44906616 -1.2844238q-0.04421997 -0.6390991 0.21420288 -1.2052612q0.25735474 -0.5817261 0.74694824 -0.9760132q0.3546753 -0.3065796 0.99642944 -0.5391846q0.6562195 -0.24920654 1.404419 -0.30126953q1.1378784 -0.07910156 2.0178223 0.18865967q0.87994385 0.26776123 1.3240356 0.8007202q0.45968628 0.5319214 0.6802368 1.4562988l-1.5904236 0.32989502q-0.16085815 -0.7406616 -0.7199402 -1.1246948q-0.54348755 -0.3850708 -1.4943237 -0.31896973q-1.1378784 0.07910156 -1.5951843 0.4868164q-0.44177246 0.4066162 -0.40725708 0.9053955q0.02154541 0.31176758 0.22692871 0.56378174q0.22097778 0.2508545 0.669281 0.3920288q0.2402649 0.07727051 1.4631348 0.321167q1.7770691 0.33062744 2.4833984 0.57910156q0.70632935 0.24853516 1.1348267 0.7825928q0.4284973 0.5340576 0.48669434 1.3757935q0.057159424 0.8261719 -0.37646484 1.5767822q-0.4180298 0.74957275 -1.2940674 1.2177124q-0.8771057 0.45251465 -2.0149841 0.5316162q-1.8704834 0.13006592 -2.921997 -0.57995605q-1.0358887 -0.7111206 -1.4076233 -2.2359009zm16.375153 0.5687866q-0.8668213 0.82769775 -1.6859131 1.213562q-0.8045654 0.36920166 -1.7709961 0.43640137q-1.5899048 0.11053467 -2.5010986 -0.6092529q-0.91122437 -0.7197876 -0.9942322 -1.920044q-0.049591064 -0.717041 0.237854 -1.3165283q0.28634644 -0.6151123 0.77700806 -0.9937744q0.505188 -0.39538574 1.1469116 -0.6279297q0.4590149 -0.15722656 1.432373 -0.35021973q1.96344 -0.37145996 2.8760376 -0.76379395q-0.008117676 -0.34399414 -0.013519287 -0.42193604q-0.069000244 -0.9976196 -0.56573486 -1.3859863q-0.66122437 -0.5022583 -1.9082031 -0.41552734q-1.1534729 0.080200195 -1.6710205 0.52337646q-0.5175171 0.4432373 -0.71243286 1.4748535l-1.620575 -0.10662842q0.14813232 -1.0283813 0.6038208 -1.6865234q0.45458984 -0.6737671 1.3816833 -1.0828247q0.927124 -0.40905762 2.1585388 -0.4946289q1.2469788 -0.08673096 2.03125 0.15631104q0.7987671 0.22644043 1.1885376 0.65356445q0.40429688 0.4104004 0.5909424 1.0709229q0.10702515 0.4154663 0.18249512 1.5065918l0.15093994 2.182312q0.15740967 2.2758179 0.30856323 2.8761597q0.15008545 0.5847168 0.4850464 1.1253052l-1.6990051 0.11810303q-0.30056763 -0.49597168 -0.40927124 -1.1618652zm-0.39364624 -3.6533813q-0.86260986 0.43585205 -2.6223145 0.8088379q-1.003479 0.21069336 -1.4114075 0.42700195q-0.40792847 0.2163086 -0.6180115 0.5755005q-0.19448853 0.35809326 -0.16430664 0.79455566q0.04525757 0.6547241 0.57424927 1.0564575q0.5289917 0.40179443 1.4798279 0.33569336q0.9352417 -0.06500244 1.639801 -0.52124023q0.7190857 -0.4729004 1.0124207 -1.2137451q0.22616577 -0.57958984 0.15179443 -1.6551514l-0.042053223 -0.60791016zm4.9810486 4.5247803l-0.12939453 -1.8705444l1.8705139 -0.13000488l0.12936401 1.8704834l-1.8704834 0.13006592zm4.974304 3.366211l-0.9228821 -13.343079l1.4808044 -0.10296631l0.086242676 1.2470093q0.47930908 -0.7694702 1.1091919 -1.173523q0.64437866 -0.42071533 1.5952148 -0.4868164q1.2313843 -0.08557129 2.210846 0.48846436q0.993927 0.5574341 1.5580139 1.6929321q0.5629883 1.119873 0.65893555 2.5072021q0.10241699 1.480835 -0.34561157 2.7023315q-0.44802856 1.2215576 -1.4170227 1.9310913q-0.97003174 0.6939087 -2.0923462 0.77197266q-0.81051636 0.05633545 -1.4889221 -0.24108887q-0.67837524 -0.29742432 -1.1203003 -0.79919434l0.3244934 4.6918945l-1.6366577 0.11376953zm0.89538574 -8.567078q0.1282959 1.8549194 0.93899536 2.7070312q0.82525635 0.8353882 1.8851929 0.7616577q1.0911255 -0.075805664 1.8068848 -1.0496826q0.71466064 -0.9894409 0.58099365 -2.9223633q-0.12722778 -1.8393555 -0.95462036 -2.7059326q-0.8117981 -0.86761475 -1.8717346 -0.7939453q-1.0443726 0.072631836 -1.7869873 1.1109619q-0.7281189 1.0217285 -0.59872437 2.892273zm15.512695 3.7142944l-0.098083496 -1.4185181q-1.0090942 1.7147217 -2.941925 1.8491211q-0.8573303 0.059631348 -1.6281433 -0.21569824q-0.755249 -0.27642822 -1.1482544 -0.7503052q-0.39300537 -0.47387695 -0.58288574 -1.1811523q-0.14147949 -0.460083 -0.21478271 -1.5200195l-0.41290283 -5.970154l1.6366577 -0.11376953l0.369812 5.3466187q0.088378906 1.2781982 0.22875977 1.7226562q0.20007324 0.62823486 0.72476196 0.96765137q0.5246582 0.33947754 1.2572632 0.28851318q0.732605 -0.05090332 1.3458252 -0.46948242q0.62771606 -0.43518066 0.84851074 -1.0927124q0.21969604 -0.6730957 0.13452148 -1.904541l-0.35794067 -5.175171l1.6366882 -0.11376953l0.6673584 9.648804l-1.4652405 0.10192871zm5.5342407 -0.38482666l-1.5119629 0.105163574l-0.92178345 -13.327576l1.6366577 -0.11376953l0.3288269 4.7542725q0.9548645 -1.366394 2.5603638 -1.4780273q0.88848877 -0.061767578 1.708252 0.24151611q0.81973267 0.30322266 1.3793945 0.92211914q0.55859375 0.60339355 0.902771 1.50354q0.35977173 0.8991089 0.43200684 1.9434814q0.17141724 2.4784546 -0.9661865 3.920166q-1.1220093 1.4406738 -2.8522034 1.5609741q-1.6990356 0.11810303 -2.7802124 -1.2476807l0.08407593 1.2158203zm-0.35409546 -4.8934326q0.119659424 1.7302246 0.6567688 2.4760132q0.85110474 1.2095337 2.1760254 1.1174316q1.075531 -0.0748291 1.7902222 -1.06427q0.71469116 -0.9894409 0.5874634 -2.8287964q-0.13046265 -1.8861084 -0.9411621 -2.7381592q-0.81073 -0.8521118 -1.886261 -0.77734375q-1.0599365 0.07373047 -1.7902222 1.06427q-0.71469116 0.9894409 -0.5928345 2.7508545z"
         fill-rule="nonzero"
         id="path194" />
    </g>
    <g
       filter="url(#shadowFilter-p.8)"
       id="g199">
      <use
         xlink:href="#p.8"
         transform="matrix(1.0 0.0 0.0 1.0 0.0 6.0)"
         id="use197" />
    </g>
    <defs
       id="defs214">
      <filter
         id="shadowFilter-p.8"
         filterUnits="userSpaceOnUse">
        <feGaussianBlur
           in="SourceAlpha"
           stdDeviation="2.0"
           result="blur"
           id="feGaussianBlur201" />
        <feComponentTransfer
           in="blur"
           color-interpolation-filters="sRGB"
           id="feComponentTransfer211">
          <feFuncR
             type="linear"
             slope="0"
             intercept="0.0"
             id="feFuncR203" />
          <feFuncG
             type="linear"
             slope="0"
             intercept="0.0"
             id="feFuncG205" />
          <feFuncB
             type="linear"
             slope="0"
             intercept="0.0"
             id="feFuncB207" />
          <feFuncA
             type="linear"
             slope="0.5"
             intercept="0"
             id="feFuncA209" />
        </feComponentTransfer>
      </filter>
    </defs>
    <g
       id="p.8">
      <path
         fill="#efefef"
         d="m433.4453 514.45355l108.72443 -7.559021l3.77948 54.645447l-10.173157 11.689209l-97.79532 6.7991943z"
         fill-rule="evenodd"
         id="path216" />
      <path
         fill="#bfbfbf"
         d="m535.77606 573.2292l1.5811157 -8.895447l8.592041 -2.7937622z"
         fill-rule="evenodd"
         id="path218" />
      <path
         fill="#000000"
         fill-opacity="0.0"
         d="m535.77606 573.2292l1.5811157 -8.895447l8.592041 -2.7937622l-10.173157 11.689209l-97.79532 6.7991943l-4.535431 -65.57483l108.72443 -7.559021l3.77948 54.645447"
         fill-rule="evenodd"
         id="path220" />
      <path
         stroke="#0000ff"
         stroke-width="2.0"
         stroke-linejoin="round"
         stroke-linecap="butt"
         d="m535.77606 573.2292l1.5811157 -8.895447l8.592041 -2.7937622l-10.173157 11.689209l-97.79532 6.7991943l-4.535431 -65.57483l108.72443 -7.559021l3.77948 54.645447"
         fill-rule="evenodd"
         id="path222" />
      <path
         fill="#000000"
         d="m471.7583 544.9903q-0.8668213 0.8277588 -1.6858826 1.213623q-0.80459595 0.36920166 -1.7709961 0.43640137q-1.5899048 0.11053467 -2.5011292 -0.6092529q-0.91119385 -0.7197876 -0.9942322 -1.920044q-0.049591064 -0.717041 0.237854 -1.3165283q0.28637695 -0.6151123 0.7770386 -0.99383545q0.505188 -0.3953247 1.1469116 -0.6279297q0.45898438 -0.15716553 1.432373 -0.3501587q1.9634094 -0.37145996 2.8760376 -0.76379395q-0.008148193 -0.34405518 -0.013549805 -0.42199707q-0.069000244 -0.9976196 -0.56570435 -1.3859863q-0.6612549 -0.50219727 -1.9082336 -0.41552734q-1.1534729 0.080200195 -1.67099 0.5234375q-0.5175171 0.44317627 -0.71243286 1.4748535l-1.6206055 -0.10662842q0.14816284 -1.0283813 0.6038208 -1.6865845q0.45458984 -0.6737671 1.3817139 -1.0827637q0.927124 -0.40905762 2.1585083 -0.49468994q1.2469788 -0.08666992 2.03125 0.15637207q0.7987976 0.2263794 1.1885681 0.6535034q0.40426636 0.41046143 0.59091187 1.0709839q0.107055664 0.4154663 0.18252563 1.5065918l0.15093994 2.182312q0.15740967 2.2758179 0.30856323 2.8761597q0.15008545 0.5847168 0.4850464 1.1253052l-1.6990356 0.11810303q-0.30056763 -0.49597168 -0.40927124 -1.1619263zm-0.39364624 -3.6533813q-0.86257935 0.4359131 -2.6223145 0.8088379q-1.003479 0.2107544 -1.411377 0.427063q-0.40792847 0.2163086 -0.6180115 0.5755005q-0.19451904 0.35809326 -0.16433716 0.79455566q0.045288086 0.6546631 0.5742798 1.0564575q0.5289612 0.40179443 1.4797974 0.33569336q0.9352417 -0.06506348 1.6398315 -0.52124023q0.7190857 -0.4729004 1.0124207 -1.2138062q0.22616577 -0.5795288 0.15176392 -1.6550903l-0.042053223 -0.6079712zm4.5134277 4.557312l-0.6673584 -9.648804l1.4652405 -0.101867676l0.10131836 1.465271q0.48999023 -1.06781 0.93499756 -1.4276733q0.46054077 -0.3609619 1.0372925 -0.401062q0.82611084 -0.057434082 1.7200928 0.41296387l-0.4565735 1.5510254q-0.63272095 -0.31622314 -1.2250366 -0.27508545q-0.5455322 0.037963867 -0.9437561 0.39453125q-0.39822388 0.35662842 -0.5464783 0.93078613q-0.22018433 0.892395 -0.14794922 1.9368286l0.3493042 5.050415l-1.6210938 0.1126709zm6.213318 -0.4319458l-0.6673584 -9.648804l1.46521 -0.101867676l0.09487915 1.3717041q0.9499817 -1.6636353 2.9607544 -1.8034668q0.8728943 -0.060668945 1.6270447 0.20013428q0.7541809 0.26086426 1.1482544 0.7503052q0.40859985 0.47277832 0.5974121 1.1644897q0.12478638 0.44555664 0.20349121 1.583435l0.4107666 5.938965l-1.6366882 0.11376953l-0.4064331 -5.876587q-0.069000244 -0.9976196 -0.3050537 -1.4667358q-0.22155762 -0.4857788 -0.72525024 -0.74835205q-0.5036926 -0.26257324 -1.1583557 -0.21710205q-1.0443726 0.072631836 -1.7617798 0.7960205q-0.7029114 0.70666504 -0.5746155 2.5616455l0.36437988 5.2686768l-1.6366577 0.11376953zm10.802765 -0.7510376l-0.12936401 -1.8705444l1.8704834 -0.13006592l0.12936401 1.8705444l-1.8704834 0.13006592zm4.974304 3.366211l-0.9228821 -13.34314l1.4808044 -0.10296631l0.086242676 1.2470093q0.47930908 -0.7694702 1.1091919 -1.1734619q0.64437866 -0.42071533 1.5952148 -0.4868164q1.2313843 -0.085632324 2.210846 0.48846436q0.9939575 0.55737305 1.5580139 1.6928711q0.5629883 1.1199341 0.65893555 2.5072021q0.10241699 1.480835 -0.34561157 2.7023926q-0.44802856 1.2214966 -1.4170227 1.9310303q-0.97003174 0.6939697 -2.0923157 0.77197266q-0.8105469 0.05633545 -1.4889526 -0.24102783q-0.67837524 -0.29742432 -1.1203003 -0.7992554l0.3244934 4.6918945l-1.6366577 0.11383057zm0.89538574 -8.567139q0.1282959 1.8549805 0.9390259 2.7070312q0.82522583 0.8353882 1.8851624 0.76171875q1.0911255 -0.0758667 1.8068848 -1.0497437q0.71466064 -0.9894409 0.58099365 -2.9223022q-0.12722778 -1.8393555 -0.95462036 -2.7059326q-0.8117981 -0.8676758 -1.8717346 -0.79400635q-1.0443726 0.072631836 -1.7869873 1.111023q-0.7281189 1.0216675 -0.59872437 2.892212zm9.378479 7.868469l-0.2926941 -1.5145874q0.55526733 0.10235596 0.9449463 0.07525635q0.54556274 -0.037902832 0.85995483 -0.2477417q0.3154602 -0.19421387 0.51104736 -0.5366821q0.13861084 -0.2602539 0.41470337 -1.2505493q0.03704834 -0.14355469 0.11224365 -0.41503906l-4.3314514 -9.409729l1.761383 -0.12249756l2.3967285 5.440674q0.4640808 1.0484619 0.85668945 2.1958618q0.2029419 -1.1418457 0.518219 -2.2445068l1.68396 -5.7713013l1.6366577 -0.11376953l-3.0004883 10.060425q-0.48129272 1.6467285 -0.76763916 2.2618408q-0.3804016 0.84088135 -0.9156494 1.2540283q-0.5352783 0.41308594 -1.3146667 0.46728516q-0.4831848 0.03363037 -1.0739441 -0.12896729z"
         fill-rule="nonzero"
         id="path224" />
    </g>
    <g
       filter="url(#shadowFilter-p.9)"
       id="g229">
      <use
         xlink:href="#p.9"
         transform="matrix(1.0 0.0 0.0 1.0 0.0 6.0)"
         id="use227" />
    </g>
    <defs
       id="defs244">
      <filter
         id="shadowFilter-p.9"
         filterUnits="userSpaceOnUse">
        <feGaussianBlur
           in="SourceAlpha"
           stdDeviation="2.0"
           result="blur"
           id="feGaussianBlur231" />
        <feComponentTransfer
           in="blur"
           color-interpolation-filters="sRGB"
           id="feComponentTransfer241">
          <feFuncR
             type="linear"
             slope="0"
             intercept="0.0"
             id="feFuncR233" />
          <feFuncG
             type="linear"
             slope="0"
             intercept="0.0"
             id="feFuncG235" />
          <feFuncB
             type="linear"
             slope="0"
             intercept="0.0"
             id="feFuncB237" />
          <feFuncA
             type="linear"
             slope="0.5"
             intercept="0"
             id="feFuncA239" />
        </feComponentTransfer>
      </filter>
    </defs>
    <g
       id="p.9">
      <path
         fill="#efefef"
         d="m582.1923 504.0522l108.72443 -7.559082l3.77948 54.645447l-10.173157 11.689209l-97.79535 6.7991943z"
         fill-rule="evenodd"
         id="path246" />
      <path
         fill="#bfbfbf"
         d="m684.5231 562.82776l1.5811157 -8.895447l8.592041 -2.7937622z"
         fill-rule="evenodd"
         id="path248" />
      <path
         fill="#000000"
         fill-opacity="0.0"
         d="m684.5231 562.82776l1.5811157 -8.895447l8.592041 -2.7937622l-10.173157 11.689209l-97.79535 6.7991943l-4.5354004 -65.57477l108.72443 -7.559082l3.77948 54.645447"
         fill-rule="evenodd"
         id="path250" />
      <path
         stroke="#0000ff"
         stroke-width="2.0"
         stroke-linejoin="round"
         stroke-linecap="butt"
         d="m684.5231 562.82776l1.5811157 -8.895447l8.592041 -2.7937622l-10.173157 11.689209l-97.79535 6.7991943l-4.5354004 -65.57477l108.72443 -7.559082l3.77948 54.645447"
         fill-rule="evenodd"
         id="path252" />
      <path
         fill="#000000"
         d="m618.42883 534.7333q-0.8668213 0.8277588 -1.6859131 1.213623q-0.8045654 0.36920166 -1.7709961 0.43634033q-1.5899048 0.11053467 -2.5010986 -0.6091919q-0.9112549 -0.7197876 -0.9942627 -1.920044q-0.049560547 -0.717041 0.237854 -1.3165894q0.28637695 -0.61505127 0.7770386 -0.9937744q0.505188 -0.39538574 1.1469116 -0.6279297q0.45898438 -0.15722656 1.432373 -0.3501587q1.96344 -0.37145996 2.8760376 -0.763855q-0.008117676 -0.34399414 -0.013549805 -0.42193604q-0.06896973 -0.9976196 -0.56573486 -1.3859863q-0.66119385 -0.50219727 -1.9082031 -0.41552734q-1.1534424 0.080200195 -1.6709595 0.5234375q-0.5175781 0.44317627 -0.7124634 1.4747925l-1.6206055 -0.10656738q0.14813232 -1.0283813 0.6038208 -1.6865845q0.45458984 -0.6737671 1.3817139 -1.0828247q0.927124 -0.40899658 2.1585083 -0.4946289q1.2470093 -0.08673096 2.03125 0.15637207q0.7987671 0.2263794 1.1885376 0.6535034q0.40429688 0.41046143 0.5909424 1.0709839q0.107055664 0.4154663 0.18249512 1.5065918l0.15093994 2.182251q0.15740967 2.2758179 0.30859375 2.8761597q0.15008545 0.58477783 0.4850464 1.1253052l-1.6990356 0.11816406q-0.3005371 -0.49597168 -0.40924072 -1.1619263zm-0.39367676 -3.6533813q-0.86260986 0.4359131 -2.6223145 0.8088379q-1.003479 0.2107544 -1.411377 0.427063q-0.40795898 0.2163086 -0.618042 0.5755005q-0.19445801 0.35809326 -0.16430664 0.79455566q0.045288086 0.6546631 0.5742798 1.0564575q0.5289917 0.40179443 1.4797974 0.33569336q0.9352417 -0.06506348 1.6398315 -0.52124023q0.7190552 -0.4729004 1.0123901 -1.2138062q0.22619629 -0.57958984 0.15179443 -1.6551514l-0.042053223 -0.60791016zm10.779541 4.121643l-0.08404541 -1.2158203q-0.80493164 1.4969482 -2.5974731 1.621582q-1.1534424 0.080200195 -2.1640625 -0.49176025q-1.0106201 -0.5718994 -1.6193237 -1.6729736q-0.6086426 -1.1010132 -0.7110596 -2.5818481q-0.10028076 -1.449707 0.302063 -2.6523438q0.40130615 -1.2182617 1.309021 -1.907898q0.9232788 -0.6906738 2.1234741 -0.7741699q0.8729248 -0.060668945 1.5690308 0.2668457q0.7106323 0.31085205 1.1724854 0.87390137l-0.33099365 -4.7854614l1.6366577 -0.11376953l0.92181396 13.327515l-1.5275879 0.10620117zm-5.4925537 -4.4578857q0.1282959 1.8549194 0.9713135 2.720459q0.84295654 0.8654785 1.9028931 0.7918091q1.0755615 -0.0748291 1.7633667 -0.99975586q0.68670654 -0.9404907 0.56274414 -2.7330933q-0.13690186 -1.9796753 -0.96429443 -2.8462524q-0.8284912 -0.8821411 -1.9508057 -0.8041382q-1.0755005 0.0748291 -1.7466431 1.0142212q-0.6711426 0.9394531 -0.5385742 2.8567505zm9.592773 4.1728516l-0.6673584 -9.648804l1.46521 -0.101867676l0.09490967 1.3717041q0.9499512 -1.6636353 2.9606934 -1.8034668q0.8729248 -0.060668945 1.6270752 0.20013428q0.7541504 0.26086426 1.1482544 0.7503052q0.40863037 0.47277832 0.5974121 1.1644897q0.12475586 0.44555664 0.20349121 1.583435l0.4107666 5.938965l-1.6366577 0.11376953l-0.40649414 -5.876587q-0.06896973 -0.9976196 -0.3050537 -1.4667358q-0.22155762 -0.4857788 -0.7252197 -0.74835205q-0.50372314 -0.26257324 -1.1583862 -0.21710205q-1.0443115 0.072631836 -1.7617798 0.7960205q-0.70288086 0.70666504 -0.57458496 2.5616455l0.36437988 5.2686768l-1.6366577 0.11376953zm10.802734 -0.7510376l-0.1293335 -1.8705444l1.8704834 -0.13006592l0.1293335 1.8705444l-1.8704834 0.13006592zm4.974304 3.366211l-0.92285156 -13.34314l1.480835 -0.10296631l0.086242676 1.2470093q0.47930908 -0.7694702 1.1091309 -1.1734619q0.6444092 -0.42071533 1.5952148 -0.4868164q1.2314453 -0.085632324 2.2108765 0.48846436q0.9939575 0.55737305 1.5580444 1.6928711q0.5629883 1.1199341 0.65893555 2.5072021q0.10241699 1.480835 -0.3456421 2.7023926q-0.44805908 1.2214966 -1.4169922 1.9310303q-0.9700928 0.6939697 -2.0923462 0.77197266q-0.8105469 0.05633545 -1.4889526 -0.24102783q-0.67840576 -0.29742432 -1.1203003 -0.7992554l0.32452393 4.6918945l-1.6367188 0.11383057zm0.89538574 -8.567139q0.1282959 1.8549805 0.9390259 2.7070312q0.82525635 0.8353882 1.8851929 0.76171875q1.0911255 -0.0758667 1.8068848 -1.0497437q0.71466064 -0.9894409 0.58099365 -2.9223022q-0.12719727 -1.8393555 -0.95458984 -2.7059326q-0.8118286 -0.8676758 -1.8717651 -0.79400635q-1.0443726 0.072631836 -1.7869873 1.111023q-0.7280884 1.0217285 -0.5987549 2.892212zm9.37854 7.868469l-0.2927246 -1.5145874q0.5552368 0.10235596 0.9449463 0.07531738q0.5455322 -0.037963867 0.8599243 -0.2477417q0.31549072 -0.1942749 0.5111084 -0.53674316q0.13861084 -0.2602539 0.41467285 -1.2505493q0.03704834 -0.14355469 0.11224365 -0.41503906l-4.331421 -9.409729l1.7613525 -0.12243652l2.3967285 5.440613q0.4640503 1.0484619 0.85668945 2.1958618q0.2029419 -1.1418457 0.5182495 -2.2445068l1.6838989 -5.7713013l1.6366577 -0.11376953l-3.0004883 10.060425q-0.4812622 1.6467285 -0.76763916 2.2618408q-0.3803711 0.84088135 -0.9156494 1.2540283q-0.5352783 0.41308594 -1.3146362 0.46728516q-0.48321533 0.03363037 -1.0739136 -0.12896729z"
         fill-rule="nonzero"
         id="path254" />
    </g>
    <g
       filter="url(#shadowFilter-p.10)"
       id="g259">
      <use
         xlink:href="#p.10"
         transform="matrix(1.0 0.0 0.0 1.0 0.0 6.0)"
         id="use257" />
    </g>
    <defs
       id="defs274">
      <filter
         id="shadowFilter-p.10"
         filterUnits="userSpaceOnUse">
        <feGaussianBlur
           in="SourceAlpha"
           stdDeviation="2.0"
           result="blur"
           id="feGaussianBlur261" />
        <feComponentTransfer
           in="blur"
           color-interpolation-filters="sRGB"
           id="feComponentTransfer271">
          <feFuncR
             type="linear"
             slope="0"
             intercept="0.0"
             id="feFuncR263" />
          <feFuncG
             type="linear"
             slope="0"
             intercept="0.0"
             id="feFuncG265" />
          <feFuncB
             type="linear"
             slope="0"
             intercept="0.0"
             id="feFuncB267" />
          <feFuncA
             type="linear"
             slope="0.5"
             intercept="0"
             id="feFuncA269" />
        </feComponentTransfer>
      </filter>
    </defs>
    <g
       id="p.10">
      <path
         fill="#efefef"
         d="m738.4792 450.6459l108.724365 -7.5590515l3.779541 54.645447l-10.173157 11.689209l-97.79535 6.7991943z"
         fill-rule="evenodd"
         id="path276" />
      <path
         fill="#bfbfbf"
         d="m840.80994 509.4215l1.5810547 -8.895447l8.592102 -2.7937622z"
         fill-rule="evenodd"
         id="path278" />
      <path
         fill="#000000"
         fill-opacity="0.0"
         d="m840.80994 509.4215l1.5810547 -8.895447l8.592102 -2.7937622l-10.173157 11.689209l-97.79535 6.7991943l-4.5354004 -65.5748l108.724365 -7.5590515l3.779541 54.645447"
         fill-rule="evenodd"
         id="path280" />
      <path
         stroke="#0000ff"
         stroke-width="2.0"
         stroke-linejoin="round"
         stroke-linecap="butt"
         d="m840.80994 509.4215l1.5810547 -8.895447l8.592102 -2.7937622l-10.173157 11.689209l-97.79535 6.7991943l-4.5354004 -65.5748l108.724365 -7.5590515l3.779541 54.645447"
         fill-rule="evenodd"
         id="path282" />
      <path
         fill="#000000"
         d="m783.89355 481.8793l-0.5800171 -8.38623l-1.449646 0.10079956l-0.08734131 -1.2626343l1.449646 -0.10076904l-0.07116699 -1.0288086q-0.066833496 -0.96643066 0.07122803 -1.4615784q0.1895752 -0.6553345 0.75494385 -1.0862122q0.56536865 -0.4308777 1.6409302 -0.50564575q0.685791 -0.047698975 1.5383301 0.0496521l-0.15020752 1.451416q-0.50531006 -0.05883789 -0.9573364 -0.027404785q-0.74816895 0.052001953 -1.0372925 0.4010315q-0.29016113 0.33343506 -0.22979736 1.2063293l0.061462402 0.8885193l1.8860474 -0.13113403l0.08734131 1.2626038l-1.8860474 0.13113403l0.5800171 8.3862l-1.6210938 0.11273193zm3.8389893 -5.1223755q-0.1854248 -2.6810913 1.2069702 -4.0622253q1.1726074 -1.162262 2.965149 -1.2868958q1.9951782 -0.1387024 3.3483276 1.0828857q1.3520508 1.2059937 1.5115967 3.5130005q0.1282959 1.85495 -0.35845947 2.969513q-0.48779297 1.0989685 -1.5223389 1.7660828q-1.0189819 0.66604614 -2.2815552 0.7538147q-2.0263672 0.14086914 -3.362854 -1.0662231q-1.3375244 -1.2226562 -1.5068359 -3.6699524zm1.6834717 -0.11703491q0.1282959 1.85495 0.98791504 2.7349548q0.8741455 0.86331177 2.1055298 0.77770996q1.2158203 -0.08453369 1.9627686 -1.0605774q0.7458496 -0.99160767 0.61431885 -2.8933105q-0.1239624 -1.7926025 -0.9981079 -2.6559143q-0.8741455 -0.8633423 -2.0899658 -0.7788086q-1.2313843 0.085632324 -1.9783325 1.0616455q-0.7324219 0.9593506 -0.604126 2.8143005zm8.667297 -0.6026001q-0.18548584 -2.6810913 1.2069092 -4.0622253q1.1726074 -1.162262 2.965149 -1.2868958q1.9952393 -0.1387024 3.3483276 1.0828857q1.3521118 1.2059937 1.5116577 3.5130005q0.1282959 1.85495 -0.35845947 2.969513q-0.487854 1.0989685 -1.5223999 1.7660828q-1.0189819 0.66604614 -2.2815552 0.7538147q-2.0263672 0.14086914 -3.362854 -1.0661926q-1.3375244 -1.2226868 -1.5067749 -3.669983zm1.6834106 -0.11703491q0.1282959 1.85495 0.98791504 2.7349548q0.87420654 0.86331177 2.1055908 0.77770996q1.2158203 -0.08453369 1.9627686 -1.0605774q0.7458496 -0.99160767 0.61431885 -2.8933105q-0.12402344 -1.7926025 -0.99816895 -2.6559143q-0.8741455 -0.8633423 -2.0899658 -0.7788086q-1.2313843 0.085632324 -1.9783325 1.0616455q-0.7324219 0.9593811 -0.604126 2.8143005z"
         fill-rule="nonzero"
         id="path284" />
    </g>
    <g
       filter="url(#shadowFilter-p.11)"
       id="g289">
      <use
         xlink:href="#p.11"
         transform="matrix(1.0 0.0 0.0 1.0 0.0 6.0)"
         id="use287" />
    </g>
    <defs
       id="defs304">
      <filter
         id="shadowFilter-p.11"
         filterUnits="userSpaceOnUse">
        <feGaussianBlur
           in="SourceAlpha"
           stdDeviation="2.0"
           result="blur"
           id="feGaussianBlur291" />
        <feComponentTransfer
           in="blur"
           color-interpolation-filters="sRGB"
           id="feComponentTransfer301">
          <feFuncR
             type="linear"
             slope="0"
             intercept="0.0"
             id="feFuncR293" />
          <feFuncG
             type="linear"
             slope="0"
             intercept="0.0"
             id="feFuncG295" />
          <feFuncB
             type="linear"
             slope="0"
             intercept="0.0"
             id="feFuncB297" />
          <feFuncA
             type="linear"
             slope="0.5"
             intercept="0"
             id="feFuncA299" />
        </feComponentTransfer>
      </filter>
    </defs>
    <g
       id="p.11">
      <path
         fill="#efefef"
         d="m826.30927 363.5716l104.37793 -7.338562l3.779541 54.645447l-10.172546 11.697693l-93.449524 6.570221z"
         fill-rule="evenodd"
         id="path306" />
      <path
         fill="#bfbfbf"
         d="m924.2942 422.57617l1.5809326 -8.897156l8.591614 -2.800537z"
         fill-rule="evenodd"
         id="path308" />
      <path
         fill="#000000"
         fill-opacity="0.0"
         d="m924.2942 422.57617l1.5809326 -8.897156l8.591614 -2.800537l-10.172546 11.697693l-93.449524 6.570221l-4.5354004 -65.5748l104.37793 -7.338562l3.779541 54.645447"
         fill-rule="evenodd"
         id="path310" />
      <path
         stroke="#0000ff"
         stroke-width="2.0"
         stroke-linejoin="round"
         stroke-linecap="butt"
         d="m924.2942 422.57617l1.5809326 -8.897156l8.591614 -2.800537l-10.172546 11.697693l-93.449524 6.570221l-4.5354004 -65.5748l104.37793 -7.338562l3.779541 54.645447"
         fill-rule="evenodd"
         id="path312" />
      <path
         fill="#000000"
         d="m870.1442 394.88232l-1.5118408 0.106292725l-0.92181396 -13.327545l1.6365967 -0.11505127l0.3287964 4.7542725q0.954834 -1.367218 2.5602417 -1.480072q0.88842773 -0.062469482 1.7081299 0.24014282q0.81970215 0.30264282 1.3793335 0.9211731q0.55859375 0.6029358 0.902771 1.5028687q0.3597412 0.89886475 0.4319458 1.9432373q0.17144775 2.4784546 -0.9661255 3.921173q-1.1219482 1.4416199 -2.8520508 1.5632629q-1.6989136 0.1194458 -2.7800293 -1.2456055l0.08404541 1.2158508zm-0.35406494 -4.893463q0.119628906 1.7302551 0.6567383 2.4756775q0.8510742 1.2088928 2.1759033 1.1157532q1.0755005 -0.07562256 1.7901001 -1.0656738q0.71466064 -0.99005127 0.5874634 -2.8294067q-0.13049316 -1.8861389 -0.9411621 -2.7376099q-0.81066895 -0.85150146 -1.8861694 -0.7758789q-1.0598755 0.074523926 -1.7901001 1.0656738q-0.7145996 0.99005127 -0.59277344 2.7514648zm15.422974 2.6435852q-0.86676025 0.8284607 -1.685791 1.2149658q-0.8045654 0.36984253 -1.770935 0.43777466q-1.5897827 0.11178589 -2.5009766 -0.6073303q-0.9111328 -0.7191162 -0.9941406 -1.9193726q-0.049621582 -0.717041 0.23779297 -1.316803q0.28637695 -0.61535645 0.77697754 -0.9944458q0.505188 -0.39578247 1.1468506 -0.6288452q0.45898438 -0.15759277 1.432312 -0.35131836q1.9633179 -0.37298584 2.8758545 -0.76608276q-0.008117676 -0.34402466 -0.0134887695 -0.42196655q-0.06903076 -0.9976196 -0.56573486 -1.3856201q-0.66119385 -0.5017395 -1.908081 -0.4140625q-1.1534424 0.081085205 -1.6708984 0.52471924q-0.5175171 0.44363403 -0.71240234 1.4754639l-1.6205444 -0.10534668q0.14813232 -1.0285339 0.6038208 -1.6871338q0.4545288 -0.6741638 1.3815918 -1.0839233q0.927063 -0.40979004 2.1583862 -0.4963684q1.2469482 -0.087646484 2.031189 0.15481567q0.79870605 0.22576904 1.1884766 0.6526184q0.40423584 0.41015625 0.59088135 1.0705872q0.107055664 0.41537476 0.18249512 1.5065308l0.15093994 2.1822815q0.15740967 2.2758179 0.30859375 2.876068q0.15008545 0.58465576 0.4850464 1.125l-1.6989746 0.1194458q-0.3005371 -0.49575806 -0.40924072 -1.1616516zm-0.39361572 -3.6532593q-0.8625488 0.43655396 -2.6221924 0.81088257q-1.003418 0.21151733 -1.4113159 0.42816162q-0.40789795 0.21664429 -0.61798096 0.5760193q-0.19451904 0.35827637 -0.16430664 0.79473877q0.045288086 0.6546631 0.57421875 1.0560608q0.5289917 0.4013977 1.4797363 0.3345642q0.93518066 -0.06576538 1.6397705 -0.5225525q0.71899414 -0.47348022 1.0123291 -1.2146301q0.22613525 -0.57977295 0.15179443 -1.6553345l-0.042053223 -0.60791016zm4.5131836 4.5540466l-0.6673584 -9.648834l1.4651489 -0.102996826l0.10131836 1.4652405q0.48999023 -1.0682373 0.9349365 -1.4284668q0.46051025 -0.3612976 1.0372314 -0.40185547q0.82611084 -0.05807495 1.7199707 0.4116211l-0.45648193 1.5514832q-0.6326904 -0.3157959 -1.2249756 -0.2741394q-0.5455322 0.038360596 -0.9437256 0.39526367q-0.39819336 0.3569336 -0.54644775 0.9312439q-0.22015381 0.89263916 -0.14794922 1.9370422l0.3493042 5.050415l-1.6209717 0.113983154z"
         fill-rule="nonzero"
         id="path314" />
    </g>
    <path
       fill="#000000"
       fill-opacity="0.0"
       d="m417.98688 119.75328c0 20.207962 -30.46457 30.313553 -60.92914 40.41591c-30.46457 10.102371 -60.92914 20.201492 -60.92914 40.402985"
       fill-rule="evenodd"
       id="path317" />
    <path
       stroke="#0000ff"
       stroke-width="2.0"
       stroke-linejoin="round"
       stroke-linecap="butt"
       d="m417.98688 119.75328c0 20.207962 -30.46457 30.313553 -60.92914 40.41591c-30.46457 10.102371 -60.92914 20.201492 -60.92914 40.402985"
       fill-rule="evenodd"
       id="path319" />
    <path
       fill="#000000"
       fill-opacity="0.0"
       d="m296.11548 266.2861c0 37.53842 -44.18109 56.309143 -88.3622 75.07687c-44.181107 18.7677 -88.362206 37.53241 -88.362206 75.06485"
       fill-rule="evenodd"
       id="path321" />
    <path
       stroke="#0000ff"
       stroke-width="2.0"
       stroke-linejoin="round"
       stroke-linecap="butt"
       d="m296.11548 266.2861c0 37.53842 -44.18109 56.309143 -88.3622 75.07687c-44.181107 18.7677 -88.362206 37.53241 -88.362206 75.06485"
       fill-rule="evenodd"
       id="path323" />
    <path
       fill="#000000"
       fill-opacity="0.0"
       d="m296.11548 266.2861c0 27.127594 21.346466 40.69223 42.692932 54.25522c21.346436 13.562988 42.6929 27.12436 42.6929 54.24872"
       fill-rule="evenodd"
       id="path325" />
    <path
       stroke="#0000ff"
       stroke-width="2.0"
       stroke-linejoin="round"
       stroke-linecap="butt"
       d="m296.11548 266.2861c0 27.127594 21.346466 40.69223 42.692932 54.25522c21.346436 13.562988 42.6929 27.12436 42.6929 54.24872"
       fill-rule="evenodd"
       id="path327" />
    <path
       fill="#000000"
       fill-opacity="0.0"
       d="m296.11548 266.2861c0 10.8090515 68.81891 16.212616 137.63782 21.618134c68.81888 5.4055176 137.63776 10.812988 137.63776 21.625946"
       fill-rule="evenodd"
       id="path329" />
    <path
       stroke="#0000ff"
       stroke-width="2.0"
       stroke-linejoin="round"
       stroke-linecap="butt"
       d="m296.11548 266.2861c0 10.8090515 68.81891 16.212616 137.63782 21.618134c68.81888 5.4055176 137.63776 10.812988 137.63776 21.625946"
       fill-rule="evenodd"
       id="path331" />
    <path
       fill="#000000"
       fill-opacity="0.0"
       d="m119.38845 482.14172c0 14.404816 9.173225 21.136383 18.346458 28.8096c9.173233 7.6732483 18.34645 16.288116 18.34645 32.576263"
       fill-rule="evenodd"
       id="path333" />
    <path
       stroke="#0000ff"
       stroke-width="2.0"
       stroke-linejoin="round"
       stroke-linecap="butt"
       d="m119.38845 482.14172c0 14.404816 9.173225 21.136383 18.346458 28.8096c9.173233 7.6732483 18.34645 16.288116 18.34645 32.576263"
       fill-rule="evenodd"
       id="path335" />
    <path
       fill="#000000"
       fill-opacity="0.0"
       d="m119.38845 482.14172c0 11.804443 46.362206 17.234833 92.7244 23.608856c46.362213 6.373993 92.72443 13.69162 92.72443 27.38327"
       fill-rule="evenodd"
       id="path337" />
    <path
       stroke="#0000ff"
       stroke-width="2.0"
       stroke-linejoin="round"
       stroke-linecap="butt"
       d="m119.38845 482.14172c0 11.804443 46.362206 17.234833 92.7244 23.608856c46.362213 6.373993 92.72443 13.69162 92.72443 27.38327"
       fill-rule="evenodd"
       id="path339" />
    <path
       fill="#000000"
       fill-opacity="0.0"
       d="m381.48557 440.49606c0 16.599823 26.582672 24.428009 53.165344 33.199646c26.582672 8.7716675 53.165375 18.486786 53.165375 36.97357"
       fill-rule="evenodd"
       id="path341" />
    <path
       stroke="#0000ff"
       stroke-width="2.0"
       stroke-linejoin="round"
       stroke-linecap="butt"
       d="m381.48557 440.49606c0 16.599823 26.582672 24.428009 53.165344 33.199646c26.582672 8.7716675 53.165375 18.486786 53.165375 36.97357"
       fill-rule="evenodd"
       id="path343" />
    <path
       fill="#000000"
       fill-opacity="0.0"
       d="m381.48557 440.49606c0 13.999176 63.763763 20.52591 127.52756 27.998352c63.763794 7.4724426 127.52759 15.8905945 127.52759 31.781189"
       fill-rule="evenodd"
       id="path345" />
    <path
       stroke="#0000ff"
       stroke-width="2.0"
       stroke-linejoin="round"
       stroke-linecap="butt"
       d="m381.48557 440.49606c0 13.999176 63.763763 20.52591 127.52756 27.998352c63.763794 7.4724426 127.52759 15.8905945 127.52759 31.781189"
       fill-rule="evenodd"
       id="path347" />
    <path
       fill="#000000"
       fill-opacity="0.0"
       d="m571.3989 375.22308c0 16.966125 55.362244 24.975586 110.72443 33.93225c55.362183 8.956696 110.72443 18.860657 110.72443 37.721313"
       fill-rule="evenodd"
       id="path349" />
    <path
       stroke="#0000ff"
       stroke-width="2.0"
       stroke-linejoin="round"
       stroke-linecap="butt"
       d="m571.3989 375.22308c0 16.966125 55.362244 24.975586 110.72443 33.93225c55.362183 8.956696 110.72443 18.860657 110.72443 37.721313"
       fill-rule="evenodd"
       id="path351" />
    <path
       fill="#000000"
       fill-opacity="0.0"
       d="m571.3989 375.22308c0 12.500092 43.88257 26.3237 76.79779 25.000153c32.91516 -1.3235474 54.862976 -17.79425 76.79773 -34.495117c21.934753 -16.700897 43.856506 -33.631958 76.745544 -34.495148c32.8891 -0.8631897 76.745544 14.341522 76.745544 28.683044"
       fill-rule="evenodd"
       id="path353" />
    <path
       stroke="#0000ff"
       stroke-width="2.0"
       stroke-linejoin="round"
       stroke-linecap="butt"
       d="m571.3989 375.22308c0 12.500092 43.88257 26.3237 76.79779 25.000153c32.91516 -1.3235474 54.862976 -17.79425 76.79773 -34.495117c21.934753 -16.700897 43.856506 -33.631958 76.745544 -34.495148c32.8891 -0.8631897 76.745544 14.341522 76.745544 28.683044"
       fill-rule="evenodd"
       id="path355" />
    <g
       filter="url(#shadowFilter-p.12)"
       id="g359">
      <use
         xlink:href="#p.12"
         transform="matrix(1.0 0.0 0.0 1.0 0.0 6.0)"
         id="use357" />
    </g>
    <defs
       id="defs374">
      <filter
         id="shadowFilter-p.12"
         filterUnits="userSpaceOnUse">
        <feGaussianBlur
           in="SourceAlpha"
           stdDeviation="2.0"
           result="blur"
           id="feGaussianBlur361" />
        <feComponentTransfer
           in="blur"
           color-interpolation-filters="sRGB"
           id="feComponentTransfer371">
          <feFuncR
             type="linear"
             slope="0"
             intercept="0.0"
             id="feFuncR363" />
          <feFuncG
             type="linear"
             slope="0"
             intercept="0.0"
             id="feFuncG365" />
          <feFuncB
             type="linear"
             slope="0"
             intercept="0.0"
             id="feFuncB367" />
          <feFuncA
             type="linear"
             slope="0.5"
             intercept="0"
             id="feFuncA369" />
        </feComponentTransfer>
      </filter>
    </defs>
    <g
       id="p.12">
      <path
         fill="#efefef"
         d="m33.748043 305.00638l114.77165 -8.031494l3.7795105 54.645447l-10.172821 11.694122l-103.84291 7.2667236z"
         fill-rule="evenodd"
         id="path376" />
      <path
         fill="#bfbfbf"
         d="m142.12639 363.31445l1.5810089 -8.896423l8.591812 -2.797699z"
         fill-rule="evenodd"
         id="path378" />
      <path
         fill="#000000"
         fill-opacity="0.0"
         d="m142.12639 363.31445l1.5810089 -8.896423l8.591812 -2.797699l-10.172821 11.694122l-103.84291 7.2667236l-4.535431 -65.5748l114.77165 -8.031494l3.7795105 54.645447"
         fill-rule="evenodd"
         id="path380" />
      <path
         stroke="#0000ff"
         stroke-width="2.0"
         stroke-linejoin="round"
         stroke-linecap="butt"
         d="m142.12639 363.31445l1.5810089 -8.896423l8.591812 -2.797699l-10.172821 11.694122l-103.84291 7.2667236l-4.535431 -65.5748l114.77165 -8.031494l3.7795105 54.645447"
         fill-rule="evenodd"
         id="path382" />
      <path
         fill="#000000"
         d="m47.653885 338.42517l-0.6673546 -9.648834l1.4651642 -0.10253906l0.10134506 1.465271q0.48997116 -1.0680542 0.9349365 -1.4281311q0.46055222 -0.36114502 1.0372696 -0.40151978q0.8261032 -0.057800293 1.7200394 0.41220093l-0.4565506 1.5512695q-0.6326866 -0.315979 -1.224987 -0.27453613q-0.54553986 0.03817749 -0.9437485 0.3949585q-0.3982048 0.35681152 -0.5464325 0.9310608q-0.22019196 0.8925476 -0.14795685 1.9369202l0.349308 5.0504456l-1.6210327 0.11343384zm12.607399 -3.999237l1.6973991 0.084869385q-0.30283737 1.5091858 -1.3211937 2.4105835q-1.0194321 0.88583374 -2.702816 1.0036316q-2.1198158 0.14834595 -3.4562492 -1.0581665q-1.3219261 -1.2232056 -1.4847221 -3.5769653q-0.16926193 -2.4472961 0.9849701 -3.8750916q1.1698189 -1.428894 3.1649399 -1.568512q1.9327736 -0.1352539 3.2401886 1.1046448q1.3219261 1.2232056 1.4868774 3.6081238q0.010784149 0.15588379 0.030189514 0.4364624l-7.2011414 0.50390625q0.20349121 1.5834045 1.0733032 2.3840332q0.86873627 0.78500366 2.0689278 0.7010193q0.9040375 -0.06326294 1.5107574 -0.57562256q0.6056404 -0.5279236 0.90856934 -1.5829163zm-5.560753 -2.27359l5.393059 -0.3774109q-0.19319916 -1.2081909 -0.7496147 -1.7801208q-0.84510803 -0.8963318 -2.09206 -0.80908203q-1.1222534 0.078552246 -1.8487701 0.8968811q-0.71200943 0.80166626 -0.70261383 2.0697327zm15.732033 3.4884033q-0.8667984 0.8281555 -1.685852 1.2144165q-0.80454254 0.36956787 -1.7709274 0.43719482q-1.5898666 0.11123657 -2.5010452 -0.6081543q-0.9111862 -0.71939087 -0.99420166 -1.9196472q-0.04959488 -0.717041 0.23783875 -1.3167114q0.28635406 -0.6152344 0.77700806 -0.9941406q0.5051575 -0.39562988 1.1468658 -0.628479q0.45898438 -0.15744019 1.4323273 -0.3508606q1.9633636 -0.37231445 2.8759384 -0.7651062q-0.008132935 -0.34402466 -0.013519287 -0.42196655q-0.069000244 -0.9976196 -0.5657196 -1.3857727q-0.6612091 -0.5019226 -1.9081573 -0.41467285q-1.1534271 0.080718994 -1.6709366 0.5241699q-0.5175171 0.44345093 -0.71241 1.4752197l-1.6205444 -0.105895996q0.14813614 -1.0284729 0.6037903 -1.6868896q0.4545822 -0.67401123 1.3816605 -1.0834656q0.9270859 -0.40945435 2.1584473 -0.495636q1.2469482 -0.087249756 2.031189 0.15545654q0.79875183 0.2260437 1.1885147 0.65301514q0.404274 0.41027832 0.59091187 1.0707397q0.107048035 0.41540527 0.182518 1.5065613l0.15093231 2.1822815q0.15740204 2.2758179 0.30856323 2.8760986q0.15007019 0.5846863 0.48503876 1.1251221l-1.6989746 0.118896484q-0.30055237 -0.4958496 -0.40925598 -1.1617737zm-0.39364624 -3.6532898q-0.8625717 0.4362793 -2.6222305 0.8100281q-1.0034409 0.21118164 -1.4113541 0.42767334q-0.40790558 0.21652222 -0.6179886 0.57580566q-0.19449615 0.3581848 -0.16431427 0.7946472q0.045280457 0.6546936 0.57424927 1.0562439q0.5289688 0.4015503 1.4797668 0.33502197q0.9352188 -0.06542969 1.6397705 -0.5220032q0.7190552 -0.47320557 1.0123749 -1.2142334q0.22616577 -0.5797119 0.15177917 -1.6552734l-0.042053223 -0.60791016zm10.779228 4.1169434l-0.084098816 -1.2158508q-0.8048477 1.497345 -2.5973434 1.6227722q-1.1534271 0.080718994 -2.1640167 -0.49075317q-1.0105896 -0.57147217 -1.6192474 -1.6723022q-0.60865784 -1.1008301 -0.7110748 -2.581665q-0.1002655 -1.449646 0.30207062 -2.6525574q0.40125275 -1.2184753 1.3089294 -1.9085083q0.92326355 -0.6911316 2.1234512 -0.7751465q0.87286377 -0.061065674 1.5689774 0.2661438q0.71061707 0.31051636 1.172432 0.8734131l-0.3309784 -4.7854614l1.6366196 -0.11453247l0.9217911 13.327545l-1.5275116 0.106903076zm-5.492401 -4.455597q0.1282959 1.85495 0.97125244 2.7200928q0.8429489 0.8651428 1.9028625 0.7909851q1.0754929 -0.075286865 1.7632904 -1.0005493q0.6867142 -0.94085693 0.5627289 -2.7334595q-0.13691711 -1.9796448 -0.9642868 -2.8458557q-0.82844543 -0.88183594 -1.9506989 -0.8032837q-1.0754929 0.07525635 -1.7466278 1.0150146q-0.6711273 0.9397583 -0.5385208 2.8570557zm9.592461 4.1686707l-0.66735077 -9.648804l1.4651642 -0.10253906l0.09379578 1.3561401q0.40242767 -0.74868774 1.1214905 -1.2218933q0.7335663 -0.48989868 1.684372 -0.5564575q1.0754929 -0.07525635 1.7925797 0.3287964q0.71601105 0.38845825 1.0515594 1.1638184q1.0369949 -1.7641907 2.8606567 -1.8918152q1.4495773 -0.10144043 2.2683182 0.6400757q0.8343353 0.740448 0.9486084 2.3927612l0.45820618 6.6247864l-1.6366272 0.11453247l-0.42046356 -6.0792236q-0.0679245 -0.98202515 -0.25289917 -1.3919983q-0.18605804 -0.4255371 -0.6252289 -0.6610718q-0.43917847 -0.23556519 -1.0003052 -0.19628906q-1.0131454 0.070892334 -1.6359406 0.8036499q-0.6238785 0.7171936 -0.5214615 2.1980286l0.38812256 5.611603l-1.6366196 0.11450195l-0.43340302 -6.266266q-0.07546997 -1.091156 -0.51846313 -1.6083679q-0.44299316 -0.5172119 -1.3470306 -0.45394897q-0.68582153 0.04800415 -1.2533264 0.44796753q-0.5675049 0.39996338 -0.78396606 1.1199646q-0.20087433 0.7189026 -0.10923767 2.0438538l0.34607697 5.003662l-1.6366272 0.11453247zm21.897186 -4.649292l1.6973953 0.08483887q-0.30283356 1.5091858 -1.3211899 2.410614q-1.0194321 0.88583374 -2.7028122 1.0036316q-2.1198196 0.14834595 -3.456253 -1.058197q-1.3219299 -1.2232056 -1.4847183 -3.5769653q-0.16926575 -2.4472656 0.98496246 -3.875061q1.1698227 -1.4289246 3.1649399 -1.568512q1.9327774 -0.1352539 3.2401962 1.1046143q1.3219223 1.2232056 1.4868774 3.6081238q0.0107803345 0.15588379 0.030181885 0.4364624l-7.2011414 0.50393677q0.20349121 1.5834045 1.0733032 2.3840027q0.86873627 0.7850342 2.0689316 0.7010498q0.9040375 -0.06326294 1.5107574 -0.57562256q0.6056366 -0.5279541 0.90856934 -1.5829163zm-5.560753 -2.2736206l5.393059 -0.37738037q-0.19319916 -1.2082214 -0.7496109 -1.7801514q-0.84511566 -0.89630127 -2.092064 -0.8090515q-1.1222534 0.07852173 -1.8487701 0.8968811q-0.7120056 0.80163574 -0.70261383 2.0697021zm9.968887 5.082123l-0.12937927 -1.8705139l1.87043 -0.1308899l0.12937164 1.8705139l-1.8704224 0.1308899zm4.7186356 -0.3302002l-0.66735077 -9.648834l1.4651642 -0.102508545l0.09379578 1.3561401q0.40242767 -0.74868774 1.1214905 -1.2218933q0.7335663 -0.4899292 1.6843643 -0.5564575q1.0755005 -0.07525635 1.7925873 0.3287964q0.71601105 0.38845825 1.0515594 1.1638184q1.0369873 -1.7641907 2.8606567 -1.8918152q1.4495773 -0.10144043 2.2683182 0.6400757q0.8343353 0.740448 0.9486084 2.3927612l0.45820618 6.6247864l-1.6366272 0.11453247l-0.42046356 -6.0792236q-0.0679245 -0.98202515 -0.25289917 -1.3919983q-0.18605804 -0.4255371 -0.6252289 -0.6611023q-0.43917847 -0.23553467 -1.0003052 -0.19625854q-1.0131454 0.070892334 -1.6359482 0.8036499q-0.62387085 0.7171936 -0.52145386 2.1980286l0.38812256 5.6115723l-1.6366196 0.11453247l-0.43340302 -6.266266q-0.07546997 -1.091156 -0.51846313 -1.6083679q-0.44299316 -0.5172119 -1.3470306 -0.45394897q-0.68582916 0.04800415 -1.253334 0.44796753q-0.5675049 0.39996338 -0.78396606 1.1199646q-0.20087433 0.7189026 -0.10923004 2.0438538l0.34607697 5.003662l-1.6366272 0.11453247zm21.753227 -1.5222473l-0.08409119 -1.2158508q-0.80485535 1.497345 -2.5973358 1.6227722q-1.1534424 0.080718994 -2.164032 -0.49075317q-1.0105896 -0.57147217 -1.6192322 -1.6723022q-0.60865784 -1.1007996 -0.7110901 -2.5816345q-0.1002655 -1.4496765 0.30207825 -2.6525574q0.40126038 -1.2185059 1.3089294 -1.9085388q0.92326355 -0.6911316 2.1234589 -0.77511597q0.87286377 -0.06109619 1.5689697 0.26611328q0.71061707 0.31051636 1.1724396 0.8734131l-0.33099365 -4.7854614l1.6366272 -0.11450195l0.92178345 13.327515l-1.5275116 0.106903076zm-5.492386 -4.455597q0.1282959 1.85495 0.9712372 2.7200928q0.84295654 0.8651428 1.9028625 0.7909851q1.0755005 -0.07525635 1.7632904 -1.0005493q0.6867218 -0.94085693 0.56274414 -2.733429q-0.13693237 -1.9796448 -0.96429443 -2.8458862q-0.82844543 -0.88183594 -1.9506989 -0.8032837q-1.0755005 0.07525635 -1.7466278 1.0150146q-0.6711273 0.9397888 -0.5385132 2.8570557z"
         fill-rule="nonzero"
         id="path384" />
    </g>
    <path
       fill="#000000"
       fill-opacity="0.0"
       d="m296.11548 266.2861c0 7.6721497 -51.244095 11.005768 -102.488174 15.34433c-51.244095 4.3385925 -102.4882 9.682159 -102.4882 19.364319"
       fill-rule="evenodd"
       id="path387" />
    <path
       stroke="#0000ff"
       stroke-width="2.0"
       stroke-linejoin="round"
       stroke-linecap="butt"
       d="m296.11548 266.2861c0 7.6721497 -51.244095 11.005768 -102.488174 15.34433c-51.244095 4.3385925 -102.4882 9.682159 -102.4882 19.364319"
       fill-rule="evenodd"
       id="path389" />
    <g
       filter="url(#shadowFilter-p.13)"
       id="g393">
      <use
         xlink:href="#p.13"
         transform="matrix(1.0 0.0 0.0 1.0 -0.20939684289646898 5.996344939304461)"
         id="use391" />
    </g>
    <defs
       id="defs408">
      <filter
         id="shadowFilter-p.13"
         filterUnits="userSpaceOnUse">
        <feGaussianBlur
           in="SourceAlpha"
           stdDeviation="2.0"
           result="blur"
           id="feGaussianBlur395" />
        <feComponentTransfer
           in="blur"
           color-interpolation-filters="sRGB"
           id="feComponentTransfer405">
          <feFuncR
             type="linear"
             slope="0"
             intercept="0.0"
             id="feFuncR397" />
          <feFuncG
             type="linear"
             slope="0"
             intercept="0.0"
             id="feFuncG399" />
          <feFuncB
             type="linear"
             slope="0"
             intercept="0.0"
             id="feFuncB401" />
          <feFuncA
             type="linear"
             slope="0.5"
             intercept="0"
             id="feFuncA403" />
        </feComponentTransfer>
      </filter>
    </defs>
    <g
       id="p.13">
      <path
         fill="#f3f3f3"
         d="m345.3624 378.06296l72.73453 0c2.642456 0 5.176697 1.0497131 7.045227 2.918213c1.8684998 1.8685303 2.918213 4.402771 2.918213 7.045227l0 49.81607c0 4.272461E-4 -3.3569336E-4 7.9345703E-4 -7.6293945E-4 7.9345703E-4l-92.660645 -7.9345703E-4l0 0c-4.272461E-4 0 -7.9345703E-4 -3.3569336E-4 -7.9345703E-4 -7.6293945E-4l7.9345703E-4 -49.815308l0 0c0 -5.502655 4.460785 -9.96344 9.96344 -9.96344z"
         fill-rule="evenodd"
         id="path410" />
      <path
         stroke="#0000ff"
         stroke-width="2.0"
         stroke-linejoin="round"
         stroke-linecap="butt"
         d="m345.3624 378.06296l72.73453 0c2.642456 0 5.176697 1.0497131 7.045227 2.918213c1.8684998 1.8685303 2.918213 4.402771 2.918213 7.045227l0 49.81607c0 4.272461E-4 -3.3569336E-4 7.9345703E-4 -7.6293945E-4 7.9345703E-4l-92.660645 -7.9345703E-4l0 0c-4.272461E-4 0 -7.9345703E-4 -3.3569336E-4 -7.9345703E-4 -7.6293945E-4l7.9345703E-4 -49.815308l0 0c0 -5.502655 4.460785 -9.96344 9.96344 -9.96344z"
         fill-rule="evenodd"
         id="path412" />
      <path
         fill="#000000"
         d="m373.71295 415.14432q-0.921875 0.765625 -1.765625 1.09375q-0.828125 0.3125 -1.796875 0.3125q-1.59375 0 -2.453125 -0.78125q-0.859375 -0.78125 -0.859375 -1.984375q0 -0.71875 0.328125 -1.296875q0.328125 -0.59375 0.84375 -0.9375q0.53125 -0.359375 1.1875 -0.546875q0.46875 -0.125 1.453125 -0.25q1.984375 -0.234375 2.921875 -0.5625q0.015625 -0.34375 0.015625 -0.421875q0 -1.0 -0.46875 -1.421875q-0.625 -0.546875 -1.875 -0.546875q-1.15625 0 -1.703125 0.40625q-0.546875 0.40625 -0.8125 1.421875l-1.609375 -0.21875q0.21875 -1.015625 0.71875 -1.640625q0.5 -0.640625 1.453125 -0.984375q0.953125 -0.34375 2.1875 -0.34375q1.25 0 2.015625 0.296875q0.78125 0.28125 1.140625 0.734375q0.375 0.4375 0.515625 1.109375q0.078125 0.421875 0.078125 1.515625l0 2.1875q0 2.28125 0.109375 2.890625q0.109375 0.59375 0.40625 1.15625l-1.703125 0q-0.265625 -0.515625 -0.328125 -1.1875zm-0.140625 -3.671875q-0.890625 0.375 -2.671875 0.625q-1.015625 0.140625 -1.4375 0.328125q-0.421875 0.1875 -0.65625 0.53125q-0.21875 0.34375 -0.21875 0.78125q0 0.65625 0.5 1.09375q0.5 0.4375 1.453125 0.4375q0.9375 0 1.671875 -0.40625q0.75 -0.421875 1.09375 -1.140625q0.265625 -0.5625 0.265625 -1.640625l0 -0.609375zm10.469482 4.859375l0 -1.21875q-0.90625 1.4375 -2.703125 1.4375q-1.15625 0 -2.125 -0.640625q-0.96875 -0.640625 -1.5 -1.78125q-0.53125 -1.140625 -0.53125 -2.625q0 -1.453125 0.484375 -2.625q0.484375 -1.1875 1.4375 -1.8125q0.96875 -0.625 2.171875 -0.625q0.875 0 1.546875 0.375q0.6875 0.359375 1.109375 0.953125l0 -4.796875l1.640625 0l0 13.359375l-1.53125 0zm-5.171875 -4.828125q0 1.859375 0.78125 2.78125q0.78125 0.921875 1.84375 0.921875q1.078125 0 1.828125 -0.875q0.75 -0.890625 0.75 -2.6875q0 -1.984375 -0.765625 -2.90625q-0.765625 -0.9375 -1.890625 -0.9375q-1.078125 0 -1.8125 0.890625q-0.734375 0.890625 -0.734375 2.8125zm9.281952 4.828125l0 -9.671875l1.46875 0l0 1.375q1.0625 -1.59375 3.078125 -1.59375q0.875 0 1.609375 0.3125q0.734375 0.3125 1.09375 0.828125q0.375 0.5 0.515625 1.203125q0.09375 0.453125 0.09375 1.59375l0 5.953125l-1.640625 0l0 -5.890625q0 -1.0 -0.203125 -1.484375q-0.1875 -0.5 -0.671875 -0.796875q-0.484375 -0.296875 -1.140625 -0.296875q-1.046875 0 -1.8125 0.671875q-0.75 0.65625 -0.75 2.515625l0 5.28125l-1.640625 0z"
         fill-rule="nonzero"
         id="path414" />
    </g>
    <g
       filter="url(#shadowFilter-p.14)"
       id="g419">
      <use
         xlink:href="#p.14"
         transform="matrix(1.0 0.0 0.0 1.0 -0.20939684289646898 5.996344939304461)"
         id="use417" />
    </g>
    <defs
       id="defs434">
      <filter
         id="shadowFilter-p.14"
         filterUnits="userSpaceOnUse">
        <feGaussianBlur
           in="SourceAlpha"
           stdDeviation="2.0"
           result="blur"
           id="feGaussianBlur421" />
        <feComponentTransfer
           in="blur"
           color-interpolation-filters="sRGB"
           id="feComponentTransfer431">
          <feFuncR
             type="linear"
             slope="0"
             intercept="0.0"
             id="feFuncR423" />
          <feFuncG
             type="linear"
             slope="0"
             intercept="0.0"
             id="feFuncG425" />
          <feFuncB
             type="linear"
             slope="0"
             intercept="0.0"
             id="feFuncB427" />
          <feFuncA
             type="linear"
             slope="0.5"
             intercept="0"
             id="feFuncA429" />
        </feComponentTransfer>
      </filter>
    </defs>
    <g
       id="p.14">
      <path
         fill="#f3f3f3"
         d="m437.2888 5.433545l29.00772 0c1.0191345 0 1.9964905 0.4048438 2.7171326 1.1254706c0.7206116 0.72062635 1.1254578 1.6980062 1.1254578 2.7171264l0 19.21252c0 1.6975403E-4 -1.2207031E-4 3.0708313E-4 -3.0517578E-4 3.0708313E-4l-36.692596 -3.0708313E-4l0 0c-1.8310547E-4 0 -3.0517578E-4 -1.3542175E-4 -3.0517578E-4 -3.0517578E-4l3.0517578E-4 -19.212215l0 0c0 -2.122208 1.720398 -3.842597 3.8425903 -3.842597z"
         fill-rule="evenodd"
         id="path436" />
      <path
         stroke="#0000ff"
         stroke-width="2.0"
         stroke-linejoin="round"
         stroke-linecap="butt"
         d="m437.2888 5.433545l29.00772 0c1.0191345 0 1.9964905 0.4048438 2.7171326 1.1254706c0.7206116 0.72062635 1.1254578 1.6980062 1.1254578 2.7171264l0 19.21252c0 1.6975403E-4 -1.2207031E-4 3.0708313E-4 -3.0517578E-4 3.0708313E-4l-36.692596 -3.0708313E-4l0 0c-1.8310547E-4 0 -3.0517578E-4 -1.3542175E-4 -3.0517578E-4 -3.0517578E-4l3.0517578E-4 -19.212215l0 0c0 -2.122208 1.720398 -3.842597 3.8425903 -3.842597z"
         fill-rule="evenodd"
         id="path438" />
      <path
         fill="#000000"
         d="m445.74353 24.443832l0 -1.875l1.875 0l0 1.875l-1.875 0zm6.234375 0l0 -1.875l1.859375 0l0 1.875l-1.859375 0zm6.203125 0l0 -1.875l1.875 0l0 1.875l-1.875 0z"
         fill-rule="nonzero"
         id="path440" />
    </g>
    <path
       fill="#000000"
       fill-opacity="0.0"
       d="m451.79266 28.488663c0 6.391014 -8.448822 9.585182 -16.897644 12.782032c-8.448822 3.1968498 -16.897644 6.396385 -16.897644 12.79277"
       fill-rule="evenodd"
       id="path443" />
    <path
       stroke="#0000ff"
       stroke-width="2.0"
       stroke-linejoin="round"
       stroke-linecap="butt"
       stroke-dasharray="2.0,6.0"
       d="m451.79266 28.488663c0 6.391014 -8.448822 9.585182 -16.897644 12.782032c-8.448822 3.1968498 -16.897644 6.396385 -16.897644 12.79277"
       fill-rule="evenodd"
       id="path445" />
  </g>
</svg>
